<?xml version="1.0" encoding="utf-8"?>
<COLLADA xmlns="http://www.collada.org/2005/11/COLLADASchema" version="1.4.1">
  <asset>
    <contributor>
      <author>Blender User</author>
      <authoring_tool>Blender 2.71.0 commit date:2014-06-25, commit time:18:36, hash:9337574</authoring_tool>
    </contributor>
    <created>2014-11-09T18:18:39</created>
    <modified>2014-11-09T18:18:39</modified>
    <unit name="meter" meter="1"/>
    <up_axis>Z_UP</up_axis>
  </asset>
  <library_images>
    <image id="Wood_jpg" name="Wood_jpg">
      <init_from>Wood.jpg</init_from>
    </image>
    <image id="WindowsBlue2_jpg" name="WindowsBlue2_jpg">
      <init_from>WindowsBlue2.jpg</init_from>
    </image>
    <image id="WindowAllBroken1" name="WindowAllBroken1">
      <init_from>WindowAllBroken1.jpg</init_from>
    </image>
  </library_images>
  <library_effects>
    <effect id="Wood-effect">
      <profile_COMMON>
        <newparam sid="Wood_jpg-surface">
          <surface type="2D">
            <init_from>Wood_jpg</init_from>
          </surface>
        </newparam>
        <newparam sid="Wood_jpg-sampler">
          <sampler2D>
            <source>Wood_jpg-surface</source>
          </sampler2D>
        </newparam>
        <technique sid="common">
          <lambert>
            <emission>
              <color sid="emission">0 0 0 1</color>
            </emission>
            <ambient>
              <color sid="ambient">0 0 0 1</color>
            </ambient>
            <diffuse>
              <texture texture="Wood_jpg-sampler" texcoord="UVMap"/>
            </diffuse>
            <index_of_refraction>
              <float sid="index_of_refraction">1</float>
            </index_of_refraction>
          </lambert>
        </technique>
        <extra>
          <technique profile="GOOGLEEARTH">
            <double_sided>1</double_sided>
          </technique>
        </extra>
      </profile_COMMON>
      <extra><technique profile="MAX3D"><double_sided>1</double_sided></technique></extra>
    </effect>
    <effect id="WindowBlue2-effect">
      <profile_COMMON>
        <newparam sid="WindowAllBroken1-surface">
          <surface type="2D">
            <init_from>WindowAllBroken1</init_from>
          </surface>
        </newparam>
        <newparam sid="WindowAllBroken1-sampler">
          <sampler2D>
            <source>WindowAllBroken1-surface</source>
          </sampler2D>
        </newparam>
        <technique sid="common">
          <phong>
            <emission>
              <color sid="emission">0 0 0 1</color>
            </emission>
            <ambient>
              <color sid="ambient">0 0 0 1</color>
            </ambient>
            <diffuse>
              <texture texture="WindowAllBroken1-sampler" texcoord="UVMap"/>
            </diffuse>
            <specular>
              <color sid="specular">0.02500001 0.02500001 0.02500001 1</color>
            </specular>
            <shininess>
              <float sid="shininess">50</float>
            </shininess>
            <index_of_refraction>
              <float sid="index_of_refraction">1</float>
            </index_of_refraction>
          </phong>
        </technique>
        <extra>
          <technique profile="GOOGLEEARTH">
            <double_sided>1</double_sided>
          </technique>
        </extra>
      </profile_COMMON>
      <extra><technique profile="MAX3D"><double_sided>1</double_sided></technique></extra>
    </effect>
  </library_effects>
  <library_materials>
    <material id="Wood-material" name="Wood">
      <instance_effect url="#Wood-effect"/>
    </material>
    <material id="WindowBlue2-material" name="WindowBlue2">
      <instance_effect url="#WindowBlue2-effect"/>
    </material>
  </library_materials>
  <library_geometries>
    <geometry id="Cube_010-mesh" name="Cube.010">
      <mesh>
        <source id="Cube_010-mesh-positions">
          <float_array id="Cube_010-mesh-positions-array" count="84">0.1738755 -0.007432401 0.4058337 -0.1713759 -0.007432341 0.4058337 0.00124979 -0.007432401 0.4561372 0.2733251 -0.03481531 -0.5 -0.2745747 -0.03481525 -0.5 0.2733248 -0.0348156 0.5 -0.2745748 -0.03481513 0.5 0.273325 -0.03481543 -0.4058337 0.2733249 -0.03481554 0.4058337 -0.2745748 -0.03481519 -0.4058337 -0.2745748 -0.03481519 0.4058337 0.1738755 -0.03481531 -0.4058337 -0.1713758 -0.03481531 -0.4058337 0.1738755 -0.03481537 0.4058337 -0.1713759 -0.03481531 0.4058337 0.1738756 -0.007432341 -0.4058337 -0.1713758 -0.007432341 -0.4058337 0.2733251 0.05593919 -0.5 -0.2745747 0.05593931 -0.5 0.2733248 0.05593889 0.5 -0.2745748 0.05593937 0.5 0.273325 0.05593907 -0.4058337 0.2733249 0.05593895 0.4058337 -0.2745748 0.05593931 -0.4058337 -0.2745748 0.05593937 0.4058337 0.00124979 -0.03481537 0.4567615 -6.25014e-4 -0.03481537 0.5509279 -6.25014e-4 0.05593913 0.5509279</float_array>
          <technique_common>
            <accessor source="#Cube_010-mesh-positions-array" count="28" stride="3">
              <param name="X" type="float"/>
              <param name="Y" type="float"/>
              <param name="Z" type="float"/>
            </accessor>
          </technique_common>
        </source>
        <source id="Cube_010-mesh-normals">
          <float_array id="Cube_010-mesh-normals-array" count="126">-1.44393e-6 -1 0 -1.79804e-6 -1 0 0 0 1 1 0 1.26594e-6 1 0 1.26594e-6 -1 0 0 -1 0 0 1 0 1.4687e-7 1 0 6.32972e-7 0 0 -1 -1 0 -1.26594e-6 -1.01626e-6 -1 7.85169e-7 0.1827708 0 0.9831556 -0.1827708 0 0.9831556 1 0 0 1 0 0 -1 0 0 0.2797663 0 -0.9600682 -0.2828943 -0.02186179 -0.958902 -8.66355e-7 -1 0 -1.19869e-6 -1 -1.4687e-7 0 0 1 -8.66355e-7 -1 3.16485e-7 0 -1 0 -1.19869e-6 -1 -1.26595e-6 -1.63181e-7 -1 -4.54138e-7 -1 0 0 -1 0 0 1 0 1.4687e-7 1 0 6.32972e-7 0 0 -1 -1 0 -1.26594e-6 -1.44393e-6 -1 3.16486e-7 0 -1 -3.18055e-7 0.1827708 0 0.9831556 -0.1827708 0 0.9831556 -1.12091e-6 -1 -1.34809e-6 -2.67582e-7 -1 -3.21813e-7 -1.79804e-6 -1 -6.32973e-7 -1 5.44176e-7 0 0.2828943 -0.02186173 -0.9589019 -0.2797663 0 -0.9600681</float_array>
          <technique_common>
            <accessor source="#Cube_010-mesh-normals-array" count="42" stride="3">
              <param name="X" type="float"/>
              <param name="Y" type="float"/>
              <param name="Z" type="float"/>
            </accessor>
          </technique_common>
        </source>
        <source id="Cube_010-mesh-map-0">
          <float_array id="Cube_010-mesh-map-0-array" count="252">0.3204345 0.3138067 0.3204341 0.9997451 0.2353858 0.9997451 0.08529919 0.9997463 2.50608e-4 0.9997463 2.50777e-4 0.3138068 0.791334 0.5694324 0.7913339 0.2776607 0.8139008 0.2776607 0.7814707 0.07664948 0.7038665 0.07664948 0.7814706 -4.68492e-5 0.7038665 0.07664948 0.7038663 -4.69685e-5 0.7814706 -4.68492e-5 0.5473797 0.9187244 0.54738 0.9954209 0.4697756 0.995421 0.2353858 0.3138067 0.2353858 0.9997451 0.160593 0.9997451 0.08529883 0.3138067 0.1600918 0.3138068 0.1600914 0.9997463 0.4697754 0.07362669 0.4697754 -0.003069698 0.5473797 -0.003069698 0.7038658 0.9217476 0.629073 0.9217475 0.6290737 0.07664912 0.7814704 0.9217478 0.7814701 0.9984443 0.7038657 0.9984441 0.3916735 0.3223814 0.4527693 0.2179765 0.4464281 0.3854817 0.5473797 0.4961755 0.5473798 0.07362675 0.6221725 0.07362675 0.5473797 0.9187244 0.5473797 0.4961755 0.6221727 0.4961754 0.4289698 0.9997485 0.4064033 0.9997484 0.4289703 0.3138068 0.4064033 0.9997484 0.4064032 0.3138067 0.4289703 0.3138068 0.9739561 0.3138067 0.9739562 0.9997494 0.951389 0.9997494 0.5022319 0.5842919 0.479665 0.5842919 0.479665 0.4384061 0.5022317 0.2925204 0.5022318 0.4384061 0.479665 0.4384061 0.2353858 0.3138067 0.3204345 0.3138067 0.2353858 0.9997451 0.08529883 0.3138067 0.08529919 0.9997463 2.50777e-4 0.3138068 0.8139008 0.5694324 0.791334 0.5694324 0.8139008 0.2776607 0.7814704 0.9217478 0.7038658 0.9217476 0.7814705 0.8345344 0.7814707 0.5427649 0.7814705 0.8345344 0.7038665 0.07664948 0.7038665 0.07664948 0.7814707 0.07664948 0.7814707 0.5427649 0.7814705 0.8345344 0.7038658 0.9217476 0.7038665 0.07664948 0.4697754 0.9187245 0.5473797 0.9187244 0.4697756 0.995421 0.160593 0.3138067 0.2353858 0.3138067 0.160593 0.9997451 0.08529919 0.9997463 0.08529883 0.3138067 0.1600914 0.9997463 0.5473798 0.07362675 0.4697754 0.07362669 0.5473797 -0.003069698 0.7038665 0.07664948 0.7038658 0.9217476 0.6290737 0.07664912 0.7038658 0.9217476 0.7814704 0.9217478 0.7038657 0.9984441 0.3916736 0.3854818 0.3916735 0.3223814 0.4464281 0.3854817 0.3980149 0.2168303 0.4527693 0.2179765 0.3916735 0.3223814 0.6221727 0.4961754 0.5473797 0.4961755 0.6221725 0.07362675 0.622173 0.9187241 0.5473797 0.9187244 0.6221727 0.4961754 0.4527693 0.2179765 0.3916731 0.1112792 0.4464277 0.05047136 0.4527693 0.2179765 0.3980149 0.2168303 0.3916731 0.1112792 0.3916731 0.1112792 0.3916731 0.0504713 0.4464277 0.05047136 0.9513897 0.3138067 0.9739561 0.3138067 0.951389 0.9997494 0.5022318 0.4384061 0.5022319 0.5842919 0.479665 0.4384061 0.479665 0.2925204 0.5022317 0.2925204 0.479665 0.4384061</float_array>
          <technique_common>
            <accessor source="#Cube_010-mesh-map-0-array" count="126" stride="2">
              <param name="S" type="float"/>
              <param name="T" type="float"/>
            </accessor>
          </technique_common>
        </source>
        <vertices id="Cube_010-mesh-vertices">
          <input semantic="POSITION" source="#Cube_010-mesh-positions"/>
        </vertices>
        <polylist material="Wood-material" count="42">
          <input semantic="VERTEX" source="#Cube_010-mesh-vertices" offset="0"/>
          <input semantic="NORMAL" source="#Cube_010-mesh-normals" offset="1"/>
          <input semantic="TEXCOORD" source="#Cube_010-mesh-map-0" offset="2" set="0"/>
          <vcount>3 3 3 3 3 3 3 3 3 3 3 3 3 3 3 3 3 3 3 3 3 3 3 3 3 3 3 3 3 3 3 3 3 3 3 3 3 3 3 3 3 3 </vcount>
          <p>12 0 0 14 0 1 10 0 2 8 1 3 13 1 4 11 1 5 12 2 6 11 2 7 15 2 8 7 3 9 3 3 10 21 3 11 3 4 12 17 4 13 21 4 14 6 5 15 20 5 16 24 5 17 9 6 18 10 6 19 24 6 20 7 7 21 21 7 22 22 7 23 8 8 24 22 8 25 19 8 26 4 9 27 18 9 28 17 9 29 9 10 30 23 10 31 18 10 32 14 11 33 26 11 34 6 11 35 26 12 36 5 12 37 19 12 38 6 13 39 26 13 40 27 13 41 1 14 42 14 14 43 16 14 44 14 15 45 12 15 46 16 15 47 11 16 48 13 16 49 0 16 50 14 17 51 1 17 52 2 17 53 13 18 54 25 18 55 2 18 56 9 19 57 12 19 58 10 19 59 7 20 60 8 20 61 11 20 62 16 21 63 12 21 64 15 21 65 9 22 66 4 22 67 12 22 68 11 23 69 12 23 70 3 23 71 3 24 72 7 24 73 11 24 74 12 25 75 4 25 76 3 25 77 10 26 78 6 26 79 24 26 80 23 27 81 9 27 82 24 27 83 8 28 84 7 28 85 22 28 86 5 29 87 8 29 88 19 29 89 3 30 90 4 30 91 17 30 92 4 31 93 9 31 94 18 31 95 10 32 96 14 32 97 6 32 98 25 33 99 26 33 100 14 33 101 27 34 102 26 34 103 19 34 104 20 35 105 6 35 106 27 35 107 26 36 108 13 36 109 5 36 110 26 37 111 25 37 112 13 37 113 13 38 114 8 38 115 5 38 116 15 39 117 11 39 118 0 39 119 25 40 120 14 40 121 2 40 122 0 41 123 13 41 124 2 41 125</p>
        </polylist>
      </mesh>
    </geometry>
    <geometry id="Cube_019-mesh" name="Cube.019">
      <mesh>
        <source id="Cube_019-mesh-positions">
          <float_array id="Cube_019-mesh-positions-array" count="18">0.1738755 -0.007432401 0.4058337 -0.1713759 -0.007432341 0.4058337 0.001249849 -0.007432341 -0.4058337 0.00124979 -0.007432401 0.4561372 0.1738756 -0.007432341 -0.4058337 -0.1713758 -0.007432341 -0.4058337</float_array>
          <technique_common>
            <accessor source="#Cube_019-mesh-positions-array" count="6" stride="3">
              <param name="X" type="float"/>
              <param name="Y" type="float"/>
              <param name="Z" type="float"/>
            </accessor>
          </technique_common>
        </source>
        <source id="Cube_019-mesh-normals">
          <float_array id="Cube_019-mesh-normals-array" count="12">-1.57529e-7 -1 0 -1.87754e-7 -1 0 0 -1 0 0 -1 0</float_array>
          <technique_common>
            <accessor source="#Cube_019-mesh-normals-array" count="4" stride="3">
              <param name="X" type="float"/>
              <param name="Y" type="float"/>
              <param name="Z" type="float"/>
            </accessor>
          </technique_common>
        </source>
        <source id="Cube_019-mesh-map-0">
          <float_array id="Cube_019-mesh-map-0-array" count="24">0.2003065 6.33837e-5 0.2003066 0.9999368 6.328e-5 0.9415854 0.40055 0.9415853 0.2003066 0.9999368 0.2003065 6.33837e-5 6.34874e-5 6.33492e-5 0.2003065 6.33837e-5 6.328e-5 0.9415854 0.4005497 6.328e-5 0.40055 0.9415853 0.2003065 6.33837e-5</float_array>
          <technique_common>
            <accessor source="#Cube_019-mesh-map-0-array" count="12" stride="2">
              <param name="S" type="float"/>
              <param name="T" type="float"/>
            </accessor>
          </technique_common>
        </source>
        <vertices id="Cube_019-mesh-vertices">
          <input semantic="POSITION" source="#Cube_019-mesh-positions"/>
        </vertices>
        <polylist material="WindowBlue2-material" count="4">
          <input semantic="VERTEX" source="#Cube_019-mesh-vertices" offset="0"/>
          <input semantic="NORMAL" source="#Cube_019-mesh-normals" offset="1"/>
          <input semantic="TEXCOORD" source="#Cube_019-mesh-map-0" offset="2" set="0"/>
          <vcount>3 3 3 3 </vcount>
          <p>2 0 0 3 0 1 1 0 2 0 1 3 3 1 4 2 1 5 5 2 6 2 2 7 1 2 8 4 3 9 0 3 10 2 3 11</p>
        </polylist>
      </mesh>
    </geometry>
  </library_geometries>
  <library_controllers/>
  <library_visual_scenes>
    <visual_scene id="Scene" name="Scene">
      <node id="WindowsSingleHigh2Frame" name="WindowsSingleHigh2Frame" type="NODE">
        <matrix sid="transform">1 0 0 0.7745748 0 1 0 0.005281009 0 0 1 1.313931 0 0 0 1</matrix>
        <instance_geometry url="#Cube_010-mesh">
          <bind_material>
            <technique_common>
              <instance_material symbol="Wood-material" target="#Wood-material">
                <bind_vertex_input semantic="UVMap" input_semantic="TEXCOORD" input_set="0"/>
              </instance_material>
            </technique_common>
          </bind_material>
        </instance_geometry>
      </node>
      <node id="WindowsSingleHigh2" name="WindowsSingleHigh2" type="NODE">
        <matrix sid="transform">1 0 0 0.7745748 0 1 0 0.005281009 0 0 1 1.313931 0 0 0 1</matrix>
        <instance_geometry url="#Cube_019-mesh">
          <bind_material>
            <technique_common>
              <instance_material symbol="WindowBlue2-material" target="#WindowBlue2-material">
                <bind_vertex_input semantic="UVMap" input_semantic="TEXCOORD" input_set="0"/>
              </instance_material>
            </technique_common>
          </bind_material>
        </instance_geometry>
      </node>
    </visual_scene>
  </library_visual_scenes>
  <scene>
    <instance_visual_scene url="#Scene"/>
  </scene>
</COLLADA>