<?xml version="1.0" encoding="utf-8"?>
<COLLADA xmlns="http://www.collada.org/2005/11/COLLADASchema" version="1.4.1">
  <asset>
    <contributor>
      <author>RonMain</author>
      <authoring_tool>OpenCOLLADA for 3ds Max;  Version: 1.2.5;  Revision: 673;  Platform: Win32;  Configuration: Release Max9</authoring_tool>
      <source_data>file:///E:/3TDS%20Torque%20Model%20Library/Rocks%20and%20Stones/SmallRock01/SmallRock_01-final.max</source_data>
    </contributor>
    <created>2012-09-17T17:41:00</created>
    <modified>2012-09-17T17:41:00</modified>
    <unit name="inch" meter="0.0254"/>
    <up_axis>Z_UP</up_axis>
  </asset>
  <library_effects>
    <effect id="Rock02a_jpg">
      <profile_COMMON>
        <newparam sid="rock02a_jpg-surface">
          <surface type="2D">
            <init_from>rock02a_jpg</init_from>
          </surface>
        </newparam>
        <newparam sid="rock02a_jpg-sampler">
          <sampler2D>
            <source>rock02a_jpg-surface</source>
          </sampler2D>
        </newparam>
        <technique sid="common">
          <blinn>
            <emission>
              <color>0 0 0 1</color>
            </emission>
            <ambient>
              <color>0.5882353 0.5882353 0.5882353 1</color>
            </ambient>
            <diffuse>
              <texture texture="rock02a_jpg-sampler" texcoord="CHANNEL1"/>
            </diffuse>
            <specular>
              <color>0.9 0.9 0.9 1</color>
            </specular>
            <shininess>
              <float>45</float>
            </shininess>
            <reflective>
              <color>0 0 0 1</color>
            </reflective>
            <transparent opaque="A_ONE">
              <color>1 1 1 1</color>
            </transparent>
            <transparency>
              <float>1</float>
            </transparency>
          </blinn>
        </technique>
      </profile_COMMON>
      <extra>
        <technique profile="OpenCOLLADA3dsMax">
          <extended_shader>
            <apply_reflection_dimming>0</apply_reflection_dimming>
            <dim_level>0</dim_level>
            <falloff_type>0</falloff_type>
            <index_of_refraction>1.5</index_of_refraction>
            <opacity_type>0</opacity_type>
            <reflection_level>3</reflection_level>
            <wire_size>1</wire_size>
            <wire_units>0</wire_units>
          </extended_shader>
          <shader>
            <ambient_diffuse_lock>1</ambient_diffuse_lock>
            <ambient_diffuse_texture_lock>1</ambient_diffuse_texture_lock>
            <diffuse_specular_lock>0</diffuse_specular_lock>
            <soften>0.1</soften>
            <use_self_illum_color>0</use_self_illum_color>
          </shader>
        </technique>
      </extra>
    </effect>
  </library_effects>
  <library_materials>
    <material id="Rock02a_jpg-material" name="Rock02a_jpg">
      <instance_effect url="#Rock02a_jpg"/>
    </material>
  </library_materials>
  <library_geometries>
    <geometry id="geom-SmallStoneOne256" name="SmallStoneOne256">
      <mesh>
        <source id="geom-SmallStoneOne256-positions">
          <float_array id="geom-SmallStoneOne256-positions-array" count="162">11.46138 -4.179558 7.665114 -4.583694 5.78769 9.841108 -9.021869 -9.807741 6.00627 -13.23431 4.606115 3.288059 8.218819 4.373718 -0.1636071 4.325264 -9.084764 11.78456 5.149896 -10.18808 0.2617097 2.288368 7.989058 6.604835 -5.540879 5.837415 -0.6863131 10.70724 -7.73121 3.057495 -5.193772 -6.981759 0.4114136 -7.233035 8.468961 1.712576 -5.321167 -4.58956 13.33891 3.026555 -4.526938 13.31342 1.431281 -0.7307645 8.987144 -8.346062 3.950669 -0.5257233 -14.29153 2.204867 2.087512 9.900558 -5.206981 -0.7384852 7.499796 3.645318 5.466409 -5.166216 2.320553 12.80153 6.629044 -11.64742 5.377035 7.213859 4.714452 3.061754 3.490233 -10.23981 10.51002 -9.363089 4.243649 9.142774 8.771841 -10.04296 6.517603 -2.118635 -9.603559 4.570867 -13.46152 3.164144 4.938192 2.219399 5.45616 -1.736345 9.639132 -0.881377 7.669912 -1.004573 6.132645 9.244454 9.997566 -4.816133 10.09278 0.2144404 -8.683922 12.5583 2.15513 -6.860297 13.63117 -2.550245 7.457536 3.386079 -6.850605 -5.979744 0.1740409 -11.93991 -1.651335 5.040891 8.650605 -10.56358 3.197996 -8.684753 -4.188639 11.35172 10.08764 -1.628773 -0.7275797 7.294987 -8.953213 -0.6748832 -10.18003 -0.5946262 1.11258 -6.513894 -9.461165 3.657374 11.52416 -2.863074 5.599089 6.010993 -1.090095 7.447946 7.374588 2.053204 6.602483 4.916908 5.589048 3.246623 -1.652256 1.146812 11.46856 -2.338672 6.117538 -0.3084705 6.107285 -11.14623 7.598344 5.451527 5.91765 -0.7947676 6.245285 -11.13984 1.676715 1.257232 7.640119 7.581963 -1.488167 -10.34762 7.980473 -0.7590966 -4.37988 14.04425</float_array>
          <technique_common>
            <accessor source="#geom-SmallStoneOne256-positions-array" count="54" stride="3">
              <param name="X" type="float"/>
              <param name="Y" type="float"/>
              <param name="Z" type="float"/>
            </accessor>
          </technique_common>
        </source>
        <source id="geom-SmallStoneOne256-normals">
          <float_array id="geom-SmallStoneOne256-normals-array" count="162">-0.1369086 0.3807833 0.9144726 -0.3636988 -0.2682352 0.8920611 0.02916314 0.04291592 0.9986529 -0.5620547 0.5405456 0.6260231 -0.6874251 -0.2390012 0.6858027 0.2522591 0.940998 -0.225584 0.04933537 0.5971076 -0.8006426 0.1028648 0.9055501 -0.4115798 0.124524 0.9886125 -0.08449233 0.607017 0.7884884 0.09907755 0.3348462 0.9179894 0.212541 0.6913809 0.5803826 0.430289 0.2424814 -0.8942493 0.376193 0.1856985 -0.9807097 0.06102738 0.685445 -0.6549008 0.3182297 0.5107967 0.47604 0.7158719 0.3675696 0.3571609 0.8586785 0.6535168 0.05468949 0.7549337 -0.9097389 -0.4151337 0.006239128 -0.5781076 -0.3420599 -0.7408013 -0.4031357 -0.3748959 -0.8348262 -0.6343778 -0.7728393 0.0168614 -0.1386556 -0.9834211 0.1168651 -0.254712 0.9233088 -0.2874414 -0.1417847 0.8071797 0.5730252 0.1555102 0.7859865 0.598366 0.2635874 0.4989883 0.8255498 0.3149955 0.3791479 0.8700717 -0.1625983 0.3767102 -0.9119492 -0.7152783 0.689033 -0.1166641 0.9746543 0.21992 0.04103879 0.9005753 -0.3940501 -0.1835444 0.6072826 -0.1512338 -0.779959 0.6108144 0.1354773 -0.7800973 0.1643548 -0.2714871 0.948305 0.3422308 -0.5865607 0.7340468 -0.1271028 -0.9468021 -0.2956527 -0.1411627 -0.5461224 -0.825726 -0.126594 -0.7287225 -0.6730064 -0.8730036 0.2040558 0.442974 -0.1513319 -0.6797239 0.7176866 0.5323932 0.3997781 0.7461468 -0.3322901 0.2404169 -0.9120214 -0.9008367 -0.05170847 -0.4310679 0.2692679 0.8021384 -0.5329811 0.667033 0.5488456 -0.5038208 0.3032608 -0.4561663 -0.8366272 0.6298422 -0.7508882 -0.1986599 0.1837816 0.4474412 0.8752261 0.09924947 -0.9232149 -0.3712464 0.04982841 -0.8887355 0.4557041 0.9433141 0.006260791 0.3318423 -0.1774222 -0.8594309 -0.4794788 0.4905336 0.5430847 0.6814953</float_array>
          <technique_common>
            <accessor source="#geom-SmallStoneOne256-normals-array" count="54" stride="3">
              <param name="X" type="float"/>
              <param name="Y" type="float"/>
              <param name="Z" type="float"/>
            </accessor>
          </technique_common>
        </source>
        <source id="geom-SmallStoneOne256-map1">
          <float_array id="geom-SmallStoneOne256-map1-array" count="792">0.1546223 0.7014884 1.356337 -0.5184247 -0.5958016 0.4901546 -0.326046 0.1178811 -0.2900419 1.261193 1.250748 2.97576e-4 1.371144 -0.2856321 -0.07325697 -0.3189313 0.08713925 1.306062 -0.008011758 -0.2656716 0.140498 1.279913 1.841092 0.2039084 -0.02499765 0.09995592 0.9789972 1.088032 0.1083051 0.9772977 0.8753288 0.6144617 0.6888795 1.428317 1.238653 0.05468842 2.221046 1.00588 0.2289041 1.684464 1.197939 0.4541639 1.568363 0.3964112 -0.1705459 -0.6463393 0.0877071 0.9202452 1.149855 1.080809 -0.07670557 -0.2777171 0.8985097 -0.03196013 -0.6271646 0.5484869 1.177035 0.4020064 0.2889221 -0.03428876 -0.1337832 0.3378989 -0.3051891 1.969709 0.5943797 0.6010641 0.5505486 1.529583 0.7060336 2.0175 0.06974572 0.7625885 0.9718418 -0.2028093 0.9984813 0.6555412 0.1309504 1.103117 0.5082806 0.351592 -0.2037486 1.837905 0.1058728 -0.09829044 -0.4734759 0.1534121 0.8465182 1.657156 -0.4105111 0.009067565 1.672845 0.6326138 0.1639087 -0.1840281 0.1671231 -0.02479577 0.3301533 0.4260185 1.360523 1.485957 0.5665509 0.5862663 1.498796 0.6925858 -0.1371334 -0.4113617 1.500917 0.03675213 1.517195 -0.09696466 -0.1367078 0.8521225 1.730579 0.5952008 0.4860687 0.7435362 -0.08389306 -0.00433737 1.021304 0.9431719 -0.02499765 0.09995592 0.9789972 0.5832783 0.127913 1.02602 -1.02951 0.4947269 0.04123133 -1.004565 0.0176326 0.04050431 -0.780334 1.295059 0.0788295 -0.6571559 -0.4818649 0.04474443 -0.00433737 1.021304 0.9431719 -0.5639203 1.277717 0.6992549 -0.4734759 0.1534121 0.8465182 0.6273314 -0.3616561 1.013784 0.6555412 0.1309504 1.103117 -0.3400792 0.1123564 0.9785516 0.01039267 0.560118 1.138552 -0.6844642 0.4083278 0.8489696 -0.6463393 0.0877071 0.9202452 1.498796 0.6925858 -0.1371334 1.568363 0.3964112 -0.1705459 1.85407 0.5484869 -0.0635823 0.1246713 0.877759 0.5572308 -0.08803189 1.454595 0.3041525 -1.0175 1.025177 0.2848729 1.085402 -0.2973213 0.1355386 1.595802 0.4803092 -0.009212375 0.5082806 0.351592 -0.2037486 1.498796 0.6925858 -0.1371334 0.4860687 0.7435362 -0.08389306 1.568363 0.3964112 -0.1705459 1.279913 -0.09218323 1.170546 1.56392 0.8985097 0.8888586 0.9266676 0.991621 0.9917945 0.8521225 1.730579 0.5952008 0.5505486 1.529583 0.7060336 1.66777 0.9856572 0.5299022 0.3673862 -0.1721827 -0.08642268 1.279913 1.841092 0.2039084 1.054292 1.490219 0.04398245 2.080084 1.326046 0.3089405 0.0176326 -0.4189914 1.252283 0.4947269 -0.4175373 1.264755 0.3301533 0.4260185 1.360523 1.261193 -0.4994048 0.8753738 1.85407 -0.6271646 0.5242435 2.0175 0.06974572 0.7625885 1.008012 -0.219004 0.1171642 0.4020064 0.2889221 -0.03428876 -0.008011758 -0.2656716 0.140498 1.371144 -0.2856321 -0.07325697 0.6555412 0.1309504 1.103117 0.6273314 -0.3616561 1.013784 1.279913 -0.09218323 1.170546 0.6555412 0.1309504 1.103117 1.279913 -0.09218323 1.170546 0.9266676 0.991621 0.9917945 -0.1337832 0.3378989 -0.3051891 1.595802 0.4803092 -0.009212375 0.8465879 1.193036 0.01326206 -0.02499765 0.09995592 0.9789972 -0.5184247 -0.5958016 0.4901546 0.7130831 -0.4459593 0.9269563 0.5832783 0.127913 1.02602 -0.02499765 0.09995592 0.9789972 0.7130831 -0.4459593 0.9269563 0.9718418 -0.2028093 0.9984813 0.1083051 1.454595 0.7940159 0.6144617 0.877759 0.6876644 0.8648053 1.208615 0.4820953 1.66777 0.9856572 0.5299022 0.5505486 1.529583 0.7060336 0.8753288 0.6144617 0.6888795 1.054292 -0.4120351 0.9951096 1.428317 -0.3906232 0.8693265 2.221046 -0.04219174 0.7529398 1.228923 -0.08540201 0.1013394 1.428317 1.238653 0.05468842 1.054292 1.490219 0.04398245 -0.2777171 0.8985097 -0.03196013 2.080084 1.326046 0.3089405 1.054292 1.490219 0.04398245 2.221046 1.00588 0.2289041 -0.6965809 0.1058728 1.168952 -0.4818649 -0.4105111 1.078578 0.0176326 -0.4189914 1.252283 -0.3189313 0.08713925 1.306062 -0.4859569 0.6725326 0.5332754 0.1246713 0.877759 0.5572308 -1.0175 1.025177 0.2848729 0.3301533 0.4260185 1.360523 1.295059 -0.342341 1.140167 1.197939 0.4083278 1.092232 -0.00433737 1.021304 0.9431719 0.5832783 0.127913 1.02602 0.4641905 0.8648053 0.8543075 -0.5639203 1.277717 0.6992549 -0.00433737 1.021304 0.9431719 0.07333243 1.483589 0.7458105 1.517195 -0.09696466 -0.1367078 1.568363 0.3964112 -0.1705459 0.4020064 0.2889221 -0.03428876 1.517195 -0.09696466 -0.1367078 1.837905 0.1058728 -0.09829044 1.568363 0.3964112 -0.1705459 -0.4113617 -0.4264957 1.000458 0.01958859 -0.5520393 0.9696924 -0.3400792 0.1123564 0.9785516 1.197939 0.4083278 1.092232 1.295059 -0.342341 1.140167 1.34049 0.0877071 1.07317 0.7130831 1.353913 0.02702036 -0.5184247 0.4803092 -0.0479008 1.149855 1.080809 -0.07670557 1.261193 1.250748 2.97576e-4 1.498796 0.6925858 -0.1371334 1.85407 0.5484869 -0.0635823 1.279913 -0.09218323 1.170546 2.080084 0.1178811 0.913023 1.56392 0.8985097 0.8888586 -0.326046 0.1178811 -0.2900419 -0.1337832 0.3378989 -0.3051891 1.568363 0.3964112 -0.1705459 1.837905 0.1058728 -0.09829044 1.85407 0.5484869 -0.0635823 0.1546223 0.7014884 1.356337 -0.6271646 0.5484869 1.177035 -0.3189313 0.08713925 1.306062 1.149855 1.080809 -0.07670557 -0.5184247 0.4803092 -0.0479008 0.4860687 0.7435362 -0.08389306 -0.5184247 0.4803092 -0.0479008 -0.1840281 0.1671231 -0.02479577 0.4860687 0.7435362 -0.08389306 1.595802 0.4803092 -0.009212375 -0.1337832 0.3378989 -0.3051891 0.5082806 0.351592 -0.2037486 -0.005879641 -0.04219174 -0.360523 -0.1337832 0.3378989 -0.3051891 0.01958859 -0.5520393 0.9696924 0.01958859 1.439385 -0.02601963 0.8753288 0.6144617 0.6888795 1.485957 0.5665509 0.5862663 1.66777 0.9856572 0.5299022 0.3301533 0.4260185 1.360523 1.197939 0.4083278 1.092232 0.5943797 0.7021282 1.234854 0.5505486 1.529583 0.7060336 0.8521225 1.730579 0.5952008 0.07333243 1.483589 0.7458105 0.07333243 1.483589 0.7458105 -0.00433737 1.021304 0.9431719 0.5505486 1.529583 0.7060336 -0.6271646 0.5484869 1.177035 0.1546223 0.7014884 1.356337 0.06974572 1.025177 1.25875 0.7130831 -0.4459593 0.9269563 1.261193 -0.4994048 0.8753738 0.9718418 -0.2028093 0.9984813 1.149855 1.080809 -0.07670557 1.261193 1.250748 2.97576e-4 0.7130831 1.353913 0.02702036 2.0175 0.06974572 0.7625885 1.088032 0.1083051 0.9772977 0.9718418 -0.2028093 0.9984813 0.1478775 0.6904017 1.11529 -0.3400792 0.1123564 0.9785516 0.6555412 0.1309504 1.103117 0.01039267 0.560118 1.138552 -0.1840281 0.1671231 -0.02479577 -0.5184247 0.4803092 -0.0479008 -0.2289228 -0.2973213 0.207299 -0.9074972 0.351592 0.4958597 -1.221046 -0.04219174 0.7529398 -0.6728454 -0.1721827 0.5663069 -0.005879641 -0.04219174 -0.360523 -0.3189313 0.08713925 1.306062 -0.6965809 0.1058728 1.168952 -0.3189313 0.08713925 1.306062 -0.02499765 0.09995592 0.9789972 -0.4734759 0.1534121 0.8465182 -0.00433737 1.021304 0.9431719 0.3301533 0.4260185 1.360523 0.4947269 -0.4175373 1.264755 1.295059 -0.342341 1.140167 1.517195 -0.09696466 -0.1367078 1.657156 -0.4105111 0.009067565 -0.3711438 -0.6465139 0.107184 1.428317 1.238653 0.05468842 1.228923 -0.08540201 0.1013394 1.672845 0.6326138 0.1639087 -0.008011758 -0.2656716 0.140498 0.4020064 0.2889221 -0.03428876 -0.1840281 0.1671231 -0.02479577 0.1546223 0.7014884 1.356337 0.3301533 0.4260185 1.360523 0.5943797 0.7021282 1.234854 1.969709 0.5943797 0.6010641 1.485957 0.5665509 0.5862663 1.969709 0.5943797 0.6010641 1.66777 0.9856572 0.5299022 1.684464 1.197939 0.4541639 1.66777 0.9856572 0.5299022 1.66777 0.9856572 0.5299022 0.9896073 1.777105 0.530059 -0.3400792 0.1123564 0.9785516 -0.780334 -0.342341 0.8975296 -0.3400792 0.1123564 0.9785516 0.5505486 1.529583 0.7060336 0.4641905 0.8648053 0.8543075 0.6273314 1.527569 0.06917194 1.054292 1.490219 0.04398245 1.149855 1.080809 -0.07670557 0.4860687 0.7435362 -0.08389306 1.498796 0.6925858 -0.1371334 -0.780334 -0.342341 0.8975296 0.4020064 0.2889221 -0.03428876 1.371144 -0.2856321 -0.07325697 1.517195 -0.09696466 -0.1367078 0.01039267 0.560118 1.138552 0.1478775 0.6904017 1.11529 0.4020064 0.2889221 -0.03428876 0.4860687 0.7435362 -0.08389306 0.9718418 -0.2028093 0.9984813 0.5832783 0.127913 1.02602 0.3221329 1.649834 0.6401192 0.6423965 1.521298 0.01464075 2.192382 0.2828023 0.7063281</float_array>
          <technique_common>
            <accessor source="#geom-SmallStoneOne256-map1-array" count="264" stride="3">
              <param name="S" type="float"/>
              <param name="T" type="float"/>
              <param name="P" type="float"/>
            </accessor>
          </technique_common>
        </source>
        <vertices id="geom-SmallStoneOne256-vertices">
          <input semantic="POSITION" source="#geom-SmallStoneOne256-positions"/>
        </vertices>
        <triangles material="Rock02a_jpg_1" count="104">
          <input semantic="VERTEX" source="#geom-SmallStoneOne256-vertices" offset="0"/>
          <input semantic="NORMAL" source="#geom-SmallStoneOne256-normals" offset="1"/>
          <input semantic="TEXCOORD" source="#geom-SmallStoneOne256-map1" offset="2" set="1"/>
          <p>19 0 39 12 1 40 53 2 41 19 0 46 23 3 47 37 4 48 45 5 51 27 6 175 47 7 49 47 7 49 33 8 50 45 5 51 21 9 54 45 5 241 7 10 52 7 10 52 18 11 53 21 9 54 48 12 55 20 13 56 24 14 57 14 15 58 13 16 59 30 17 60 35 18 63 40 19 73 34 20 61 34 20 61 2 21 62 35 18 63 48 12 64 52 22 65 20 13 66 11 23 67 23 3 68 1 24 69 51 25 70 29 26 71 44 27 72 11 23 74 8 28 75 3 29 76 42 30 79 9 31 122 17 32 77 17 32 77 38 33 78 42 30 79 30 17 82 32 34 102 5 35 80 5 35 80 24 14 81 30 17 82 25 36 84 10 37 85 6 38 86 33 8 87 47 7 88 11 23 89 1 24 92 51 25 201 33 8 90 33 8 90 11 23 91 1 24 92 37 4 95 23 3 115 26 39 93 26 39 93 2 21 94 37 4 95 12 1 96 2 21 97 31 40 98 31 40 101 32 34 24 53 2 99 53 2 99 12 1 100 31 40 101 46 41 105 53 2 261 13 16 103 13 16 103 14 15 104 46 41 105 44 27 106 29 26 107 14 15 108 8 28 109 15 42 110 16 43 111 34 20 112 15 42 113 8 28 114 8 28 114 47 7 262 27 6 176 34 20 112 8 28 114 27 6 176 27 6 176 49 44 35 4 45 44 38 33 42 17 32 43 39 46 45 4 45 44 38 33 42 39 46 45 27 6 176 4 45 44 39 46 45 39 46 45 6 38 223 10 37 83 27 6 176 39 46 45 10 37 83 34 20 112 27 6 176 10 37 83 3 29 116 8 28 117 16 43 118 17 32 121 9 31 212 36 47 119 36 47 119 39 46 120 17 32 121 43 48 123 14 15 124 30 17 125 42 30 126 4 45 127 18 11 128 46 41 131 29 26 22 19 0 129 19 0 129 53 2 130 46 41 131 23 3 132 19 0 133 1 24 134 50 49 135 20 13 136 25 36 137 50 49 138 36 47 139 20 13 140 45 5 143 4 45 251 49 44 141 49 44 141 27 6 142 45 5 143 18 11 144 4 45 145 21 9 146 31 40 147 2 21 148 22 50 149 5 35 150 48 12 151 24 14 152 11 23 153 3 29 154 23 3 155 23 3 17 3 29 156 26 39 157 20 13 158 36 47 159 24 14 160 0 51 161 24 14 162 9 31 163 22 50 164 2 21 165 52 22 166 2 21 167 41 52 168 52 22 169 2 21 170 26 39 171 35 18 172 3 29 2 16 43 173 26 39 174 14 15 177 43 48 178 44 27 179 42 30 180 18 11 181 28 53 182 29 26 183 51 25 184 1 24 185 1 24 186 19 0 187 29 26 188 24 14 189 0 51 190 30 17 191 28 53 233 43 48 234 30 17 23 30 17 23 0 51 263 28 53 233 31 40 192 5 35 193 32 34 194 22 50 195 5 35 196 31 40 197 30 17 198 13 16 199 32 34 200 45 5 202 33 8 203 7 10 204 34 20 207 10 37 227 41 52 205 41 52 205 2 21 206 34 20 207 35 18 208 16 43 209 40 19 210 26 39 20 16 43 211 35 18 26 24 14 18 36 47 213 9 31 214 12 1 215 37 4 216 2 21 1 19 0 217 37 4 28 12 1 8 42 30 218 38 33 219 4 45 220 36 47 27 50 49 221 39 46 222 15 42 224 34 20 225 40 19 226 16 43 12 15 42 11 40 19 30 25 36 228 41 52 229 10 37 6 0 51 230 9 31 5 42 30 231 42 30 32 28 53 232 0 51 0 43 48 33 28 53 235 44 27 236 28 53 21 18 11 237 44 27 238 7 10 240 51 25 37 44 27 239 44 27 239 18 11 13 7 10 240 21 9 15 4 45 242 45 5 243 14 15 10 29 26 244 46 41 245 47 7 246 8 28 247 11 23 7 22 50 248 52 22 249 48 12 250 5 35 3 22 50 16 48 12 34 25 36 252 6 38 253 50 49 254 39 46 29 50 49 36 6 38 4 7 10 255 33 8 25 51 25 256 41 52 31 25 36 257 52 22 258 52 22 38 25 36 19 20 13 14 32 34 259 13 16 9 53 2 260</p>
        </triangles>
      </mesh>
    </geometry>
    <geometry id="geom-SmallStoneOne128" name="SmallStoneOne128">
      <mesh>
        <source id="geom-SmallStoneOne128-positions">
          <float_array id="geom-SmallStoneOne128-positions-array" count="66">8.218819 4.373718 -0.1636071 4.325264 -9.084764 11.78456 -13.23431 4.606115 3.288059 -9.021869 -9.807741 6.00627 7.294987 -8.953213 -0.6748832 -4.583694 5.78769 9.841108 11.46138 -4.179558 7.665114 -5.540879 5.837415 -0.6863131 -6.850605 -5.979744 0.1740409 8.771841 -10.04296 6.517603 -8.684753 -4.188639 11.35172 -0.7590966 -4.37988 14.04425 2.288368 7.989058 6.604835 -7.233035 8.468961 1.712576 -14.29153 2.204867 2.087512 9.900558 -5.206981 -0.7384852 1.431281 -0.7307645 8.987144 9.639132 -0.881377 7.669912 8.650605 -10.56358 3.197996 2.219399 5.45616 -1.736345 -5.166216 2.320553 12.80153 3.026555 -4.526938 13.31342</float_array>
          <technique_common>
            <accessor source="#geom-SmallStoneOne128-positions-array" count="22" stride="3">
              <param name="X" type="float"/>
              <param name="Y" type="float"/>
              <param name="Z" type="float"/>
            </accessor>
          </technique_common>
        </source>
        <source id="geom-SmallStoneOne128-normals">
          <float_array id="geom-SmallStoneOne128-normals-array" count="66">0.5945747 0.3990154 0.6980456 0.3553267 0.8570312 0.3731494 0.5841872 0.3569311 0.7289208 -0.2151919 0.3939537 0.8935843 -0.6248584 -0.2547971 0.7379907 0.02231514 -0.0843181 0.9961889 0.2295492 -0.6816214 0.6947657 -0.5803614 -0.8130943 0.04536875 0.5454465 -0.8264263 -0.1396707 0.9045141 0.03375051 0.4251059 0.3362615 0.2973807 0.8935843 0.5797014 -0.7729526 0.257858 0.6592747 0.5636964 -0.4975975 -0.3072514 0.904042 -0.2971608 -0.7946312 0.6062213 0.03251226 0.662037 -0.0924453 -0.7437479 -0.1917805 0.760453 0.6204283 -0.1629793 0.3745335 -0.9127772 -0.3467079 -0.4389781 -0.8289101 -0.9330011 0.06764669 -0.3534586 0.2167703 -0.5878736 -0.7793685 0.09374237 0.7574689 -0.6461062</float_array>
          <technique_common>
            <accessor source="#geom-SmallStoneOne128-normals-array" count="22" stride="3">
              <param name="X" type="float"/>
              <param name="Y" type="float"/>
              <param name="Z" type="float"/>
            </accessor>
          </technique_common>
        </source>
        <source id="geom-SmallStoneOne128-map1">
          <float_array id="geom-SmallStoneOne128-map1-array" count="312">-1.333956 1.686973 0.3185728 2.339307 0.4626039 0.204919 0.008335352 1.935052 0.733418 2.498002 -0.1576356 0.5956652 1.343415 -0.5355952 0.1214378 2.080674 0.5920849 0.02782655 1.074653 2.397243 0.5285435 1.402755 2.498002 0.2188358 2.498002 1.182816 0.2425714 -0.3733494 -1.245321 0.9389535 0.05833876 1.217429 0.5166152 2.21525 0.5348384 0.595969 2.061862 -0.2485148 4.99487e-4 -0.08205307 1.207105 0.9208294 1.189195 -0.23057 0.9532348 2.21525 0.5348384 0.595969 1.074653 2.397243 0.5285435 0.9416614 0.5664608 0.6793572 1.343415 -0.5355952 0.1214378 1.140188 1.945492 0.06697246 -0.06395149 1.865445 4.99517e-4 -0.08205307 1.207105 0.9208294 -0.6280146 -0.1595411 0.8290486 0.6017866 -0.1996939 0.9995005 1.390712 1.925798 0.07812145 -0.680324 0.4626039 0.04017317 2.061862 -0.2485148 4.99487e-4 1.390712 -1.187514 0.8564494 2.080674 -1.388694 0.5230212 2.498002 -0.1576356 0.5956652 -0.994864 -1.099749 0.7845448 1.402755 -0.6246568 0.9995005 -0.07465339 0.6141741 0.9743108 -0.08205307 1.207105 0.9208294 -1.333956 1.686973 0.3185728 -0.6280146 -0.1595411 0.8290486 -0.07465339 0.6141741 0.9743108 -1.21525 0.8838758 0.5087096 -0.994864 -1.099749 0.7845448 -0.1576356 0.8826609 0.9995005 -0.3733494 -1.245321 0.9389535 1.638179 -1.099749 0.873716 1.402755 -0.6246568 0.9995005 2.333956 -0.225709 0.7967433 0.9916646 1.433672 0.858763 1.140188 1.945492 0.06697246 1.343415 -0.5355952 0.1214378 2.498002 1.182816 0.2425714 -0.680324 0.4626039 0.04017317 -0.3434151 -1.014249 0.2411012 1.851515 -1.229216 0.08502638 1.680324 -1.339307 0.490651 2.498002 1.182816 0.2425714 -0.1576356 0.8826609 0.9995005 -1.388694 0.5920849 0.8951686 -0.3733494 -1.245321 0.9389535 1.851515 -1.229216 0.08502638 2.061862 -0.2485148 4.99487e-4 -0.680324 0.4626039 0.04017317 -0.6280146 -0.1595411 0.8290486 -0.680324 -1.339307 0.490651 1.390712 -1.187514 0.8564494 -0.1828161 -0.5297145 4.99517e-4 1.159541 1.816194 0.2179964 1.189195 -0.23057 0.9532348 0.6017866 -0.1996939 0.9995005 -0.6280146 -0.1595411 0.8290486 1.390712 -1.187514 0.8564494 0.6017866 -0.1996939 0.9995005 1.074653 2.397243 0.5285435 -0.08205307 1.207105 0.9208294 0.9916646 1.433672 0.858763 -0.07465339 0.6141741 0.9743108 1.402755 -0.6246568 0.9995005 1.140188 1.945492 0.06697246 1.402755 2.498002 0.2188358 -0.994864 1.638179 0.1000627 1.140188 1.945492 0.06697246 2.333956 1.686973 0.3185728 2.333956 1.686973 0.3185728 1.140188 1.945492 0.06697246 -0.994864 1.638179 0.1000627 -1.255814 -0.3733494 0.06366968 -0.8515152 -1.159894 0.06769603 0.05833876 1.217429 0.5166152 -0.1891952 2.312939 0.3173575 -1.498002 0.8826609 0.3355911 0.5664608 1.217429 0.6104153 2.397243 0.6141741 0.6436633 -0.1996939 2.498002 0.5254467 -0.1576356 0.8826609 0.9995005 1.638179 -1.099749 0.873716 0.5348384 0.8838758 0.9288125 0.9416614 0.5664608 0.6793572 -1.388694 0.5920849 0.8951686 -1.498002 -0.2485148 0.8904656 1.390712 1.925798 0.07812145 0.008335352 1.935052 0.733418 -0.08205307 1.207105 0.9208294 -0.1891952 2.312939 0.3173575 0.3982134 2.498002 0.3250765 -0.6170591 -0.1199903 2.09177e-5 -0.04412195 1.679354 0.05634402 -1.240333 -1.229188 0.9015824</float_array>
          <technique_common>
            <accessor source="#geom-SmallStoneOne128-map1-array" count="104" stride="3">
              <param name="S" type="float"/>
              <param name="T" type="float"/>
              <param name="P" type="float"/>
            </accessor>
          </technique_common>
        </source>
        <vertices id="geom-SmallStoneOne128-vertices">
          <input semantic="POSITION" source="#geom-SmallStoneOne128-positions"/>
        </vertices>
        <triangles material="Rock02a_jpg" count="40">
          <input semantic="VERTEX" source="#geom-SmallStoneOne128-vertices" offset="0"/>
          <input semantic="NORMAL" source="#geom-SmallStoneOne128-normals" offset="1"/>
          <input semantic="TEXCOORD" source="#geom-SmallStoneOne128-map1" offset="2" set="1"/>
          <p>17 0 15 12 1 16 16 2 17 20 3 21 10 4 22 11 5 23 1 6 24 3 7 25 18 8 26 6 9 29 21 10 64 1 6 27 1 6 27 9 11 28 6 9 29 0 12 30 13 13 31 12 1 32 20 3 33 2 14 34 10 4 35 12 1 36 17 0 37 0 12 38 6 9 39 15 15 40 0 12 41 13 13 42 2 14 43 5 16 44 7 17 45 8 18 46 14 19 47 3 7 48 8 18 49 4 20 50 8 18 4 3 7 51 14 19 52 6 9 53 9 11 54 15 15 55 4 20 56 18 8 57 3 7 58 10 4 59 3 7 60 1 6 61 10 4 63 2 14 101 14 19 62 14 19 62 3 7 1 10 4 63 1 6 67 21 10 14 11 5 65 11 5 65 10 4 66 1 6 67 11 5 68 12 1 69 20 3 70 5 16 71 12 1 72 13 13 73 0 12 76 19 21 102 7 17 74 7 17 74 13 13 75 0 12 76 13 13 7 7 17 77 2 14 78 2 14 79 7 17 80 14 19 8 0 12 81 15 15 82 4 20 83 8 18 18 7 17 19 19 21 20 4 20 83 8 18 18 19 21 20 0 12 81 4 20 83 19 21 20 15 15 9 9 11 94 18 8 95 18 8 95 4 20 103 15 15 9 16 2 84 21 10 85 6 9 86 16 2 87 12 1 88 11 5 89 6 9 90 0 12 91 17 0 92 17 0 11 16 2 93 6 9 3 1 6 96 18 8 12 9 11 5 5 16 97 20 3 98 12 1 6 2 14 0 20 3 13 5 16 2 21 10 99 16 2 10 11 5 100</p>
        </triangles>
      </mesh>
    </geometry>
  </library_geometries>
  <library_lights>
    <light id="EnvironmentAmbientLight" name="EnvironmentAmbientLight">
      <technique_common>
        <ambient>
          <color>0 0 0</color>
        </ambient>
      </technique_common>
    </light>
  </library_lights>
  <library_images>
    <image id="rock02a_jpg">
      <init_from>file:///C:/Users/RonMain/Documents/3dsmax/sceneassets/images/rock02a.jpg</init_from>
    </image>
  </library_images>
  <library_visual_scenes>
    <visual_scene id="MaxScene">
      <node name="EnvironmentAmbientLight">
        <instance_light url="#EnvironmentAmbientLight"/>
      </node>
      <node id="node-base01" name="base01">
        <matrix>1 0 0 0 0 1 0 0 0 0 1 0 0 0 0 1</matrix>
        <node id="node-start01" name="start01">
          <matrix>1 0 0 0 0 1 0 0 0 0 1 0 0 0 0 1</matrix>
          <node id="node-SmallStoneOne256" name="SmallStoneOne256">
            <matrix>1 0 0 0.5469925 0 1 0 2.417309 0 0 1 0 0 0 0 1</matrix>
            <instance_geometry url="#geom-SmallStoneOne256">
              <bind_material>
                <technique_common>
                  <instance_material symbol="Rock02a_jpg_1" target="#Rock02a_jpg-material">
                    <bind_vertex_input semantic="CHANNEL1" input_semantic="TEXCOORD" input_set="1"/>
                  </instance_material>
                </technique_common>
              </bind_material>
            </instance_geometry>
          </node>
          <node id="node-SmallStoneOne128" name="SmallStoneOne128">
            <matrix>1 0 0 0.5469925 0 1 0 2.417309 0 0 1 0 0 0 0 1</matrix>
            <instance_geometry url="#geom-SmallStoneOne128">
              <bind_material>
                <technique_common>
                  <instance_material symbol="Rock02a_jpg" target="#Rock02a_jpg-material">
                    <bind_vertex_input semantic="CHANNEL1" input_semantic="TEXCOORD" input_set="1"/>
                  </instance_material>
                </technique_common>
              </bind_material>
            </instance_geometry>
          </node>
        </node>
        <node id="node-detail256" name="detail256">
          <matrix>1 0 0 0 0 1 0 0 0 0 1 0 0 0 0 1</matrix>
        </node>
        <node id="node-detail128" name="detail128">
          <matrix>1 0 0 0 0 1 0 0 0 0 1 0 0 0 0 1</matrix>
        </node>
        <node id="node-nulldetail64" name="nulldetail64">
          <matrix>1 0 0 0 0 1 0 0 0 0 1 0 0 0 0 1</matrix>
        </node>
      </node>
    </visual_scene>
  </library_visual_scenes>
  <scene>
    <instance_visual_scene url="#MaxScene"/>
  </scene>
</COLLADA>