<?xml version="1.0" encoding="utf-8"?>
<COLLADA xmlns="http://www.collada.org/2005/11/COLLADASchema" version="1.4.1">
  <asset>
    <contributor>
      <author>Duion</author>
      <authoring_tool>Blender 2.65.0 r53189</authoring_tool>
    </contributor>
    <created>2013-06-12T13:35:01</created>
    <modified>2013-06-12T13:35:01</modified>
    <unit name="meter" meter="1"/>
    <up_axis>Z_UP</up_axis>
  </asset>
  <library_lights>
    <light id="Hemi-light" name="Hemi">
      <technique_common>
        <ambient>
          <color>1 1 1</color>
        </ambient>
      </technique_common>
      <extra>
        <technique profile="blender">
          <adapt_thresh>0.000999987</adapt_thresh>
          <area_shape>0</area_shape>
          <area_size>0.1</area_size>
          <area_sizey>0.1</area_sizey>
          <area_sizez>0.1</area_sizez>
          <atm_distance_factor>1</atm_distance_factor>
          <atm_extinction_factor>1</atm_extinction_factor>
          <atm_turbidity>2</atm_turbidity>
          <att1>0</att1>
          <att2>1</att2>
          <backscattered_light>1</backscattered_light>
          <bias>1</bias>
          <blue>1</blue>
          <buffers>1</buffers>
          <bufflag>0</bufflag>
          <bufsize>512</bufsize>
          <buftype>2</buftype>
          <clipend>40</clipend>
          <clipsta>0.5</clipsta>
          <compressthresh>0.04999995</compressthresh>
          <dist sid="blender_dist">25</dist>
          <energy sid="blender_energy">1</energy>
          <falloff_type>2</falloff_type>
          <filtertype>0</filtertype>
          <flag>0</flag>
          <gamma sid="blender_gamma">1</gamma>
          <green>1</green>
          <halo_intensity sid="blnder_halo_intensity">1</halo_intensity>
          <horizon_brightness>1</horizon_brightness>
          <mode>1</mode>
          <ray_samp>1</ray_samp>
          <ray_samp_method>1</ray_samp_method>
          <ray_samp_type>0</ray_samp_type>
          <ray_sampy>1</ray_sampy>
          <ray_sampz>1</ray_sampz>
          <red>1</red>
          <samp>3</samp>
          <shadhalostep>0</shadhalostep>
          <shadow_b sid="blender_shadow_b">0</shadow_b>
          <shadow_g sid="blender_shadow_g">0</shadow_g>
          <shadow_r sid="blender_shadow_r">0</shadow_r>
          <shadspotsize>45</shadspotsize>
          <sky_colorspace>2</sky_colorspace>
          <sky_exposure>1</sky_exposure>
          <skyblendfac>1</skyblendfac>
          <skyblendtype>1</skyblendtype>
          <soft>3</soft>
          <spotblend>0.15</spotblend>
          <spotsize>45</spotsize>
          <spread>1</spread>
          <sun_brightness>1</sun_brightness>
          <sun_effect_type>0</sun_effect_type>
          <sun_intensity>1</sun_intensity>
          <sun_size>1</sun_size>
          <type>3</type>
        </technique>
      </extra>
    </light>
  </library_lights>
  <library_images/>
  <library_effects>
    <effect id="lilac_01_bark-effect">
      <profile_COMMON>
        <technique sid="common">
          <phong>
            <emission>
              <color sid="emission">0 0 0 1</color>
            </emission>
            <ambient>
              <color sid="ambient">0 0 0 1</color>
            </ambient>
            <diffuse>
              <color sid="diffuse">0.8 0.8 0.8 1</color>
            </diffuse>
            <specular>
              <color sid="specular">0 0 0 1</color>
            </specular>
            <shininess>
              <float sid="shininess">50</float>
            </shininess>
            <index_of_refraction>
              <float sid="index_of_refraction">1</float>
            </index_of_refraction>
          </phong>
        </technique>
        <extra>
          <technique profile="GOOGLEEARTH">
            <double_sided>1</double_sided>
          </technique>
        </extra>
      </profile_COMMON>
      <extra><technique profile="MAX3D"><double_sided>1</double_sided></technique></extra>
    </effect>
    <effect id="lilac_01_branch-effect">
      <profile_COMMON>
        <technique sid="common">
          <phong>
            <emission>
              <color sid="emission">0 0 0 1</color>
            </emission>
            <ambient>
              <color sid="ambient">0 0 0 1</color>
            </ambient>
            <diffuse>
              <color sid="diffuse">0.8 0.8 0.8 1</color>
            </diffuse>
            <specular>
              <color sid="specular">0 0 0 1</color>
            </specular>
            <shininess>
              <float sid="shininess">50</float>
            </shininess>
            <transparency>
              <float sid="transparency">0</float>
            </transparency>
            <index_of_refraction>
              <float sid="index_of_refraction">1</float>
            </index_of_refraction>
          </phong>
        </technique>
        <extra>
          <technique profile="GOOGLEEARTH">
            <double_sided>1</double_sided>
          </technique>
        </extra>
      </profile_COMMON>
      <extra><technique profile="MAX3D"><double_sided>1</double_sided></technique></extra>
    </effect>
  </library_effects>
  <library_materials>
    <material id="lilac_01_bark-material" name="lilac_01_bark">
      <instance_effect url="#lilac_01_bark-effect"/>
    </material>
    <material id="lilac_01_branch-material" name="lilac_01_branch">
      <instance_effect url="#lilac_01_branch-effect"/>
    </material>
  </library_materials>
  <library_geometries>
    <geometry id="lilac128-mesh" name="lilac128">
      <mesh>
        <source id="lilac128-mesh-positions">
          <float_array id="lilac128-mesh-positions-array" count="714">-0.04815405 -0.0801714 -0.301808 -0.03088867 -0.2331911 0.8910999 -0.06347608 0.07066786 -0.2965979 -0.05037629 -0.1324001 0.929713 -0.182554 -0.01708525 -0.299008 -0.131106 -0.1998311 0.9103289 -0.04402816 -0.5586563 1.7873 0.01234757 -0.5776753 1.77111 0.004216432 -0.5242043 1.8034 0.04493165 -1.0123 2.55538 -0.07220119 0.02933138 -0.3020378 -0.04574495 0.1421638 0.923508 -0.14272 0.09715181 0.913714 0.05264985 -0.05659216 -0.2954223 -0.0538823 0.03600054 0.933665 0.06287366 0.09094977 -0.2990212 -0.271583 0.2634777 1.84077 -0.326785 0.2378126 1.83096 -0.277995 0.2031937 1.8507 -0.567917 0.4274135 2.6715 0.04929918 -0.05644726 -0.3081665 0.07407337 -0.2246351 0.905372 -0.0953719 -0.08810728 -0.2972539 0.177914 -0.2070211 0.884562 -0.05349135 0.05357557 0.01586049 0.113468 -0.1266211 0.922144 0.417148 -0.4902393 1.75764 0.383988 -0.4436193 1.78401 0.357756 -0.4979263 1.77233 0.662176 -0.8920384 2.51155 -0.09019041 0.03517907 -0.3048098 -0.05684995 0.1798419 -0.3012984 -0.230233 0.01585811 0.894593 0.05382525 0.08186805 -0.2951129 -0.1308709 0.04496175 0.930784 -0.205784 0.1189448 0.911959 -0.596961 -0.03510808 1.77009 -0.593268 -0.09489685 1.75547 -0.546927 -0.06637334 1.7872 -1.0798 -0.3223994 2.46617 0.124826 -0.09350907 -0.3087455 0.334623 -0.08475464 0.893894 0.110505 -0.240509 -0.293349 0.343891 0.01960301 0.870448 -0.01096558 -0.156556 -0.2842482 0.250854 -0.0208109 0.912167 0.754234 0.1414637 1.71446 0.761053 0.1986727 1.69248 0.713923 0.1844557 1.73179 1.25402 0.3895616 2.4166 -0.133804 0.03368115 -0.3030794 -0.261506 0.0515756 0.912762 -0.165341 0.178786 -0.3020445 -0.2263939 -0.0486235 0.896842 -0.02331179 0.137535 -0.2985526 -0.1582649 0.03030049 0.930888 -0.479546 -0.2495343 1.78829 -0.4513 -0.3013483 1.77041 -0.422145 -0.2597373 1.80765 -0.775588 -0.7748974 2.45207 0.06924277 -0.02667945 -0.3181443 -0.02610737 -0.138339 -0.2959714 0.421925 -0.1060691 0.814906 -0.07490807 3.26138e-4 0.02615225 0.333939 -0.07288414 0.871359 0.348214 -0.1764331 0.848695 0.930823 -0.2906002 1.59222 0.965499 -0.2468382 1.56606 0.925962 -0.2330362 1.61312 1.64035 -0.4890424 2.09619 -0.08283889 0.2387866 2.15107 0.373818 -2.57344 1.776859 0.001350402 -0.9808511 0.5466628 0.266407 -1.354631 3.38068 0.482094 0.4001997 1.73491 -1.44966 -1.46509 2.80786 -0.563582 -1.14226 0.9628298 -0.966338 0.6589375 3.17971 -0.621996 -1.005 2.40688 2.08153 -0.4620684 2.468 0.605293 -0.1249962 1.20615 0.518469 -0.4500017 3.97933 0.368385 -1.41331 2.06925 0.007231831 1.013559 3.33896 -0.385088 0.2833138 1.54377 0.439367 -0.8136487 3.9036 -0.339812 -0.07798451 2.63389 0.859054 -2.27698 3.467459 0.380491 -1.53372 1.7856 0.254518 -0.7778577 4.33959 0.799501 -0.3658114 2.4064 -1.11608 -1.417241 3.81205 -0.758822 -1.24589 2.0131 0.382315 -0.4245067 4.1907 -0.405073 1.05661 1.79718 -0.463166 -1.67616 2.74323 0.03321605 -0.7288682 0.9672999 -0.798935 0.1293464 3.58415 0.523967 0.8726907 1.48619 -1.4167 -0.3100035 3.23343 -0.895824 -0.5449512 1.27829 -0.160498 1.275799 3.41182 -0.560036 -0.6806703 1.98225 1.01095 1.082079 3.41156 -0.03724628 1.16076 1.74095 -0.439961 -0.4514496 3.99171 0.320991 -0.3150514 2.34999 -0.389921 2.41965 2.54927 -0.918274 0.7951418 1.37321 -0.08410006 0.6925184 4.00913 -1.16777 0.8881696 2.42246 0.07067817 -0.8753827 3.88984 0.280496 -0.2062983 2.17293 -0.851036 0.8755233 4.31623 -0.251438 1.186759 2.59273 -2.4084 -0.3257094 2.64373 -0.635834 -0.5048863 2.00267 -1.42677 0.9148353 4.13799 0.203998 0.6688738 1.45111 0.08407658 -1.570971 3.22986 0.30279 -1.33302 1.22436 0.250558 0.4441574 3.45528 0.539671 0.6341187 1.37904 -0.591686 -1.21614 3.24825 -0.03288227 -1.29826 1.29642 -0.385134 0.8272835 3.26997 0.368179 -1.44962 1.86117 2.11125 0.4996636 2.65011 0.417249 0.4738287 1.71859 1.78349 -1.38435 3.22875 0.765808 -1.26126 2.22954 0.03866827 1.245949 3.02353 0.01962006 0.2854708 1.35022 1.14976 -0.1676886 3.82733 0.104588 0.08699548 2.33226 1.63048 -1.497831 3.88136 0.97103 -1.49802 2.02468 0.144312 -0.2410616 4.13471 1.3609 -0.6446814 2.57623 -1.08463 -0.7316185 3.42951 -0.285286 -0.7663413 1.78071 0.532796 -0.1272547 4.21073 -1.31876 0.3757647 1.37415 0.516771 -0.6346765 3.30995 0.550366 -0.3798162 1.30928 -1.64353 -0.5910295 3.27736 0.272158 0.2387676 2.06863 -2.66298 0.4872487 1.8379 -1.04055 -0.2428191 0.6147999 -1.33962 0.9067665 3.30268 -0.72213 -0.9967573 2.02768 1.14671 0.9034376 2.61584 -0.461457 0.8539968 1.54898 1.09708 -1.06464 2.75589 -0.567647 -0.7429955 2.48039 -0.197522 2.000099 2.44017 -0.61594 0.6002348 1.09626 -0.595911 0.6409994 3.82448 -1.3541 0.5163026 2.41285 -0.275133 -1.500261 3.63753 -0.355035 -0.9293913 1.89378 -1.25592 -0.04348844 4.16094 -0.261098 0.3697496 2.54712 -2.28994 -1.035171 3.39757 -1.44804 -0.7828373 1.75952 -1.34096 0.4680674 4.03064 -0.08895909 0.8272427 1.56412 1.20444 -1.29722 2.96201 1.14222 -0.6825192 1.04111 0.310954 0.4601304 3.56524 0.992626 0.8718307 1.70372 -1.25907 -0.7233564 2.42725 0.06063729 -0.7271061 0.9015109 0.128452 0.4046074 3.63896 0.325606 -0.3864464 2.38239 2.75139 0.8512846 2.20365 1.18632 0.7458428 1.07875 1.92135 -0.3511716 3.46659 1.39851 -0.4587823 2.06234 0.414067 1.94682 2.98855 0.113411 0.8181788 1.3988 1.24565 0.3093034 3.83655 0.447619 0.8392746 2.55634 2.19508 -1.050231 3.34826 1.60067 -0.2538703 1.6436 0.01107817 -0.6131196 3.74432 1.74068 0.8343517 2.28051 -0.251445 -0.09059977 3.66319 0.307612 -0.2489483 1.91943 1.0217 1.220469 3.97562 -1.24177 0.1938417 1.64853 0.764495 -1.528661 2.80372 0.574313 -0.4518492 1.05382 -1.01712 -0.8304685 3.44666 0.259941 0.4309307 1.94381 -2.63775 -0.09919756 1.91468 -0.927395 -0.6889382 0.7585399 -1.11624 0.3295664 3.41816 -1.1001 -0.7117334 2.38504 1.2866 0.6479675 2.81867 0.181056 0.1468218 1.22576 0.205519 -0.7409126 3.8063 0.02217799 -1.11727 1.84613 -1.44611 0.3552624 3.69652 -0.941217 0.5523557 1.76468 -0.106572 -1.097481 3.7746 -1.06571 0.1039586 2.62769 -0.396344 -2.36562 3.096299 -0.193715 -1.19919 1.67952 -1.46083 -1.146411 3.98281 0.09705585 -0.02225703 2.34124 -2.02383 -0.7648036 3.68794 -1.35648 -1.07298 1.96597 -0.2341679 -0.2090407 4.14713 -0.288378 0.1619127 1.29704 1.65648 -0.8290426 3.13607 1.59654 -0.5386002 1.13862 -0.04420679 0.3472344 3.38278 1.40259 0.3153147 1.66866 -1.13928 -0.6836264 2.4924 -0.09442549 -0.6920021 0.7669999 0.284582 0.4733995 3.34826 0.567477 -0.9267644 2.18427 2.72729 0.7939286 2.39812 1.34863 0.4004898 1.02211 2.01765 -0.6591945 3.46459 1.8261 -0.5688123 1.89242 0.05472105 1.31523 2.76493 0.09000056 0.04253816 1.31397 1.92062 0.9003285 3.16145 0.668159 0.2530947 1.89092 2.4335 -0.6223336 3.68441 1.98273 -1.02265 1.84638 0.798355 0.3232454 3.72428 1.65072 0.4395947 2.10104 -0.379268 -1.02007 2.89633 1.00016 -1.20915 1.63626 0.990073 0.1960703 3.88964</float_array>
          <technique_common>
            <accessor source="#lilac128-mesh-positions-array" count="238" stride="3">
              <param name="X" type="float"/>
              <param name="Y" type="float"/>
              <param name="Z" type="float"/>
            </accessor>
          </technique_common>
        </source>
        <source id="lilac128-mesh-normals">
          <float_array id="lilac128-mesh-normals-array" count="714">0.6731163 -0.7141332 -0.1919919 0.5999023 -0.7912534 -0.1182592 0.37434 0.9165014 0.1408123 0.3013703 0.9139073 0.2717978 -0.9988403 -0.03738516 0.0298776 -0.9913938 -0.1260719 0.03485208 0.6263009 -0.6938688 -0.355327 -0.9914854 -0.1239051 0.0399487 0.364391 0.8273263 0.4274423 0.06033504 -0.5116428 0.8570513 -0.9955443 0.07119965 -0.06179994 -0.9895627 0.05804616 -0.1317789 0.6036256 0.7966247 0.03176975 0.442671 -0.890408 0.105594 0.4398938 -0.8789636 0.1839656 0.5919675 0.8056887 0.01889091 0.59447 0.8027589 0.04611343 -0.9667348 0.06418043 -0.2474746 0.3882565 -0.8676412 0.3104953 -0.3073214 0.2149723 0.9269692 0.5505234 -0.8199408 -0.1567125 -0.8110294 -0.582049 0.05865657 -0.1435896 -0.9862972 -0.08087402 0.9195837 -0.308298 -0.2434461 -0.4074526 0.8754845 0.259682 -0.1606799 0.9481796 0.2740867 0.8668172 -0.3087252 -0.3914914 -0.03521835 0.8976715 0.4391919 0.3091525 -0.464919 0.8296152 0.971984 -0.1860408 0.143559 -0.6354869 -0.7384259 -0.2254402 -0.6576434 -0.7482528 -0.08703875 0.9418928 -0.2020325 0.2682577 -0.3928648 -0.8387707 -0.3769341 -0.4604633 0.8876003 0.01065093 0.8461562 -0.008972406 0.5328227 -0.2030701 0.9783929 0.03817862 0.5495468 0.8159734 -0.1793572 0.3384503 -0.9381695 0.07220679 0.3941466 -0.9177832 0.04788351 0.513535 0.8066347 -0.2924894 -0.9751884 0.08069092 0.206061 -0.9357891 0.1001617 0.3379925 0.3090304 -0.9458907 0.09872734 0.5267495 0.6992096 -0.4833216 -0.8361766 0.2475356 0.4893948 0.5704215 0.2394482 0.785638 -0.2735374 -0.9570605 -0.09576708 -0.7086703 0.7043977 0.03927731 -0.6452834 0.7636036 0.02096617 -0.1458479 -0.9713431 -0.1875057 0.9581286 0.2599872 0.1197241 0.9048433 0.3403424 0.2557451 -0.7779778 0.6239814 0.07315284 0.00125122 -0.9096347 -0.4153569 0.7869198 0.3428449 0.5129857 -0.8147832 0.3564562 0.4571978 0.8715781 0.2486038 -0.4224677 0.9226661 -0.2532426 -0.2907193 -0.582812 0.7063204 0.4017151 0.7355266 0.3202918 -0.5969421 -0.3334452 -0.9362163 0.1107211 -0.403119 0.6407056 0.6534013 -0.3917356 -0.9130833 0.1129184 0.9831538 0.1689199 -0.06973475 0.9831538 0.1688894 -0.06958216 0.9823908 0.1698355 -0.07754749 0.9838252 0.1679738 -0.0617389 0.7276529 -0.4619587 0.507004 0.7289956 -0.4672079 0.5002289 0.7405316 -0.6252632 0.2462233 0.6546525 -0.2724082 0.7050997 -0.1980651 0.9738762 0.1107822 -0.1980651 0.9724113 0.1231421 -0.1855525 0.8733177 0.4503616 -0.1883907 0.9609668 -0.2025208 -0.944029 -0.2518998 0.2129581 -0.9442427 -0.2515946 0.2122867 -0.8989532 -0.3005158 0.3186743 -0.9746391 -0.198767 0.1026642 0.8882107 0.45085 -0.08807641 0.8883938 0.4500259 -0.09051787 0.8843044 0.4645528 -0.04629653 0.8904691 0.4355907 -0.1315348 0.5113682 -0.8575396 0.05542159 0.5114292 -0.8575091 0.05551314 0.4889981 -0.872158 0.0140385 0.5325785 -0.8407849 0.09683519 0.9570299 0.07647937 0.2797021 0.9573046 0.07617419 0.2788171 0.9462569 0.08761864 0.3112277 0.9668874 0.06485182 0.2467727 0.6860256 -0.6536149 0.3195288 0.6865139 -0.6524552 0.3208411 0.6626789 -0.7019562 0.2609027 0.7050997 -0.6009095 0.3764153 -0.8130131 0.5309916 0.2387158 -0.8146001 0.523423 0.2498245 -0.8028199 0.2957549 0.517655 -0.7323222 0.6800745 -0.03381448 -0.9236122 -0.260567 0.2810755 -0.9176 -0.2604144 0.3002105 -0.7228309 -0.2352367 0.6497086 -0.9656667 -0.2446669 -0.08716082 0.7744683 0.6250191 0.09750664 0.770806 0.6283761 0.1046479 0.6020691 0.7162694 0.3527024 0.861507 0.4878079 -0.1408123 0.465865 -0.6439406 0.6068606 0.4586017 -0.6329844 0.6236763 0.2820826 -0.3724784 0.8841212 0.5548875 -0.7817316 0.284463 0.9989318 -0.02136296 0.04040646 0.9989318 -0.02133244 0.0404675 0.9929502 0.03622543 0.1125828 0.9963683 -0.07873773 -0.03195285 0.9119236 -0.1903134 0.3635365 0.9115879 -0.1880856 0.3655202 0.9185766 -0.2839137 0.2749108 0.890408 -0.09472942 0.445143 -0.5851009 0.2057253 0.7844173 -0.5843379 0.2047181 0.7852413 -0.4813074 0.07699817 0.8731346 -0.6653646 0.3225196 0.6732078 -0.8728904 -0.3580737 0.3313699 -0.8727989 -0.3581042 0.3315531 -0.9221168 -0.3308817 0.200415 -0.807825 -0.3776055 0.4525589 0.7588733 0.6453139 -0.08728289 0.7586596 0.6456496 -0.08673357 0.8150883 0.5017548 -0.2895291 0.652913 0.7475814 0.1216468 0.109653 -0.970336 0.2153996 0.1098056 -0.9701834 0.2159184 0.0514847 -0.9975891 0.04596084 0.1621143 -0.9141514 0.3715018 0.1920835 0.9328288 0.3047578 0.192175 0.9328288 0.3046663 0.3755913 0.9185156 0.1232948 0.01113921 0.8907132 0.4543595 -0.1076998 -0.9180578 0.3815119 -0.1076388 -0.9186682 0.3799859 -0.1084628 -0.9102756 0.3994567 -0.1068148 -0.9261147 0.3617664 -0.4561907 0.1788384 0.8717002 -0.4565263 0.1792352 0.871456 -0.5364544 0.2813501 0.7956175 -0.3681448 0.07522809 0.9266945 -0.9909665 0.1337626 0.005310177 -0.9909665 0.1337626 0.005066037 -0.9772027 0.1342509 0.1643727 -0.9794305 0.1298868 -0.1543321 0.840083 0.5271462 0.127842 0.840083 0.5271157 0.1278115 0.8371533 0.5299844 0.135136 0.8429823 0.5242164 0.1205176 0.6281015 -0.6936247 0.3525498 0.628071 -0.6942656 0.3513596 0.6125981 -0.7654348 0.1969359 0.6252632 -0.6032289 0.4951018 0.8427992 0.5369732 0.03625595 0.8429518 0.5367596 0.03576767 0.7914975 0.5890378 0.1628468 0.875454 0.4752342 -0.08777123 0.6136357 -0.7323527 0.295053 0.6136052 -0.7326579 0.29429 0.5987732 -0.6096072 0.519425 0.5915708 -0.8031556 0.07025361 -0.3705252 0.7954344 0.4795068 -0.3705252 0.7954649 0.4794763 -0.3789178 0.807825 0.4514603 -0.3617969 0.782281 0.5070345 -0.8394421 -0.4568316 0.2942594 -0.8382824 -0.4573199 0.296823 -0.7301248 -0.4843593 0.4819483 -0.9069796 -0.4092837 0.09903252 0.5159764 0.6899319 0.5076449 0.5323344 0.6949065 0.4834132 0.716422 0.6936857 0.07425153 0.2553483 0.5649892 0.7845699 0.5767693 -0.7465743 0.3315836 0.577105 -0.7458724 0.3324992 0.5439009 -0.8019044 0.2471694 0.6029237 -0.6835231 0.41142 0.4403516 0.7939696 0.4191107 0.4408704 0.7940917 0.4183477 0.425306 0.7906736 0.440321 0.4555193 0.7967773 0.3969848 0.1641895 -0.9174169 0.3624073 0.1639759 -0.9164403 0.3649709 0.1375469 -0.7850582 0.6039308 0.178106 -0.9790033 0.09894096 -0.5130467 0.8100833 0.2837306 -0.5130467 0.8103885 0.2827845 -0.5042878 0.859859 0.07947015 -0.4993438 0.7254555 0.4736167 -0.7910703 -0.5910825 -0.1573229 -0.790582 -0.5920896 -0.1561326 -0.8290353 -0.4913785 -0.2667928 -0.7333903 -0.6784875 -0.04199343 0.835902 0.3122044 0.4513688 0.8351696 0.3122654 0.4526811 0.8726158 0.308359 0.3786737 0.7936033 0.3139744 0.5211036 0.4084292 -0.9009369 0.1464583 0.4098636 -0.8998078 0.1493576 0.4936674 -0.8025453 0.3349406 0.3061617 -0.9510178 -0.04220706 0.4608905 0.8873867 -0.009216547 0.461745 0.8869289 -0.01037627 0.3548082 0.9266335 0.1240882 0.549852 0.8238472 -0.1375469 0.4340953 -0.843257 0.3169042 0.4340953 -0.843257 0.3168737 0.425306 -0.8663595 0.2617573 0.4412671 -0.8172246 0.3706473 -0.5827814 0.6753136 0.4519486 -0.5824458 0.6747337 0.4532609 -0.5955992 0.698233 0.3970763 -0.5672475 0.6490371 0.506882 -0.3657033 -0.6516007 0.6645711 -0.3658864 -0.6516923 0.664388 -0.4358348 -0.6818445 0.5874508 -0.2923368 -0.6142766 0.732902 0.5870541 0.7858821 -0.1942503 0.5856502 0.7874386 -0.1920835 0.6565142 0.6873379 -0.3107089 0.4981536 0.8643453 -0.06842249 0.6327098 -0.6542253 0.4142277 0.632191 -0.6470229 0.426191 0.5782037 -0.424543 0.6967071 0.6098819 -0.7835627 0.1185644 -0.8253121 -0.5603199 0.06976526 -0.2707907 0.9624623 0.01812797 -0.5597095 -0.2873318 0.7772454 -0.362743 -0.5642262 0.7416303 0.4144719 -0.8982513 -0.146031 0.7824641 -0.2599567 0.5657827</float_array>
          <technique_common>
            <accessor source="#lilac128-mesh-normals-array" count="238" stride="3">
              <param name="X" type="float"/>
              <param name="Y" type="float"/>
              <param name="Z" type="float"/>
            </accessor>
          </technique_common>
        </source>
        <source id="lilac128-mesh-map-0">
          <float_array id="lilac128-mesh-map-0-array" count="1134">-0.166667 1.33333 -0.166667 0 -0.333333 0 -0.333333 0 -0.333333 1.33333 -0.166667 1.33333 -0.5 0 -0.333333 1.33333 -0.333333 0 -0.5 0 -0.5 1.33333 -0.333333 1.33333 -0.166667 1.33333 -0.166667 2.66667 0 2.66667 -0.333333 1.33333 -0.166667 2.66667 -0.166667 1.33333 -0.333333 1.33333 -0.333333 2.66667 -0.166667 2.66667 -0.5 1.33333 -0.333333 2.66667 -0.333333 1.33333 -0.166667 2.66667 0 4 0 2.66667 -0.166667 0 -0.166667 1.33333 0 1.33333 -0.333333 0 -0.166667 1.33333 -0.166667 0 -0.333333 0 -0.333333 1.33333 -0.166667 1.33333 -0.5 0 -0.333333 1.33333 -0.333333 0 -0.166667 1.33333 0 2.66667 0 1.33333 -0.166667 1.33333 -0.166667 2.66667 0 2.66667 -0.333333 1.33333 -0.166667 2.66667 -0.166667 1.33333 -0.333333 1.33333 -0.333333 2.66667 -0.166667 2.66667 -0.166667 2.66667 0 4 0 2.66667 -0.166667 0 0 1.33333 0 0 -0.166667 0 -0.166667 1.33333 0 1.33333 -0.333333 0 -0.166667 1.33333 -0.166667 0 -0.333333 0 -0.333333 1.33333 -0.166667 1.33333 -0.333333 1.33333 -0.166667 2.66667 -0.166667 1.33333 -0.333333 1.33333 -0.333333 2.66667 -0.166667 2.66667 -0.333333 2.66667 -0.166667 4 -0.166667 2.66667 -0.333333 0 -0.166667 1.33333 -0.166667 0 -0.333333 0 -0.333333 1.33333 -0.166667 1.33333 -0.166667 1.33333 -0.166667 2.66667 0 2.66667 -0.333333 1.33333 -0.166667 2.66667 -0.166667 1.33333 -0.333333 1.33333 -0.333333 2.66667 -0.166667 2.66667 -0.5 1.33333 -0.333333 2.66667 -0.333333 1.33333 -0.166667 0 0 1.33333 0 0 -0.166667 0 -0.166667 1.33333 0 1.33333 -0.333333 0 -0.166667 1.33333 -0.166667 0 -0.333333 0 -0.333333 1.33333 -0.166667 1.33333 -0.166667 1.33333 0 2.66667 0 1.33333 -0.166667 1.33333 -0.166667 2.66667 0 2.66667 -0.333333 1.33333 -0.166667 2.66667 -0.166667 1.33333 -0.333333 1.33333 -0.333333 2.66667 -0.166667 2.66667 -0.166667 2.66667 0 4 0 2.66667 -0.166667 0 0 1.33333 0 0 -0.166667 0 -0.166667 1.33333 0 1.33333 -0.333333 0 -0.166667 1.33333 -0.166667 0 -0.333333 0 -0.333333 1.33333 -0.166667 1.33333 -0.166667 1.33333 0 2.66667 0 1.33333 -0.166667 1.33333 -0.166667 2.66667 0 2.66667 -0.333333 1.33333 -0.166667 2.66667 -0.166667 1.33333 -0.333333 1.33333 -0.333333 2.66667 -0.166667 2.66667 -0.333333 0 -0.166667 1.33333 -0.166667 0 -0.333333 0 -0.333333 1.33333 -0.166667 1.33333 -0.166667 1.33333 -0.166667 2.66667 0 2.66667 -0.333333 1.33333 -0.166667 2.66667 -0.166667 1.33333 -0.333333 1.33333 -0.333333 2.66667 -0.166667 2.66667 -0.5 1.33333 -0.333333 2.66667 -0.333333 1.33333 0 0 -1 1 -1 0 0 0 0 1 -1 1 0 0 -1 1 -1 0 0 0 0 1 -1 1 0 0 -1 1 -1 0 0 0 0 1 -1 1 0 0 -1 1 -1 0 0 0 0 1 -1 1 0 0 -1 1 -1 0 0 0 0 1 -1 1 0 0 -1 1 -1 0 0 0 0 1 -1 1 0 0 -1 1 -1 0 0 0 0 1 -1 1 0 0 -1 1 -1 0 0 0 0 1 -1 1 0 0 -1 1 -1 0 0 0 0 1 -1 1 0 0 -1 1 -1 0 0 0 0 1 -1 1 0 0 -1 1 -1 0 0 0 0 1 -1 1 0 0 -1 1 -1 0 0 0 0 1 -1 1 0 0 -1 1 -1 0 0 0 0 1 -1 1 0 0 -1 1 -1 0 0 0 0 1 -1 1 0 0 -1 1 -1 0 0 0 0 1 -1 1 0 0 -1 1 -1 0 0 0 0 1 -1 1 0 0 -1 1 -1 0 0 0 0 1 -1 1 0 0 -1 1 -1 0 0 0 0 1 -1 1 0 0 -1 1 -1 0 0 0 0 1 -1 1 0 0 -1 1 -1 0 0 0 0 1 -1 1 0 0 -1 1 -1 0 0 0 0 1 -1 1 0 0 -1 1 -1 0 0 0 0 1 -1 1 0 0 -1 1 -1 0 0 0 0 1 -1 1 0 0 -1 1 -1 0 0 0 0 1 -1 1 0 0 -1 1 -1 0 0 0 0 1 -1 1 0 0 -1 1 -1 0 0 0 0 1 -1 1 0 0 -1 1 -1 0 0 0 0 1 -1 1 0 0 -1 1 -1 0 0 0 0 1 -1 1 0 0 -1 1 -1 0 0 0 0 1 -1 1 0 0 -1 1 -1 0 0 0 0 1 -1 1 0 0 -1 1 -1 0 0 0 0 1 -1 1 0 0 -1 1 -1 0 0 0 0 1 -1 1 0 0 -1 1 -1 0 0 0 0 1 -1 1 0 0 -1 1 -1 0 0 0 0 1 -1 1 0 0 -1 1 -1 0 0 0 0 1 -1 1 0 0 -1 1 -1 0 0 0 0 1 -1 1 0 0 -1 1 -1 0 0 0 0 1 -1 1 0 0 -1 1 -1 0 0 0 0 1 -1 1 0 0 -1 1 -1 0 0 0 0 1 -1 1 0 0 -1 1 -1 0 0 0 0 1 -1 1 0 0 -1 1 -1 0 0 0 0 1 -1 1 0 0 -1 1 -1 0 0 0 0 1 -1 1 -0.166667 0 0 1.33333 0 0 -0.166667 0 -0.166667 1.33333 0 1.33333 -0.166667 1.33333 0 2.66667 0 1.33333 -0.5 1.33333 -0.5 2.66667 -0.333333 2.66667 -0.333333 2.66667 -0.166667 4 -0.166667 2.66667 -0.5 2.66667 -0.333333 4 -0.333333 2.66667 -0.166667 0 0 1.33333 0 0 -0.5 0 -0.5 1.33333 -0.333333 1.33333 -0.5 1.33333 -0.333333 2.66667 -0.333333 1.33333 -0.5 1.33333 -0.5 2.66667 -0.333333 2.66667 -0.333333 2.66667 -0.166667 4 -0.166667 2.66667 -0.5 2.66667 -0.333333 4 -0.333333 2.66667 -0.5 0 -0.333333 1.33333 -0.333333 0 -0.5 0 -0.5 1.33333 -0.333333 1.33333 -0.166667 1.33333 0 2.66667 0 1.33333 -0.166667 1.33333 -0.166667 2.66667 0 2.66667 -0.5 1.33333 -0.333333 2.66667 -0.333333 1.33333 -0.5 1.33333 -0.5 2.66667 -0.333333 2.66667 -0.166667 2.66667 0 4 0 2.66667 -0.5 2.66667 -0.333333 4 -0.333333 2.66667 -0.166667 0 0 1.33333 0 0 -0.166667 0 -0.166667 1.33333 0 1.33333 -0.5 0 -0.333333 1.33333 -0.333333 0 -0.5 0 -0.5 1.33333 -0.333333 1.33333 -0.166667 1.33333 0 2.66667 0 1.33333 -0.5 1.33333 -0.5 2.66667 -0.333333 2.66667 -0.166667 2.66667 0 4 0 2.66667 -0.333333 2.66667 -0.166667 4 -0.166667 2.66667 -0.5 2.66667 -0.333333 4 -0.333333 2.66667 -0.5 0 -0.333333 1.33333 -0.333333 0 -0.5 0 -0.5 1.33333 -0.333333 1.33333 -0.5 1.33333 -0.333333 2.66667 -0.333333 1.33333 -0.5 1.33333 -0.5 2.66667 -0.333333 2.66667 -0.333333 2.66667 -0.166667 4 -0.166667 2.66667 -0.5 2.66667 -0.333333 4 -0.333333 2.66667 -0.5 0 -0.333333 1.33333 -0.333333 0 -0.5 0 -0.5 1.33333 -0.333333 1.33333 -0.5 1.33333 -0.333333 2.66667 -0.333333 1.33333 -0.5 1.33333 -0.5 2.66667 -0.333333 2.66667 -0.166667 2.66667 0 4 0 2.66667 -0.333333 2.66667 -0.166667 4 -0.166667 2.66667 -0.5 2.66667 -0.333333 4 -0.333333 2.66667 -0.166667 0 0 1.33333 0 0 -0.166667 0 -0.166667 1.33333 0 1.33333 -0.5 0 -0.333333 1.33333 -0.333333 0 -0.5 0 -0.5 1.33333 -0.333333 1.33333 -0.166667 1.33333 0 2.66667 0 1.33333 -0.5 1.33333 -0.5 2.66667 -0.333333 2.66667 -0.166667 2.66667 0 4 0 2.66667 -0.333333 2.66667 -0.166667 4 -0.166667 2.66667 -0.5 2.66667 -0.333333 4 -0.333333 2.66667</float_array>
          <technique_common>
            <accessor source="#lilac128-mesh-map-0-array" count="567" stride="2">
              <param name="S" type="float"/>
              <param name="T" type="float"/>
            </accessor>
          </technique_common>
        </source>
        <source id="lilac128-mesh-colors">
          <float_array id="lilac128-mesh-colors-array" count="1701">0 0 0 0 0 0 0 0 0 0 0 0 0 0 0 0 0 0 0 0 0 0 0 0 0 0 0 0 0 0 0 0 0 0 0 0 0 0 0 0 0 0 0 0 0 0 0 0 0 0 0 0 0 0 0 0 0 0 0 0 0 0 0 0 0 0 0 0 0 0 0 0 0 0 0 0 0 0 0 0 0 0 0 0 0 0 0 0 0 0 0 0 0 0 0 0 0 0 0 0 0 0 0 0 0 0 0 0 0 0 0 0 0 0 0 0 0 0 0 0 0 0 0 0 0 0 0 0 0 0 0 0 0 0 0 0 0 0 0 0 0 0 0 0 0 0 0 0 0 0 0 0 0 0 0 0 0 0 0 0 0 0 0 0 0 0 0 0 0 0 0 0 0 0 0 0 0 0 0 0 0 0 0 0 0 0 0 0 0 0 0 0 0 0 0 0 0 0 0 0 0 0 0 0 0 0 0 0 0 0 0 0 0 0 0 0 0 0 0 0 0 0 0 0 0 0 0 0 0 0 0 0 0 0 0 0 0 0 0 0 0 0 0 0 0 0 0 0 0 0 0 0 0 0 0 0 0 0 0 0 0 0 0 0 0 0 0 0 0 0 0 0 0 0 0 0 0 0 0 0 0 0 0 0 0 0 0 0 0 0 0 0 0 0 0 0 0 0 0 0 0 0 0 0 0 0 0 0 0 0 0 0 0 0 0 0 0 0 0 0 0 0 0 0 0 0 0 0 0 0 0 0 0 0 0 0 0 0 0 0 0 0 0 0 0 0 0 0 0 0 0 0 0 0 0 0 0 0 0 0 0 0 0 0 0 0 0 0 0 0 0 0 0 0 0 0 0 0 0 0 0 0 0 0 0 0 0 0 0 0 0 0 0 0 0 0 0 0 0 0 0 0 0 0 0 0 0 0 0 0 0 0 0 0 0 0 0 0 0 0 0 0 0 0 0 0 0 0 0 0 0 0 0 0 0 0 0 0 0 0 0 0 0 0 0 0 0 0 0 0 0 0 0 0 0 0 0 0 0 0 0 0 0 0 0 0 0 0 0 0 0 0 0 0 0 0 0 0 0 0 0 0 0 0 0 0 0 0.3843137 1 1 0 1 0 1 1 0 0 1 1 0.007843136 1 1 0 1 0 1 1 1 1 1 0 1 1 0 0.4549019 1 0.9529412 0.9176471 1 1 1 1 0 0 1 0.2509804 0.1294118 1 0 0.7450981 1 0 1 1 1 0.4745098 1 0.2509804 0.1294118 1 0 0.2823529 1 1 1 1 0 1 1 0.03137254 0.2823529 1 1 0.007843136 1 1 1 1 0.01960784 0.4745098 1 1 0 1 0 0.3215686 1 0.01960784 1 1 1 0.4392157 1 1 0 1 0 0 1 1 1 1 0 1 1 0 0 1 1 0.4352941 1 1 1 1 0 0.02745097 1 0.9019608 0.09019607 1 0 0.2078431 1 0 0.1843137 1 1 0.1058824 1 1 0.09019607 1 0 1 1 1 0.3882353 1 0 0.4039216 1 0 1 1 1 0.9098039 1 1 0.3882353 1 0 0 1 1 1 1 0 1 1 0 0 1 1 0.4549019 1 1 0.007843136 1 0 0 1 1 0 1 0.1411765 0.654902 1 0 0.06274509 1 1 1 1 1 0 1 0.1490196 0 1 1 0 1 0 0.2627451 1 0.4117647 0.627451 1 1 0.6392157 1 1 0 1 0.02352941 0.4901961 1 1 1 1 0.5686275 0 1 0.02745097 0.9058824 1 1 0.05490195 1 1 1 1 0 0 1 1 0.1647059 1 0 0.5137255 1 0 0.4901961 1 1 0.4588235 1 1 0.1647059 1 0 1 1 1 0.8313726 1 0 0 1 0 0.172549 1 1 0.1333333 1 1 0.8313726 1 0 0.2313725 1 1 0 1 0 1 1 0 0.2588235 1 1 0.5607843 1 1 0.0980392 1 0 0 1 1 0.5568628 1 0 1 1 0 0.1843137 1 1 0.9411765 1 1 1 1 0 0.6196079 1 1 0.7647059 1 0 1 1 0 1 1 1 0.254902 1 1 0.7647059 1 0 1 1 0 1 1 0 1 1 0.1254902 1 1 1 0.06666666 1 1 1 1 0 0 1 1 0 1 0 0 1 0 1 1 1 0.03921568 1 1 0 1 0 0.2 1 1 1 1 0 0 1 0 0.4470588 1 1 0.2627451 1 1 1 1 0 1 1 0.882353 0.01568627 1 0 0.02745097 1 0 1 1 1 1 1 0.882353 1 1 0 0 1 1 0 1 0 1 1 0.07450979 1 1 1 0.4470588 1 1 0.02352941 1 0 0.9215686 1 1 0.1176471 1 0 0.9333333 1 0.05882352 0.9450981 1 1 0.1764706 1 1 0.1176471 1 0 1 1 1 0 1 0 1 1 0.02352941 0.8509804 1 1 0.3960784 1 1 0 1 0 0.02745097 1 1 0.8509804 1 0 0 1 0 0.4705882 1 1 0.4039216 1 0.1647059 0.8509804 1 0 1 1 0 0.03529411 1 0 0.1647059 1 0 1 1 1 0.4666666 1 0 0.01960784 1 0 0 1 1 0 1 0 1 1 0 0.8509804 1 1 0 1 1 0 1 0 0 1 1 0.04313725 1 0 1 1 0 0 1 1 0.09019607 1 1 0.04313725 1 0 0.05098038 1 1 0.6705883 1 0 1 1 0 1 1 1 0 1 1 0.6705883 1 0 0.4117647 1 1 0.4509804 1 0 0.6078432 1 0 0.9333333 1 1 0.1764706 1 1 0.7333334 1 0 0.8509804 1 1 0.145098 1 0 0 1 0 1 1 1 1 1 1 0.3529412 1 0 1 1 1 1 1 0 0.5607843 1 0 0.4784314 1 1 0.0980392 1 1 1 1 0 0.3333333 1 1 0 1 0 0 1 0 1 1 1 0.02352941 1 0 1 1 0 0 1 1 0.06666666 1 0.9803922 1 1 0 0 1 1 0 1 1 0.06666666 1 0 0.4901961 1 1 0 1 0 0 1 0 1 1 1 0.4313725 1 1 0 1 0 1 1 1 0.2823529 1 0 1 1 0 0.6039216 1 1 0.5647059 1 1 0.2823529 1 0 1 1 1 1 1 0 0.4117647 1 0 0.4235294 1 1 0.1529412 1 1 0 1 0 0.9686275 1 0 0.1686275 1 0 0.7490196 1 0 0.3803921 1 1 0.4156863 1 0 0.03137254 1 0 0.6666667 1 1 0 1 0 1 1 0 0.6666667 1 1 0 1 1 0 1 0 0.9607843 1 0.2039216 0.6509804 1 0 1 1 0 0.9607843 1 1 1 1 0.2039216 1 1 0 0 1 1 0 1 0 0.1921569 1 0 1 1 1 0.4941176 1 1 0 1 0 0.5803922 1 0 0.4117647 1 0 1 1 0 0.6980392 1 1 0.5058824 1 0.2823529 0 1 0 0 0 0 0 0 0 0 0 0 0 0 0 0 0 0 0 0 0 0 0 0 0 0 0 0 0 0 0 0 0 0 0 0 0 0 0 0 0 0 0 0 0 0 0 0 0 0 0 0 0 0 0 0 0 0 0 0 0 0 0 0 0 0 0 0 0 0 0 0 0 0 0 0 0 0 0 0 0 0 0 0 0 0 0 0 0 0 0 0 0 0 0 0 0 0 0 0 0 0 0 0 0 0 0 0 0 0 0 0 0 0 0 0 0 0 0 0 0 0 0 0 0 0 0 0 0 0 0 0 0 0 0 0 0 0 0 0 0 0 0 0 0 0 0 0 0 0 0 0 0 0 0 0 0 0 0 0 0 0 0 0 0 0 0 0 0 0 0 0 0 0 0 0 0 0 0 0 0 0 0 0 0 0 0 0 0 0 0 0 0 0 0 0 0 0 0 0 0 0 0 0 0 0 0 0 0 0 0 0 0 0 0 0 0 0 0 0 0 0 0 0 0 0 0 0 0 0 0 0 0 0 0 0 0 0 0 0 0 0 0 0 0 0 0 0 0 0 0 0 0 0 0 0 0 0 0 0 0 0 0 0 0 0 0 0 0 0 0 0 0 0 0 0 0 0 0 0 0 0 0 0 0 0 0 0 0 0 0 0 0 0 0 0 0 0 0 0 0 0 0 0 0 0 0 0 0 0 0 0 0 0 0 0 0 0 0 0 0 0 0 0 0 0 0 0 0 0 0 0 0 0 0 0 0 0 0 0 0 0 0 0 0 0 0 0 0 0 0 0 0 0 0 0 0 0 0 0 0 0 0 0 0 0 0 0 0 0 0 0 0 0 0 0 0 0 0 0 0 0 0 0 0 0 0 0 0 0 0 0 0 0 0 0 0 0 0 0 0 0 0 0 0 0 0 0 0 0 0 0 0 0 0 0 0 0 0 0 0 0 0 0 0 0 0 0 0 0 0 0 0 0 0 0 0 0 0 0 0 0 0 0 0 0 0 0 0 0 0 0 0 0 0 0 0 0 0 0 0</float_array>
          <technique_common>
            <accessor source="#lilac128-mesh-colors-array" count="567" stride="3">
              <param name="R" type="float"/>
              <param name="G" type="float"/>
              <param name="B" type="float"/>
            </accessor>
          </technique_common>
        </source>
        <vertices id="lilac128-mesh-vertices">
          <input semantic="POSITION" source="#lilac128-mesh-positions"/>
        </vertices>
        <polylist material="lilac_01_bark-material" count="105">
          <input semantic="VERTEX" source="#lilac128-mesh-vertices" offset="0"/>
          <input semantic="NORMAL" source="#lilac128-mesh-normals" offset="1"/>
          <input semantic="TEXCOORD" source="#lilac128-mesh-map-0" offset="2" set="0"/>
          <input semantic="COLOR" source="#lilac128-mesh-colors" offset="3"/>
          <vcount>3 3 3 3 3 3 3 3 3 3 3 3 3 3 3 3 3 3 3 3 3 3 3 3 3 3 3 3 3 3 3 3 3 3 3 3 3 3 3 3 3 3 3 3 3 3 3 3 3 3 3 3 3 3 3 3 3 3 3 3 3 3 3 3 3 3 3 3 3 3 3 3 3 3 3 3 3 3 3 3 3 3 3 3 3 3 3 3 3 3 3 3 3 3 3 3 3 3 3 3 3 3 3 3 3 </vcount>
          <p>1 0 0 0 0 1 1 1 2 2 2 2 2 2 3 3 3 3 4 4 1 0 5 5 4 4 6 6 3 3 7 7 2 2 8 8 4 4 9 9 5 5 10 10 3 3 11 11 1 0 12 12 7 6 13 13 6 7 14 14 3 3 15 15 7 6 16 16 1 0 17 17 3 3 18 18 8 8 19 19 7 6 20 20 5 5 21 21 8 8 22 22 3 3 23 23 7 6 24 24 9 9 25 25 6 7 26 26 10 10 27 27 12 11 28 28 11 12 29 29 13 13 30 30 12 11 31 31 10 10 32 32 13 13 33 33 14 14 34 34 12 11 35 35 15 15 36 36 14 14 37 37 13 13 38 38 12 11 39 39 16 16 40 40 11 12 41 41 12 11 42 42 17 17 43 43 16 16 44 44 14 14 45 45 17 17 46 46 12 11 47 47 14 14 48 48 18 18 49 49 17 17 50 50 17 17 51 51 19 19 52 52 16 16 53 53 20 20 54 54 21 21 55 55 22 22 56 56 20 20 57 57 23 23 58 58 21 21 59 59 24 24 60 60 23 23 61 61 20 20 62 62 24 24 63 63 25 25 64 64 23 23 65 65 25 25 66 66 26 26 67 67 23 23 68 68 25 25 69 69 27 27 70 70 26 26 71 71 27 27 72 72 29 28 73 73 26 26 74 74 33 29 75 75 32 30 76 76 30 31 77 77 33 29 78 78 34 32 79 79 32 30 80 80 32 30 81 81 37 33 82 82 36 34 83 83 34 32 84 84 37 33 85 85 32 30 86 86 34 32 87 87 38 35 88 88 37 33 89 89 35 36 90 90 38 35 91 91 34 32 92 92 40 37 93 93 41 38 94 94 42 39 95 95 40 37 96 96 43 40 97 97 41 38 98 98 44 41 99 99 43 40 100 100 40 37 101 101 44 41 102 102 45 42 103 103 43 40 104 104 43 40 105 105 46 43 106 106 41 38 107 107 43 40 108 108 47 44 109 109 46 43 110 110 45 42 111 111 47 44 112 112 43 40 113 113 45 42 114 114 48 45 115 115 47 44 116 116 47 44 117 117 49 46 118 118 46 43 119 119 50 47 120 120 51 48 121 121 52 49 122 122 50 47 123 123 53 50 124 124 51 48 125 125 54 51 126 126 53 50 127 127 50 47 128 128 54 51 129 129 55 52 130 130 53 50 131 131 53 50 132 132 56 53 133 133 51 48 134 134 53 50 135 135 57 54 136 136 56 53 137 137 55 52 138 138 57 54 139 139 53 50 140 140 55 52 141 141 58 55 142 142 57 54 143 143 63 56 144 144 62 57 145 145 60 58 146 146 63 56 147 147 64 59 148 148 62 57 149 149 62 57 150 150 67 60 151 151 66 61 152 152 64 59 153 153 67 60 154 154 62 57 155 155 64 59 156 156 68 62 157 157 67 60 158 158 65 63 159 159 68 62 160 160 64 59 161 161 0 1 414 414 5 5 415 415 4 4 416 416 0 1 417 417 1 0 418 418 5 5 419 419 1 0 420 420 6 7 421 421 5 5 422 422 5 5 423 423 6 7 424 424 8 8 425 425 8 8 426 426 9 9 427 427 7 6 428 428 6 7 429 429 9 9 430 430 8 8 431 431 10 10 432 432 11 12 433 433 15 15 434 434 15 15 435 435 11 12 436 436 14 14 437 437 11 12 438 438 18 18 439 439 14 14 440 440 11 12 441 441 16 16 442 442 18 18 443 443 18 18 444 444 19 19 445 445 17 17 446 446 16 16 447 447 19 19 448 448 18 18 449 449 22 22 450 450 25 25 451 451 24 24 452 452 22 22 453 453 21 21 454 454 25 25 455 455 23 23 456 456 28 232 457 457 21 21 458 458 23 23 459 459 26 26 460 460 28 232 461 461 21 21 462 462 27 27 463 463 25 25 464 464 21 21 465 465 28 232 466 466 27 27 467 467 26 26 468 468 29 28 469 469 28 232 470 470 28 232 471 471 29 28 472 472 27 27 473 473 30 31 474 474 35 36 475 475 31 233 476 476 30 31 477 477 32 30 478 478 35 36 479 479 31 233 480 480 34 32 481 481 33 29 482 482 31 233 483 483 35 36 484 484 34 32 485 485 32 30 486 486 36 34 487 487 35 36 488 488 35 36 489 489 36 34 490 490 38 35 491 491 37 33 492 492 39 234 493 493 36 34 494 494 38 35 495 495 39 234 496 496 37 33 497 497 36 34 498 498 39 234 499 499 38 35 500 500 42 39 501 501 45 42 502 502 44 41 503 503 42 39 504 504 41 38 505 505 45 42 506 506 41 38 507 507 48 45 508 508 45 42 509 509 41 38 510 510 46 43 511 511 48 45 512 512 48 45 513 513 49 46 514 514 47 44 515 515 46 43 516 516 49 46 517 517 48 45 518 518 52 49 519 519 55 52 520 520 54 51 521 521 52 49 522 522 51 48 523 523 55 52 524 524 51 48 525 525 58 55 526 526 55 52 527 527 51 48 528 528 56 53 529 529 58 55 530 530 57 54 531 531 59 235 532 532 56 53 533 533 58 55 534 534 59 235 535 535 57 54 536 536 56 53 537 537 59 235 538 538 58 55 539 539 60 58 540 540 65 63 541 541 61 236 542 542 60 58 543 543 62 57 544 544 65 63 545 545 61 236 546 546 64 59 547 547 63 56 548 548 61 236 549 549 65 63 550 550 64 59 551 551 62 57 552 552 66 61 553 553 65 63 554 554 65 63 555 555 66 61 556 556 68 62 557 557 67 60 558 558 69 237 559 559 66 61 560 560 68 62 561 561 69 237 562 562 67 60 563 563 66 61 564 564 69 237 565 565 68 62 566 566</p>
        </polylist>
        <polylist material="lilac_01_branch-material" count="84">
          <input semantic="VERTEX" source="#lilac128-mesh-vertices" offset="0"/>
          <input semantic="NORMAL" source="#lilac128-mesh-normals" offset="1"/>
          <input semantic="TEXCOORD" source="#lilac128-mesh-map-0" offset="2" set="0"/>
          <input semantic="COLOR" source="#lilac128-mesh-colors" offset="3"/>
          <vcount>3 3 3 3 3 3 3 3 3 3 3 3 3 3 3 3 3 3 3 3 3 3 3 3 3 3 3 3 3 3 3 3 3 3 3 3 3 3 3 3 3 3 3 3 3 3 3 3 3 3 3 3 3 3 3 3 3 3 3 3 3 3 3 3 3 3 3 3 3 3 3 3 3 3 3 3 3 3 3 3 3 3 3 3 </vcount>
          <p>70 64 162 162 71 65 163 163 72 66 164 164 70 64 165 165 73 67 166 166 71 65 167 167 74 68 168 168 75 69 169 169 76 70 170 170 74 68 171 171 77 71 172 172 75 69 173 173 78 72 174 174 79 73 175 175 80 74 176 176 78 72 177 177 81 75 178 178 79 73 179 179 82 76 180 180 83 77 181 181 84 78 182 182 82 76 183 183 85 79 184 184 83 77 185 185 86 80 186 186 87 81 187 187 88 82 188 188 86 80 189 189 89 83 190 190 87 81 191 191 90 84 192 192 91 85 193 193 92 86 194 194 90 84 195 195 93 87 196 196 91 85 197 197 94 88 198 198 95 89 199 199 96 90 200 200 94 88 201 201 97 91 202 202 95 89 203 203 98 92 204 204 99 93 205 205 100 94 206 206 98 92 207 207 101 95 208 208 99 93 209 209 102 96 210 210 103 97 211 211 104 98 212 212 102 96 213 213 105 99 214 214 103 97 215 215 106 100 216 216 107 101 217 217 108 102 218 218 106 100 219 219 109 103 220 220 107 101 221 221 110 104 222 222 111 105 223 223 112 106 224 224 110 104 225 225 113 107 226 226 111 105 227 227 114 108 228 228 115 109 229 229 116 110 230 230 114 108 231 231 117 111 232 232 115 109 233 233 118 112 234 234 119 113 235 235 120 114 236 236 118 112 237 237 121 115 238 238 119 113 239 239 122 116 240 240 123 117 241 241 124 118 242 242 122 116 243 243 125 119 244 244 123 117 245 245 126 120 246 246 127 121 247 247 128 122 248 248 126 120 249 249 129 123 250 250 127 121 251 251 130 124 252 252 131 125 253 253 132 126 254 254 130 124 255 255 133 127 256 256 131 125 257 257 134 128 258 258 135 129 259 259 136 130 260 260 134 128 261 261 137 131 262 262 135 129 263 263 138 132 264 264 139 133 265 265 140 134 266 266 138 132 267 267 141 135 268 268 139 133 269 269 142 136 270 270 143 137 271 271 144 138 272 272 142 136 273 273 145 139 274 274 143 137 275 275 146 140 276 276 147 141 277 277 148 142 278 278 146 140 279 279 149 143 280 280 147 141 281 281 150 144 282 282 151 145 283 283 152 146 284 284 150 144 285 285 153 147 286 286 151 145 287 287 154 148 288 288 155 149 289 289 156 150 290 290 154 148 291 291 157 151 292 292 155 149 293 293 158 152 294 294 159 153 295 295 160 154 296 296 158 152 297 297 161 155 298 298 159 153 299 299 162 156 300 300 163 157 301 301 164 158 302 302 162 156 303 303 165 159 304 304 163 157 305 305 166 160 306 306 167 161 307 307 168 162 308 308 166 160 309 309 169 163 310 310 167 161 311 311 170 164 312 312 171 165 313 313 172 166 314 314 170 164 315 315 173 167 316 316 171 165 317 317 174 168 318 318 175 169 319 319 176 170 320 320 174 168 321 321 177 171 322 322 175 169 323 323 178 172 324 324 179 173 325 325 180 174 326 326 178 172 327 327 181 175 328 328 179 173 329 329 182 176 330 330 183 177 331 331 184 178 332 332 182 176 333 333 185 179 334 334 183 177 335 335 186 180 336 336 187 181 337 337 188 182 338 338 186 180 339 339 189 183 340 340 187 181 341 341 190 184 342 342 191 185 343 343 192 186 344 344 190 184 345 345 193 187 346 346 191 185 347 347 194 188 348 348 195 189 349 349 196 190 350 350 194 188 351 351 197 191 352 352 195 189 353 353 198 192 354 354 199 193 355 355 200 194 356 356 198 192 357 357 201 195 358 358 199 193 359 359 202 196 360 360 203 197 361 361 204 198 362 362 202 196 363 363 205 199 364 364 203 197 365 365 206 200 366 366 207 201 367 367 208 202 368 368 206 200 369 369 209 203 370 370 207 201 371 371 210 204 372 372 211 205 373 373 212 206 374 374 210 204 375 375 213 207 376 376 211 205 377 377 214 208 378 378 215 209 379 379 216 210 380 380 214 208 381 381 217 211 382 382 215 209 383 383 218 212 384 384 219 213 385 385 220 214 386 386 218 212 387 387 221 215 388 388 219 213 389 389 222 216 390 390 223 217 391 391 224 218 392 392 222 216 393 393 225 219 394 394 223 217 395 395 226 220 396 396 227 221 397 397 228 222 398 398 226 220 399 399 229 223 400 400 227 221 401 401 230 224 402 402 231 225 403 403 232 226 404 404 230 224 405 405 233 227 406 406 231 225 407 407 234 228 408 408 235 229 409 409 236 230 410 410 234 228 411 411 237 231 412 412 235 229 413 413</p>
        </polylist>
      </mesh>
      <extra><technique profile="MAYA"><double_sided>1</double_sided></technique></extra>
    </geometry>
    <geometry id="collisionmesh-1-mesh" name="collisionmesh-1">
      <mesh>
        <source id="collisionmesh-1-mesh-positions">
          <float_array id="collisionmesh-1-mesh-positions-array" count="210">-0.04815405 -0.0801714 -0.301808 -0.03088867 -0.2331911 0.8910999 -0.06347608 0.07066786 -0.2965979 -0.05037629 -0.1324001 0.929713 -0.182554 -0.01708525 -0.299008 -0.131106 -0.1998311 0.9103289 -0.04402816 -0.5586563 1.7873 0.01234757 -0.5776753 1.77111 0.004216432 -0.5242043 1.8034 0.04493165 -1.0123 2.55538 -0.07220119 0.02933138 -0.3020378 -0.04574495 0.1421638 0.923508 -0.14272 0.09715181 0.913714 0.05264985 -0.05659216 -0.2954223 -0.0538823 0.03600054 0.933665 0.06287366 0.09094977 -0.2990212 -0.271583 0.2634777 1.84077 -0.326785 0.2378126 1.83096 -0.277995 0.2031937 1.8507 -0.567917 0.4274135 2.6715 0.04929918 -0.05644726 -0.3081665 0.07407337 -0.2246351 0.905372 -0.0953719 -0.08810728 -0.2972539 0.177914 -0.2070211 0.884562 -0.05349135 0.05357557 0.01586049 0.113468 -0.1266211 0.922144 0.417148 -0.4902393 1.75764 0.383988 -0.4436193 1.78401 0.357756 -0.4979263 1.77233 0.662176 -0.8920384 2.51155 -0.09019041 0.03517907 -0.3048098 -0.05684995 0.1798419 -0.3012984 -0.230233 0.01585811 0.894593 0.05382525 0.08186805 -0.2951129 -0.1308709 0.04496175 0.930784 -0.205784 0.1189448 0.911959 -0.596961 -0.03510808 1.77009 -0.593268 -0.09489685 1.75547 -0.546927 -0.06637334 1.7872 -1.0798 -0.3223994 2.46617 0.124826 -0.09350907 -0.3087455 0.334623 -0.08475464 0.893894 0.110505 -0.240509 -0.293349 0.343891 0.01960301 0.870448 -0.01096558 -0.156556 -0.2842482 0.250854 -0.0208109 0.912167 0.754234 0.1414637 1.71446 0.761053 0.1986727 1.69248 0.713923 0.1844557 1.73179 1.25402 0.3895616 2.4166 -0.133804 0.03368115 -0.3030794 -0.261506 0.0515756 0.912762 -0.165341 0.178786 -0.3020445 -0.2263939 -0.0486235 0.896842 -0.02331179 0.137535 -0.2985526 -0.1582649 0.03030049 0.930888 -0.479546 -0.2495343 1.78829 -0.4513 -0.3013483 1.77041 -0.422145 -0.2597373 1.80765 -0.775588 -0.7748974 2.45207 0.06924277 -0.02667945 -0.3181443 -0.02610737 -0.138339 -0.2959714 0.421925 -0.1060691 0.814906 -0.07490807 3.26138e-4 0.02615225 0.333939 -0.07288414 0.871359 0.348214 -0.1764331 0.848695 0.930823 -0.2906002 1.59222 0.965499 -0.2468382 1.56606 0.925962 -0.2330362 1.61312 1.64035 -0.4890424 2.09619</float_array>
          <technique_common>
            <accessor source="#collisionmesh-1-mesh-positions-array" count="70" stride="3">
              <param name="X" type="float"/>
              <param name="Y" type="float"/>
              <param name="Z" type="float"/>
            </accessor>
          </technique_common>
        </source>
        <source id="collisionmesh-1-mesh-normals">
          <float_array id="collisionmesh-1-mesh-normals-array" count="315">0.9948745 0.101107 -0.001429677 0.983007 0.182506 0.01972085 -0.5893751 0.7959678 0.1381022 -0.6543387 0.7431048 0.1401294 -0.3840962 -0.8660161 -0.3201349 0.9831489 0.1813911 0.02270269 0.9890201 0.1477141 0.00444287 -0.6491496 0.6780984 0.3446551 -0.3972327 -0.8095966 -0.4321567 -0.4136352 0.9073804 -0.07461059 -0.5673453 -0.823377 0.01302343 -0.5688828 -0.8223215 0.01264077 0.9936066 -0.06662803 0.09114104 -0.393216 0.8939449 -0.2150433 -0.3802306 0.899728 -0.2142758 -0.5687863 -0.8223981 0.01197665 -0.5804417 -0.814275 0.00660479 -0.3572888 0.8838654 -0.3018719 0.201741 -0.9695973 -0.1384978 0.1385313 -0.980593 -0.1387313 0.738654 0.6740629 0.005445003 0.7761092 0.6303516 -0.01764506 0.7780761 0.628099 -0.009452998 0.8049854 0.5922716 -0.03482633 0.8234509 0.5663552 0.03421163 0.3070763 -0.9514635 0.02052736 0.2767839 -0.9608473 0.01277399 -0.9224851 0.03698092 -0.3842575 0.2825241 -0.9592507 -0.004269719 0.464465 -0.8785533 0.111429 0.5988432 0.7036724 0.3824027 0.9789333 -0.1131696 -0.1699482 0.977559 -0.1249259 -0.169623 -0.4223587 0.9063891 -0.008480012 -0.4041466 0.9145658 -0.01532435 0.895501 -0.171773 -0.410575 0.8833765 -0.2560967 -0.3925054 -0.3976855 0.9175198 0.001945555 -0.3274052 0.9434897 -0.05131113 0.8255703 -0.2854307 -0.4867885 -0.9725282 -0.2106625 -0.09904587 -0.944101 -0.3158172 -0.09451246 0.684814 -0.7287123 0.002858877 0.7513901 -0.6593859 0.02496546 -0.909218 -0.2679902 -0.3185968 -0.872168 -0.3618451 -0.3292281 0.7558593 -0.6547136 0.005191266 0.7998715 -0.5986505 0.04270118 0.1993561 0.9799048 0.006605982 0.3128315 0.9472792 -0.06927263 0.5084806 -0.7014486 -0.4994171 0.3211449 0.9454187 -0.05522203 0.2966653 0.9544881 -0.03069639 -0.7838913 -0.2339475 0.5751374 -0.4239656 -0.8980026 -0.1176629 -0.3335632 -0.9356634 -0.115194 -0.354173 -0.877332 -0.3238057 -0.6189392 0.7034934 0.3493012 0.9908066 0.1315152 0.03171771 -0.6132419 0.6469852 0.4531494 -0.4124945 0.9078935 -0.07468247 0.9935556 -0.06743907 0.09110009 0.9679933 -0.05067855 0.2458059 0.9671733 -0.06229025 0.2463649 -0.5829085 -0.8123798 0.01602542 0.9382558 -0.04325932 0.3432269 -0.9831821 -0.07618439 0.1659782 -0.92417 0.3425146 0.1690958 0.09393644 -0.9402931 -0.3271461 0.04361671 -0.9467297 -0.3190616 -0.8784111 0.2877668 0.3815551 -0.8603497 0.3324869 0.3863301 -0.001955032 -0.8827539 -0.4698316 -0.8203849 0.2903206 0.4926282 -0.9682314 0.2257578 -0.1075242 -0.9630104 0.246669 -0.1084678 0.654161 0.7466084 0.1210344 0.6821825 0.7212768 0.1199448 -0.8930769 0.2721611 -0.3582482 0.4121494 0.8454403 0.3396521 -0.834407 0.08174026 -0.5450536 0.4932069 -0.8678521 0.05983173 0.3071326 0.7855154 0.5372476 -0.5449565 -0.8113984 0.2113175 -0.5635612 -0.7986312 0.2111568 -0.4747259 -0.7524049 0.4566423 -0.5418549 -0.6972408 0.4693065 -0.3154444 0.9482896 -0.03523492 -0.4704338 -0.6717571 0.5722188 0.2745419 0.9548625 0.113421 0.1807808 0.9765901 0.1165758 0.1305693 0.9288889 0.3465793 0.05355727 0.9401033 0.3366563 -0.7982246 -0.245299 -0.5501509 0.8213056 -0.5704612 -0.005577325 -0.06170254 0.7958347 0.6023619 0.7100203 -0.6567597 -0.254043 0.6093854 -0.7548562 -0.2425727 -0.614125 -0.7544243 0.2317203 -0.9342572 -0.1942483 0.2990502 0.4765934 -0.732613 -0.4859393 -0.7773449 -0.2716513 0.5673979 0.3067697 -0.6555592 -0.690025 0.334541 0.9423696 0.004678845 -0.6065616 -0.3160853 0.729502</float_array>
          <technique_common>
            <accessor source="#collisionmesh-1-mesh-normals-array" count="105" stride="3">
              <param name="X" type="float"/>
              <param name="Y" type="float"/>
              <param name="Z" type="float"/>
            </accessor>
          </technique_common>
        </source>
        <source id="collisionmesh-1-mesh-map-0">
          <float_array id="collisionmesh-1-mesh-map-0-array" count="630">-0.166667 1.33333 -0.166667 0 -0.333333 0 -0.333333 0 -0.333333 1.33333 -0.166667 1.33333 -0.5 0 -0.333333 1.33333 -0.333333 0 -0.5 0 -0.5 1.33333 -0.333333 1.33333 -0.166667 1.33333 -0.166667 2.66667 0 2.66667 -0.333333 1.33333 -0.166667 2.66667 -0.166667 1.33333 -0.333333 1.33333 -0.333333 2.66667 -0.166667 2.66667 -0.5 1.33333 -0.333333 2.66667 -0.333333 1.33333 -0.166667 2.66667 0 4 0 2.66667 -0.166667 0 -0.166667 1.33333 0 1.33333 -0.333333 0 -0.166667 1.33333 -0.166667 0 -0.333333 0 -0.333333 1.33333 -0.166667 1.33333 -0.5 0 -0.333333 1.33333 -0.333333 0 -0.166667 1.33333 0 2.66667 0 1.33333 -0.166667 1.33333 -0.166667 2.66667 0 2.66667 -0.333333 1.33333 -0.166667 2.66667 -0.166667 1.33333 -0.333333 1.33333 -0.333333 2.66667 -0.166667 2.66667 -0.166667 2.66667 0 4 0 2.66667 -0.166667 0 0 1.33333 0 0 -0.166667 0 -0.166667 1.33333 0 1.33333 -0.333333 0 -0.166667 1.33333 -0.166667 0 -0.333333 0 -0.333333 1.33333 -0.166667 1.33333 -0.333333 1.33333 -0.166667 2.66667 -0.166667 1.33333 -0.333333 1.33333 -0.333333 2.66667 -0.166667 2.66667 -0.333333 2.66667 -0.166667 4 -0.166667 2.66667 -0.333333 0 -0.166667 1.33333 -0.166667 0 -0.333333 0 -0.333333 1.33333 -0.166667 1.33333 -0.166667 1.33333 -0.166667 2.66667 0 2.66667 -0.333333 1.33333 -0.166667 2.66667 -0.166667 1.33333 -0.333333 1.33333 -0.333333 2.66667 -0.166667 2.66667 -0.5 1.33333 -0.333333 2.66667 -0.333333 1.33333 -0.166667 0 0 1.33333 0 0 -0.166667 0 -0.166667 1.33333 0 1.33333 -0.333333 0 -0.166667 1.33333 -0.166667 0 -0.333333 0 -0.333333 1.33333 -0.166667 1.33333 -0.166667 1.33333 0 2.66667 0 1.33333 -0.166667 1.33333 -0.166667 2.66667 0 2.66667 -0.333333 1.33333 -0.166667 2.66667 -0.166667 1.33333 -0.333333 1.33333 -0.333333 2.66667 -0.166667 2.66667 -0.166667 2.66667 0 4 0 2.66667 -0.166667 0 0 1.33333 0 0 -0.166667 0 -0.166667 1.33333 0 1.33333 -0.333333 0 -0.166667 1.33333 -0.166667 0 -0.333333 0 -0.333333 1.33333 -0.166667 1.33333 -0.166667 1.33333 0 2.66667 0 1.33333 -0.166667 1.33333 -0.166667 2.66667 0 2.66667 -0.333333 1.33333 -0.166667 2.66667 -0.166667 1.33333 -0.333333 1.33333 -0.333333 2.66667 -0.166667 2.66667 -0.333333 0 -0.166667 1.33333 -0.166667 0 -0.333333 0 -0.333333 1.33333 -0.166667 1.33333 -0.166667 1.33333 -0.166667 2.66667 0 2.66667 -0.333333 1.33333 -0.166667 2.66667 -0.166667 1.33333 -0.333333 1.33333 -0.333333 2.66667 -0.166667 2.66667 -0.5 1.33333 -0.333333 2.66667 -0.333333 1.33333 -0.166667 0 0 1.33333 0 0 -0.166667 0 -0.166667 1.33333 0 1.33333 -0.166667 1.33333 0 2.66667 0 1.33333 -0.5 1.33333 -0.5 2.66667 -0.333333 2.66667 -0.333333 2.66667 -0.166667 4 -0.166667 2.66667 -0.5 2.66667 -0.333333 4 -0.333333 2.66667 -0.166667 0 0 1.33333 0 0 -0.5 0 -0.5 1.33333 -0.333333 1.33333 -0.5 1.33333 -0.333333 2.66667 -0.333333 1.33333 -0.5 1.33333 -0.5 2.66667 -0.333333 2.66667 -0.333333 2.66667 -0.166667 4 -0.166667 2.66667 -0.5 2.66667 -0.333333 4 -0.333333 2.66667 -0.5 0 -0.333333 1.33333 -0.333333 0 -0.5 0 -0.5 1.33333 -0.333333 1.33333 -0.166667 1.33333 0 2.66667 0 1.33333 -0.166667 1.33333 -0.166667 2.66667 0 2.66667 -0.5 1.33333 -0.333333 2.66667 -0.333333 1.33333 -0.5 1.33333 -0.5 2.66667 -0.333333 2.66667 -0.166667 2.66667 0 4 0 2.66667 -0.5 2.66667 -0.333333 4 -0.333333 2.66667 -0.166667 0 0 1.33333 0 0 -0.166667 0 -0.166667 1.33333 0 1.33333 -0.5 0 -0.333333 1.33333 -0.333333 0 -0.5 0 -0.5 1.33333 -0.333333 1.33333 -0.166667 1.33333 0 2.66667 0 1.33333 -0.5 1.33333 -0.5 2.66667 -0.333333 2.66667 -0.166667 2.66667 0 4 0 2.66667 -0.333333 2.66667 -0.166667 4 -0.166667 2.66667 -0.5 2.66667 -0.333333 4 -0.333333 2.66667 -0.5 0 -0.333333 1.33333 -0.333333 0 -0.5 0 -0.5 1.33333 -0.333333 1.33333 -0.5 1.33333 -0.333333 2.66667 -0.333333 1.33333 -0.5 1.33333 -0.5 2.66667 -0.333333 2.66667 -0.333333 2.66667 -0.166667 4 -0.166667 2.66667 -0.5 2.66667 -0.333333 4 -0.333333 2.66667 -0.5 0 -0.333333 1.33333 -0.333333 0 -0.5 0 -0.5 1.33333 -0.333333 1.33333 -0.5 1.33333 -0.333333 2.66667 -0.333333 1.33333 -0.5 1.33333 -0.5 2.66667 -0.333333 2.66667 -0.166667 2.66667 0 4 0 2.66667 -0.333333 2.66667 -0.166667 4 -0.166667 2.66667 -0.5 2.66667 -0.333333 4 -0.333333 2.66667 -0.166667 0 0 1.33333 0 0 -0.166667 0 -0.166667 1.33333 0 1.33333 -0.5 0 -0.333333 1.33333 -0.333333 0 -0.5 0 -0.5 1.33333 -0.333333 1.33333 -0.166667 1.33333 0 2.66667 0 1.33333 -0.5 1.33333 -0.5 2.66667 -0.333333 2.66667 -0.166667 2.66667 0 4 0 2.66667 -0.333333 2.66667 -0.166667 4 -0.166667 2.66667 -0.5 2.66667 -0.333333 4 -0.333333 2.66667</float_array>
          <technique_common>
            <accessor source="#collisionmesh-1-mesh-map-0-array" count="315" stride="2">
              <param name="S" type="float"/>
              <param name="T" type="float"/>
            </accessor>
          </technique_common>
        </source>
        <source id="collisionmesh-1-mesh-colors">
          <float_array id="collisionmesh-1-mesh-colors-array" count="945">0 0 0 0 0 0 0 0 0 0 0 0 0 0 0 0 0 0 0 0 0 0 0 0 0 0 0 0 0 0 0 0 0 0 0 0 0 0 0 0 0 0 0 0 0 0 0 0 0 0 0 0 0 0 0 0 0 0 0 0 0 0 0 0 0 0 0 0 0 0 0 0 0 0 0 0 0 0 0 0 0 0 0 0 0 0 0 0 0 0 0 0 0 0 0 0 0 0 0 0 0 0 0 0 0 0 0 0 0 0 0 0 0 0 0 0 0 0 0 0 0 0 0 0 0 0 0 0 0 0 0 0 0 0 0 0 0 0 0 0 0 0 0 0 0 0 0 0 0 0 0 0 0 0 0 0 0 0 0 0 0 0 0 0 0 0 0 0 0 0 0 0 0 0 0 0 0 0 0 0 0 0 0 0 0 0 0 0 0 0 0 0 0 0 0 0 0 0 0 0 0 0 0 0 0 0 0 0 0 0 0 0 0 0 0 0 0 0 0 0 0 0 0 0 0 0 0 0 0 0 0 0 0 0 0 0 0 0 0 0 0 0 0 0 0 0 0 0 0 0 0 0 0 0 0 0 0 0 0 0 0 0 0 0 0 0 0 0 0 0 0 0 0 0 0 0 0 0 0 0 0 0 0 0 0 0 0 0 0 0 0 0 0 0 0 0 0 0 0 0 0 0 0 0 0 0 0 0 0 0 0 0 0 0 0 0 0 0 0 0 0 0 0 0 0 0 0 0 0 0 0 0 0 0 0 0 0 0 0 0 0 0 0 0 0 0 0 0 0 0 0 0 0 0 0 0 0 0 0 0 0 0 0 0 0 0 0 0 0 0 0 0 0 0 0 0 0 0 0 0 0 0 0 0 0 0 0 0 0 0 0 0 0 0 0 0 0 0 0 0 0 0 0 0 0 0 0 0 0 0 0 0 0 0 0 0 0 0 0 0 0 0 0 0 0 0 0 0 0 0 0 0 0 0 0 0 0 0 0 0 0 0 0 0 0 0 0 0 0 0 0 0 0 0 0 0 0 0 0 0 0 0 0 0 0 0 0 0 0 0 0 0 0 0 0 0 0 0 0 0 0 0 0 0 0 0 0 0 0 0 0 0 0 0 0 0 0 0 0 0 0 0 0 0 0 0 0 0 0 0 0 0 0 0 0 0 0 0 0 0 0 0 0 0 0 0 0 0 0 0 0 0 0 0 0 0 0 0 0 0 0 0 0 0 0 0 0 0 0 0 0 0 0 0 0 0 0 0 0 0 0 0 0 0 0 0 0 0 0 0 0 0 0 0 0 0 0 0 0 0 0 0 0 0 0 0 0 0 0 0 0 0 0 0 0 0 0 0 0 0 0 0 0 0 0 0 0 0 0 0 0 0 0 0 0 0 0 0 0 0 0 0 0 0 0 0 0 0 0 0 0 0 0 0 0 0 0 0 0 0 0 0 0 0 0 0 0 0 0 0 0 0 0 0 0 0 0 0 0 0 0 0 0 0 0 0 0 0 0 0 0 0 0 0 0 0 0 0 0 0 0 0 0 0 0 0 0 0 0 0 0 0 0 0 0 0 0 0 0 0 0 0 0 0 0 0 0 0 0 0 0 0 0 0 0 0 0 0 0 0 0 0 0 0 0 0 0 0 0 0 0 0 0 0 0 0 0 0 0 0 0 0 0 0 0 0 0 0 0 0 0 0 0 0 0 0 0 0 0 0 0 0 0 0 0 0 0 0 0 0 0 0 0 0 0 0 0 0 0 0 0 0 0 0 0 0 0 0 0 0 0 0 0 0 0 0 0 0 0 0 0 0 0 0 0 0 0 0 0 0 0 0 0 0 0 0 0 0 0 0 0 0 0 0 0 0 0 0 0 0 0 0 0 0 0 0 0 0 0 0 0 0 0 0 0 0 0 0 0 0 0 0 0 0 0 0 0 0 0 0 0 0 0 0 0 0 0 0 0 0 0 0 0 0 0 0 0 0 0 0 0 0 0 0 0 0 0 0 0 0 0 0 0 0 0 0 0 0 0 0 0 0 0 0 0 0 0 0 0 0 0 0 0 0 0 0 0 0 0 0 0 0 0 0 0 0 0 0 0 0 0 0 0 0 0 0 0 0 0 0 0 0 0 0 0</float_array>
          <technique_common>
            <accessor source="#collisionmesh-1-mesh-colors-array" count="315" stride="3">
              <param name="R" type="float"/>
              <param name="G" type="float"/>
              <param name="B" type="float"/>
            </accessor>
          </technique_common>
        </source>
        <vertices id="collisionmesh-1-mesh-vertices">
          <input semantic="POSITION" source="#collisionmesh-1-mesh-positions"/>
        </vertices>
        <polylist count="105">
          <input semantic="VERTEX" source="#collisionmesh-1-mesh-vertices" offset="0"/>
          <input semantic="NORMAL" source="#collisionmesh-1-mesh-normals" offset="1"/>
          <input semantic="TEXCOORD" source="#collisionmesh-1-mesh-map-0" offset="2" set="0"/>
          <input semantic="COLOR" source="#collisionmesh-1-mesh-colors" offset="3"/>
          <vcount>3 3 3 3 3 3 3 3 3 3 3 3 3 3 3 3 3 3 3 3 3 3 3 3 3 3 3 3 3 3 3 3 3 3 3 3 3 3 3 3 3 3 3 3 3 3 3 3 3 3 3 3 3 3 3 3 3 3 3 3 3 3 3 3 3 3 3 3 3 3 3 3 3 3 3 3 3 3 3 3 3 3 3 3 3 3 3 3 3 3 3 3 3 3 3 3 3 3 3 3 3 3 3 3 3 </vcount>
          <p>1 0 0 0 0 0 1 1 2 0 2 2 2 1 3 3 3 1 4 4 1 1 5 5 4 2 6 6 3 2 7 7 2 2 8 8 4 3 9 9 5 3 10 10 3 3 11 11 1 4 12 12 7 4 13 13 6 4 14 14 3 5 15 15 7 5 16 16 1 5 17 17 3 6 18 18 8 6 19 19 7 6 20 20 5 7 21 21 8 7 22 22 3 7 23 23 7 8 24 24 9 8 25 25 6 8 26 26 10 9 27 27 12 9 28 28 11 9 29 29 13 10 30 30 12 10 31 31 10 10 32 32 13 11 33 33 14 11 34 34 12 11 35 35 15 12 36 36 14 12 37 37 13 12 38 38 12 13 39 39 16 13 40 40 11 13 41 41 12 14 42 42 17 14 43 43 16 14 44 44 14 15 45 45 17 15 46 46 12 15 47 47 14 16 48 48 18 16 49 49 17 16 50 50 17 17 51 51 19 17 52 52 16 17 53 53 20 18 54 54 21 18 55 55 22 18 56 56 20 19 57 57 23 19 58 58 21 19 59 59 24 20 60 60 23 20 61 61 20 20 62 62 24 21 63 63 25 21 64 64 23 21 65 65 25 22 66 66 26 22 67 67 23 22 68 68 25 23 69 69 27 23 70 70 26 23 71 71 27 24 72 72 29 24 73 73 26 24 74 74 33 25 75 75 32 25 76 76 30 25 77 77 33 26 78 78 34 26 79 79 32 26 80 80 32 27 81 81 37 27 82 82 36 27 83 83 34 28 84 84 37 28 85 85 32 28 86 86 34 29 87 87 38 29 88 88 37 29 89 89 35 30 90 90 38 30 91 91 34 30 92 92 40 31 93 93 41 31 94 94 42 31 95 95 40 32 96 96 43 32 97 97 41 32 98 98 44 33 99 99 43 33 100 100 40 33 101 101 44 34 102 102 45 34 103 103 43 34 104 104 43 35 105 105 46 35 106 106 41 35 107 107 43 36 108 108 47 36 109 109 46 36 110 110 45 37 111 111 47 37 112 112 43 37 113 113 45 38 114 114 48 38 115 115 47 38 116 116 47 39 117 117 49 39 118 118 46 39 119 119 50 40 120 120 51 40 121 121 52 40 122 122 50 41 123 123 53 41 124 124 51 41 125 125 54 42 126 126 53 42 127 127 50 42 128 128 54 43 129 129 55 43 130 130 53 43 131 131 53 44 132 132 56 44 133 133 51 44 134 134 53 45 135 135 57 45 136 136 56 45 137 137 55 46 138 138 57 46 139 139 53 46 140 140 55 47 141 141 58 47 142 142 57 47 143 143 63 48 144 144 62 48 145 145 60 48 146 146 63 49 147 147 64 49 148 148 62 49 149 149 62 50 150 150 67 50 151 151 66 50 152 152 64 51 153 153 67 51 154 154 62 51 155 155 64 52 156 156 68 52 157 157 67 52 158 158 65 53 159 159 68 53 160 160 64 53 161 161 0 54 162 162 5 54 163 163 4 54 164 164 0 55 165 165 1 55 166 166 5 55 167 167 1 56 168 168 6 56 169 169 5 56 170 170 5 57 171 171 6 57 172 172 8 57 173 173 8 58 174 174 9 58 175 175 7 58 176 176 6 59 177 177 9 59 178 178 8 59 179 179 10 60 180 180 11 60 181 181 15 60 182 182 15 61 183 183 11 61 184 184 14 61 185 185 11 62 186 186 18 62 187 187 14 62 188 188 11 63 189 189 16 63 190 190 18 63 191 191 18 64 192 192 19 64 193 193 17 64 194 194 16 65 195 195 19 65 196 196 18 65 197 197 22 66 198 198 25 66 199 199 24 66 200 200 22 67 201 201 21 67 202 202 25 67 203 203 23 68 204 204 28 68 205 205 21 68 206 206 23 69 207 207 26 69 208 208 28 69 209 209 21 70 210 210 27 70 211 211 25 70 212 212 21 71 213 213 28 71 214 214 27 71 215 215 26 72 216 216 29 72 217 217 28 72 218 218 28 73 219 219 29 73 220 220 27 73 221 221 30 74 222 222 35 74 223 223 31 74 224 224 30 75 225 225 32 75 226 226 35 75 227 227 31 76 228 228 34 76 229 229 33 76 230 230 31 77 231 231 35 77 232 232 34 77 233 233 32 78 234 234 36 78 235 235 35 78 236 236 35 79 237 237 36 79 238 238 38 79 239 239 37 80 240 240 39 80 241 241 36 80 242 242 38 81 243 243 39 81 244 244 37 81 245 245 36 82 246 246 39 82 247 247 38 82 248 248 42 83 249 249 45 83 250 250 44 83 251 251 42 84 252 252 41 84 253 253 45 84 254 254 41 85 255 255 48 85 256 256 45 85 257 257 41 86 258 258 46 86 259 259 48 86 260 260 48 87 261 261 49 87 262 262 47 87 263 263 46 88 264 264 49 88 265 265 48 88 266 266 52 89 267 267 55 89 268 268 54 89 269 269 52 90 270 270 51 90 271 271 55 90 272 272 51 91 273 273 58 91 274 274 55 91 275 275 51 92 276 276 56 92 277 277 58 92 278 278 57 93 279 279 59 93 280 280 56 93 281 281 58 94 282 282 59 94 283 283 57 94 284 284 56 95 285 285 59 95 286 286 58 95 287 287 60 96 288 288 65 96 289 289 61 96 290 290 60 97 291 291 62 97 292 292 65 97 293 293 61 98 294 294 64 98 295 295 63 98 296 296 61 99 297 297 65 99 298 298 64 99 299 299 62 100 300 300 66 100 301 301 65 100 302 302 65 101 303 303 66 101 304 304 68 101 305 305 67 102 306 306 69 102 307 307 66 102 308 308 68 103 309 309 69 103 310 310 67 103 311 311 66 104 312 312 69 104 313 313 68 104 314 314</p>
        </polylist>
      </mesh>
      <extra><technique profile="MAYA"><double_sided>1</double_sided></technique></extra>
    </geometry>
  </library_geometries>
  <library_visual_scenes>
    <visual_scene id="Scene" name="Scene">
      <node id="Hemi" name="Hemi" type="NODE">
        <translate sid="location">13.49135 8.26255 2.098701</translate>
        <rotate sid="rotationZ">0 0 1 0</rotate>
        <rotate sid="rotationY">0 1 0 0</rotate>
        <rotate sid="rotationX">1 0 0 0</rotate>
        <scale sid="scale">1 1 1</scale>
        <instance_light url="#Hemi-light"/>
      </node>
      <node id="base01" name="base01" type="NODE">
        <translate sid="location">0 0 0</translate>
        <rotate sid="rotationZ">0 0 1 0</rotate>
        <rotate sid="rotationY">0 1 0 0</rotate>
        <rotate sid="rotationX">1 0 0 0</rotate>
        <scale sid="scale">1 1 1</scale>
        <node id="start01" name="start01" type="NODE">
          <translate sid="location">0 0 0</translate>
          <rotate sid="rotationZ">0 0 1 0</rotate>
          <rotate sid="rotationY">0 1 0 0</rotate>
          <rotate sid="rotationX">1 0 0 0</rotate>
          <scale sid="scale">1 1 1</scale>
          <node id="lilac128" name="lilac128" type="NODE">
            <translate sid="location">0 0 0</translate>
            <rotate sid="rotationZ">0 0 1 0</rotate>
            <rotate sid="rotationY">0 1 0 0</rotate>
            <rotate sid="rotationX">1 0 0 0</rotate>
            <scale sid="scale">1 1 1</scale>
            <instance_geometry url="#lilac128-mesh">
              <bind_material>
                <technique_common>
                  <instance_material symbol="lilac_01_bark-material" target="#lilac_01_bark-material">
                    <bind_vertex_input semantic="UVMap" input_semantic="TEXCOORD" input_set="0"/>
                  </instance_material>
                  <instance_material symbol="lilac_01_branch-material" target="#lilac_01_branch-material">
                    <bind_vertex_input semantic="UVMap" input_semantic="TEXCOORD" input_set="0"/>
                  </instance_material>
                </technique_common>
              </bind_material>
            </instance_geometry>
          </node>
          <node id="collisionmesh-1" name="collisionmesh-1" type="NODE">
            <translate sid="location">0 0 0</translate>
            <rotate sid="rotationZ">0 0 1 0</rotate>
            <rotate sid="rotationY">0 1 0 0</rotate>
            <rotate sid="rotationX">1 0 0 0</rotate>
            <scale sid="scale">1 1 1</scale>
            <instance_geometry url="#collisionmesh-1-mesh"/>
          </node>
        </node>
        <node id="detail128" name="detail128" type="NODE">
          <translate sid="location">0 0 0</translate>
          <rotate sid="rotationZ">0 0 1 0</rotate>
          <rotate sid="rotationY">0 1 0 0</rotate>
          <rotate sid="rotationX">1 0 0 0</rotate>
          <scale sid="scale">1 1 1</scale>
        </node>
        <node id="collision-1" name="collision-1" type="NODE">
          <translate sid="location">0 0 0</translate>
          <rotate sid="rotationZ">0 0 1 0</rotate>
          <rotate sid="rotationY">0 1 0 0</rotate>
          <rotate sid="rotationX">1 0 0 0</rotate>
          <scale sid="scale">1 1 1</scale>
        </node>
      </node>
    </visual_scene>
  </library_visual_scenes>
  <scene>
    <instance_visual_scene url="#Scene"/>
  </scene>
</COLLADA>