<?xml version="1.0" encoding="utf-8"?>
<COLLADA xmlns="http://www.collada.org/2005/11/COLLADASchema" version="1.4.1">
  <asset>
    <contributor>
      <author>Blender User</author>
      <authoring_tool>Blender 2.71.0 commit date:2014-06-25, commit time:18:36, hash:9337574</authoring_tool>
    </contributor>
    <created>2014-12-08T11:31:42</created>
    <modified>2014-12-08T11:31:42</modified>
    <unit name="meter" meter="1"/>
    <up_axis>Z_UP</up_axis>
  </asset>
  <library_cameras>
    <camera id="Camera-camera" name="Camera">
      <optics>
        <technique_common>
          <perspective>
            <xfov sid="xfov">49.13434</xfov>
            <aspect_ratio>1</aspect_ratio>
            <znear sid="znear">0.1</znear>
            <zfar sid="zfar">100</zfar>
          </perspective>
        </technique_common>
      </optics>
      <extra>
        <technique profile="blender">
          <YF_dofdist>0</YF_dofdist>
          <shiftx>0</shiftx>
          <shifty>0</shifty>
        </technique>
      </extra>
    </camera>
    <camera id="Camera_001-camera" name="Camera.001">
      <optics>
        <technique_common>
          <perspective>
            <xfov sid="xfov">49.13434</xfov>
            <aspect_ratio>1</aspect_ratio>
            <znear sid="znear">0.1</znear>
            <zfar sid="zfar">100</zfar>
          </perspective>
        </technique_common>
      </optics>
      <extra>
        <technique profile="blender">
          <YF_dofdist>0</YF_dofdist>
          <shiftx>0</shiftx>
          <shifty>0</shifty>
        </technique>
      </extra>
    </camera>
  </library_cameras>
  <library_lights>
    <light id="Lamp-light" name="Lamp">
      <technique_common>
        <directional>
          <color sid="color">1 1 1</color>
        </directional>
      </technique_common>
      <extra>
        <technique profile="blender">
          <adapt_thresh>0.000999987</adapt_thresh>
          <area_shape>1</area_shape>
          <area_size>0.1</area_size>
          <area_sizey>0.1</area_sizey>
          <area_sizez>1</area_sizez>
          <atm_distance_factor>1</atm_distance_factor>
          <atm_extinction_factor>1</atm_extinction_factor>
          <atm_turbidity>2</atm_turbidity>
          <att1>0</att1>
          <att2>1</att2>
          <backscattered_light>1</backscattered_light>
          <bias>1</bias>
          <blue>1</blue>
          <buffers>1</buffers>
          <bufflag>0</bufflag>
          <bufsize>2880</bufsize>
          <buftype>2</buftype>
          <clipend>30.002</clipend>
          <clipsta>1.000799</clipsta>
          <compressthresh>0.04999995</compressthresh>
          <dist sid="blender_dist">29.99998</dist>
          <energy sid="blender_energy">1</energy>
          <falloff_type>2</falloff_type>
          <filtertype>0</filtertype>
          <flag>0</flag>
          <gamma sid="blender_gamma">1</gamma>
          <green>1</green>
          <halo_intensity sid="blnder_halo_intensity">1</halo_intensity>
          <horizon_brightness>1</horizon_brightness>
          <mode>8192</mode>
          <ray_samp>1</ray_samp>
          <ray_samp_method>1</ray_samp_method>
          <ray_samp_type>0</ray_samp_type>
          <ray_sampy>1</ray_sampy>
          <ray_sampz>1</ray_sampz>
          <red>1</red>
          <samp>3</samp>
          <shadhalostep>0</shadhalostep>
          <shadow_b sid="blender_shadow_b">0</shadow_b>
          <shadow_g sid="blender_shadow_g">0</shadow_g>
          <shadow_r sid="blender_shadow_r">0</shadow_r>
          <sky_colorspace>0</sky_colorspace>
          <sky_exposure>1</sky_exposure>
          <skyblendfac>1</skyblendfac>
          <skyblendtype>1</skyblendtype>
          <soft>3</soft>
          <spotblend>0.15</spotblend>
          <spotsize>75</spotsize>
          <spread>1</spread>
          <sun_brightness>1</sun_brightness>
          <sun_effect_type>0</sun_effect_type>
          <sun_intensity>1</sun_intensity>
          <sun_size>1</sun_size>
          <type>1</type>
        </technique>
      </extra>
    </light>
    <light id="Lamp_001-light" name="Lamp.001">
      <technique_common>
        <directional>
          <color sid="color">1 1 1</color>
        </directional>
      </technique_common>
      <extra>
        <technique profile="blender">
          <adapt_thresh>0.000999987</adapt_thresh>
          <area_shape>1</area_shape>
          <area_size>0.1</area_size>
          <area_sizey>0.1</area_sizey>
          <area_sizez>1</area_sizez>
          <atm_distance_factor>1</atm_distance_factor>
          <atm_extinction_factor>1</atm_extinction_factor>
          <atm_turbidity>2</atm_turbidity>
          <att1>0</att1>
          <att2>1</att2>
          <backscattered_light>1</backscattered_light>
          <bias>1</bias>
          <blue>1</blue>
          <buffers>1</buffers>
          <bufflag>0</bufflag>
          <bufsize>2880</bufsize>
          <buftype>2</buftype>
          <clipend>30.002</clipend>
          <clipsta>1.000799</clipsta>
          <compressthresh>0.04999995</compressthresh>
          <dist sid="blender_dist">29.99998</dist>
          <energy sid="blender_energy">1</energy>
          <falloff_type>2</falloff_type>
          <filtertype>0</filtertype>
          <flag>0</flag>
          <gamma sid="blender_gamma">1</gamma>
          <green>1</green>
          <halo_intensity sid="blnder_halo_intensity">1</halo_intensity>
          <horizon_brightness>1</horizon_brightness>
          <mode>8192</mode>
          <ray_samp>1</ray_samp>
          <ray_samp_method>1</ray_samp_method>
          <ray_samp_type>0</ray_samp_type>
          <ray_sampy>1</ray_sampy>
          <ray_sampz>1</ray_sampz>
          <red>1</red>
          <samp>3</samp>
          <shadhalostep>0</shadhalostep>
          <shadow_b sid="blender_shadow_b">0</shadow_b>
          <shadow_g sid="blender_shadow_g">0</shadow_g>
          <shadow_r sid="blender_shadow_r">0</shadow_r>
          <sky_colorspace>0</sky_colorspace>
          <sky_exposure>1</sky_exposure>
          <skyblendfac>1</skyblendfac>
          <skyblendtype>1</skyblendtype>
          <soft>3</soft>
          <spotblend>0.15</spotblend>
          <spotsize>75</spotsize>
          <spread>1</spread>
          <sun_brightness>1</sun_brightness>
          <sun_effect_type>0</sun_effect_type>
          <sun_intensity>1</sun_intensity>
          <sun_size>1</sun_size>
          <type>1</type>
        </technique>
      </extra>
    </light>
    <light id="Lamp_002-light" name="Lamp.002">
      <technique_common>
        <directional>
          <color sid="color">1 1 1</color>
        </directional>
      </technique_common>
      <extra>
        <technique profile="blender">
          <adapt_thresh>0.000999987</adapt_thresh>
          <area_shape>1</area_shape>
          <area_size>0.1</area_size>
          <area_sizey>0.1</area_sizey>
          <area_sizez>1</area_sizez>
          <atm_distance_factor>1</atm_distance_factor>
          <atm_extinction_factor>1</atm_extinction_factor>
          <atm_turbidity>2</atm_turbidity>
          <att1>0</att1>
          <att2>1</att2>
          <backscattered_light>1</backscattered_light>
          <bias>1</bias>
          <blue>1</blue>
          <buffers>1</buffers>
          <bufflag>0</bufflag>
          <bufsize>2880</bufsize>
          <buftype>2</buftype>
          <clipend>30.002</clipend>
          <clipsta>1.000799</clipsta>
          <compressthresh>0.04999995</compressthresh>
          <dist sid="blender_dist">29.99998</dist>
          <energy sid="blender_energy">1</energy>
          <falloff_type>2</falloff_type>
          <filtertype>0</filtertype>
          <flag>0</flag>
          <gamma sid="blender_gamma">1</gamma>
          <green>1</green>
          <halo_intensity sid="blnder_halo_intensity">1</halo_intensity>
          <horizon_brightness>1</horizon_brightness>
          <mode>8192</mode>
          <ray_samp>1</ray_samp>
          <ray_samp_method>1</ray_samp_method>
          <ray_samp_type>0</ray_samp_type>
          <ray_sampy>1</ray_sampy>
          <ray_sampz>1</ray_sampz>
          <red>1</red>
          <samp>3</samp>
          <shadhalostep>0</shadhalostep>
          <shadow_b sid="blender_shadow_b">0</shadow_b>
          <shadow_g sid="blender_shadow_g">0</shadow_g>
          <shadow_r sid="blender_shadow_r">0</shadow_r>
          <sky_colorspace>0</sky_colorspace>
          <sky_exposure>1</sky_exposure>
          <skyblendfac>1</skyblendfac>
          <skyblendtype>1</skyblendtype>
          <soft>3</soft>
          <spotblend>0.15</spotblend>
          <spotsize>75</spotsize>
          <spread>1</spread>
          <sun_brightness>1</sun_brightness>
          <sun_effect_type>0</sun_effect_type>
          <sun_intensity>1</sun_intensity>
          <sun_size>1</sun_size>
          <type>1</type>
        </technique>
      </extra>
    </light>
    <light id="Lamp_003-light" name="Lamp.003">
      <technique_common>
        <directional>
          <color sid="color">1 1 1</color>
        </directional>
      </technique_common>
      <extra>
        <technique profile="blender">
          <adapt_thresh>0.000999987</adapt_thresh>
          <area_shape>1</area_shape>
          <area_size>0.1</area_size>
          <area_sizey>0.1</area_sizey>
          <area_sizez>1</area_sizez>
          <atm_distance_factor>1</atm_distance_factor>
          <atm_extinction_factor>1</atm_extinction_factor>
          <atm_turbidity>2</atm_turbidity>
          <att1>0</att1>
          <att2>1</att2>
          <backscattered_light>1</backscattered_light>
          <bias>1</bias>
          <blue>1</blue>
          <buffers>1</buffers>
          <bufflag>0</bufflag>
          <bufsize>2880</bufsize>
          <buftype>2</buftype>
          <clipend>30.002</clipend>
          <clipsta>1.000799</clipsta>
          <compressthresh>0.04999995</compressthresh>
          <dist sid="blender_dist">29.99998</dist>
          <energy sid="blender_energy">1</energy>
          <falloff_type>2</falloff_type>
          <filtertype>0</filtertype>
          <flag>0</flag>
          <gamma sid="blender_gamma">1</gamma>
          <green>1</green>
          <halo_intensity sid="blnder_halo_intensity">1</halo_intensity>
          <horizon_brightness>1</horizon_brightness>
          <mode>8192</mode>
          <ray_samp>1</ray_samp>
          <ray_samp_method>1</ray_samp_method>
          <ray_samp_type>0</ray_samp_type>
          <ray_sampy>1</ray_sampy>
          <ray_sampz>1</ray_sampz>
          <red>1</red>
          <samp>3</samp>
          <shadhalostep>0</shadhalostep>
          <shadow_b sid="blender_shadow_b">0</shadow_b>
          <shadow_g sid="blender_shadow_g">0</shadow_g>
          <shadow_r sid="blender_shadow_r">0</shadow_r>
          <sky_colorspace>0</sky_colorspace>
          <sky_exposure>1</sky_exposure>
          <skyblendfac>1</skyblendfac>
          <skyblendtype>1</skyblendtype>
          <soft>3</soft>
          <spotblend>0.15</spotblend>
          <spotsize>75</spotsize>
          <spread>1</spread>
          <sun_brightness>1</sun_brightness>
          <sun_effect_type>0</sun_effect_type>
          <sun_intensity>1</sun_intensity>
          <sun_size>1</sun_size>
          <type>1</type>
        </technique>
      </extra>
    </light>
    <light id="Lamp_004-light" name="Lamp.004">
      <technique_common>
        <directional>
          <color sid="color">1 1 1</color>
        </directional>
      </technique_common>
      <extra>
        <technique profile="blender">
          <adapt_thresh>0.000999987</adapt_thresh>
          <area_shape>1</area_shape>
          <area_size>0.1</area_size>
          <area_sizey>0.1</area_sizey>
          <area_sizez>1</area_sizez>
          <atm_distance_factor>1</atm_distance_factor>
          <atm_extinction_factor>1</atm_extinction_factor>
          <atm_turbidity>2</atm_turbidity>
          <att1>0</att1>
          <att2>1</att2>
          <backscattered_light>1</backscattered_light>
          <bias>1</bias>
          <blue>1</blue>
          <buffers>1</buffers>
          <bufflag>0</bufflag>
          <bufsize>2880</bufsize>
          <buftype>2</buftype>
          <clipend>30.002</clipend>
          <clipsta>1.000799</clipsta>
          <compressthresh>0.04999995</compressthresh>
          <dist sid="blender_dist">29.99998</dist>
          <energy sid="blender_energy">1</energy>
          <falloff_type>2</falloff_type>
          <filtertype>0</filtertype>
          <flag>0</flag>
          <gamma sid="blender_gamma">1</gamma>
          <green>1</green>
          <halo_intensity sid="blnder_halo_intensity">1</halo_intensity>
          <horizon_brightness>1</horizon_brightness>
          <mode>8192</mode>
          <ray_samp>1</ray_samp>
          <ray_samp_method>1</ray_samp_method>
          <ray_samp_type>0</ray_samp_type>
          <ray_sampy>1</ray_sampy>
          <ray_sampz>1</ray_sampz>
          <red>1</red>
          <samp>3</samp>
          <shadhalostep>0</shadhalostep>
          <shadow_b sid="blender_shadow_b">0</shadow_b>
          <shadow_g sid="blender_shadow_g">0</shadow_g>
          <shadow_r sid="blender_shadow_r">0</shadow_r>
          <sky_colorspace>0</sky_colorspace>
          <sky_exposure>1</sky_exposure>
          <skyblendfac>1</skyblendfac>
          <skyblendtype>1</skyblendtype>
          <soft>3</soft>
          <spotblend>0.15</spotblend>
          <spotsize>75</spotsize>
          <spread>1</spread>
          <sun_brightness>1</sun_brightness>
          <sun_effect_type>0</sun_effect_type>
          <sun_intensity>1</sun_intensity>
          <sun_size>1</sun_size>
          <type>1</type>
        </technique>
      </extra>
    </light>
    <light id="Lamp_005-light" name="Lamp.005">
      <technique_common>
        <directional>
          <color sid="color">1 1 1</color>
        </directional>
      </technique_common>
      <extra>
        <technique profile="blender">
          <adapt_thresh>0.000999987</adapt_thresh>
          <area_shape>1</area_shape>
          <area_size>0.1</area_size>
          <area_sizey>0.1</area_sizey>
          <area_sizez>1</area_sizez>
          <atm_distance_factor>1</atm_distance_factor>
          <atm_extinction_factor>1</atm_extinction_factor>
          <atm_turbidity>2</atm_turbidity>
          <att1>0</att1>
          <att2>1</att2>
          <backscattered_light>1</backscattered_light>
          <bias>1</bias>
          <blue>1</blue>
          <buffers>1</buffers>
          <bufflag>0</bufflag>
          <bufsize>2880</bufsize>
          <buftype>2</buftype>
          <clipend>30.002</clipend>
          <clipsta>1.000799</clipsta>
          <compressthresh>0.04999995</compressthresh>
          <dist sid="blender_dist">29.99998</dist>
          <energy sid="blender_energy">1</energy>
          <falloff_type>2</falloff_type>
          <filtertype>0</filtertype>
          <flag>0</flag>
          <gamma sid="blender_gamma">1</gamma>
          <green>1</green>
          <halo_intensity sid="blnder_halo_intensity">1</halo_intensity>
          <horizon_brightness>1</horizon_brightness>
          <mode>8192</mode>
          <ray_samp>1</ray_samp>
          <ray_samp_method>1</ray_samp_method>
          <ray_samp_type>0</ray_samp_type>
          <ray_sampy>1</ray_sampy>
          <ray_sampz>1</ray_sampz>
          <red>1</red>
          <samp>3</samp>
          <shadhalostep>0</shadhalostep>
          <shadow_b sid="blender_shadow_b">0</shadow_b>
          <shadow_g sid="blender_shadow_g">0</shadow_g>
          <shadow_r sid="blender_shadow_r">0</shadow_r>
          <sky_colorspace>0</sky_colorspace>
          <sky_exposure>1</sky_exposure>
          <skyblendfac>1</skyblendfac>
          <skyblendtype>1</skyblendtype>
          <soft>3</soft>
          <spotblend>0.15</spotblend>
          <spotsize>75</spotsize>
          <spread>1</spread>
          <sun_brightness>1</sun_brightness>
          <sun_effect_type>0</sun_effect_type>
          <sun_intensity>1</sun_intensity>
          <sun_size>1</sun_size>
          <type>1</type>
        </technique>
      </extra>
    </light>
    <light id="Lamp_006-light" name="Lamp.006">
      <technique_common>
        <directional>
          <color sid="color">1 1 1</color>
        </directional>
      </technique_common>
      <extra>
        <technique profile="blender">
          <adapt_thresh>0.000999987</adapt_thresh>
          <area_shape>1</area_shape>
          <area_size>0.1</area_size>
          <area_sizey>0.1</area_sizey>
          <area_sizez>1</area_sizez>
          <atm_distance_factor>1</atm_distance_factor>
          <atm_extinction_factor>1</atm_extinction_factor>
          <atm_turbidity>2</atm_turbidity>
          <att1>0</att1>
          <att2>1</att2>
          <backscattered_light>1</backscattered_light>
          <bias>1</bias>
          <blue>1</blue>
          <buffers>1</buffers>
          <bufflag>0</bufflag>
          <bufsize>2880</bufsize>
          <buftype>2</buftype>
          <clipend>30.002</clipend>
          <clipsta>1.000799</clipsta>
          <compressthresh>0.04999995</compressthresh>
          <dist sid="blender_dist">29.99998</dist>
          <energy sid="blender_energy">1</energy>
          <falloff_type>2</falloff_type>
          <filtertype>0</filtertype>
          <flag>0</flag>
          <gamma sid="blender_gamma">1</gamma>
          <green>1</green>
          <halo_intensity sid="blnder_halo_intensity">1</halo_intensity>
          <horizon_brightness>1</horizon_brightness>
          <mode>8192</mode>
          <ray_samp>1</ray_samp>
          <ray_samp_method>1</ray_samp_method>
          <ray_samp_type>0</ray_samp_type>
          <ray_sampy>1</ray_sampy>
          <ray_sampz>1</ray_sampz>
          <red>1</red>
          <samp>3</samp>
          <shadhalostep>0</shadhalostep>
          <shadow_b sid="blender_shadow_b">0</shadow_b>
          <shadow_g sid="blender_shadow_g">0</shadow_g>
          <shadow_r sid="blender_shadow_r">0</shadow_r>
          <sky_colorspace>0</sky_colorspace>
          <sky_exposure>1</sky_exposure>
          <skyblendfac>1</skyblendfac>
          <skyblendtype>1</skyblendtype>
          <soft>3</soft>
          <spotblend>0.15</spotblend>
          <spotsize>75</spotsize>
          <spread>1</spread>
          <sun_brightness>1</sun_brightness>
          <sun_effect_type>0</sun_effect_type>
          <sun_intensity>1</sun_intensity>
          <sun_size>1</sun_size>
          <type>1</type>
        </technique>
      </extra>
    </light>
    <light id="Lamp_007-light" name="Lamp.007">
      <technique_common>
        <directional>
          <color sid="color">1 1 1</color>
        </directional>
      </technique_common>
      <extra>
        <technique profile="blender">
          <adapt_thresh>0.000999987</adapt_thresh>
          <area_shape>1</area_shape>
          <area_size>0.1</area_size>
          <area_sizey>0.1</area_sizey>
          <area_sizez>1</area_sizez>
          <atm_distance_factor>1</atm_distance_factor>
          <atm_extinction_factor>1</atm_extinction_factor>
          <atm_turbidity>2</atm_turbidity>
          <att1>0</att1>
          <att2>1</att2>
          <backscattered_light>1</backscattered_light>
          <bias>1</bias>
          <blue>1</blue>
          <buffers>1</buffers>
          <bufflag>0</bufflag>
          <bufsize>2880</bufsize>
          <buftype>2</buftype>
          <clipend>30.002</clipend>
          <clipsta>1.000799</clipsta>
          <compressthresh>0.04999995</compressthresh>
          <dist sid="blender_dist">29.99998</dist>
          <energy sid="blender_energy">1</energy>
          <falloff_type>2</falloff_type>
          <filtertype>0</filtertype>
          <flag>0</flag>
          <gamma sid="blender_gamma">1</gamma>
          <green>1</green>
          <halo_intensity sid="blnder_halo_intensity">1</halo_intensity>
          <horizon_brightness>1</horizon_brightness>
          <mode>8192</mode>
          <ray_samp>1</ray_samp>
          <ray_samp_method>1</ray_samp_method>
          <ray_samp_type>0</ray_samp_type>
          <ray_sampy>1</ray_sampy>
          <ray_sampz>1</ray_sampz>
          <red>1</red>
          <samp>3</samp>
          <shadhalostep>0</shadhalostep>
          <shadow_b sid="blender_shadow_b">0</shadow_b>
          <shadow_g sid="blender_shadow_g">0</shadow_g>
          <shadow_r sid="blender_shadow_r">0</shadow_r>
          <sky_colorspace>0</sky_colorspace>
          <sky_exposure>1</sky_exposure>
          <skyblendfac>1</skyblendfac>
          <skyblendtype>1</skyblendtype>
          <soft>3</soft>
          <spotblend>0.15</spotblend>
          <spotsize>75</spotsize>
          <spread>1</spread>
          <sun_brightness>1</sun_brightness>
          <sun_effect_type>0</sun_effect_type>
          <sun_intensity>1</sun_intensity>
          <sun_size>1</sun_size>
          <type>1</type>
        </technique>
      </extra>
    </light>
  </library_lights>
  <library_images>
    <image id="WroughtIronHot_jpg" name="WroughtIronHot_jpg">
      <init_from>WroughtIronHot.jpg</init_from>
    </image>
  </library_images>
  <library_effects>
    <effect id="HotIron-effect">
      <profile_COMMON>
        <newparam sid="WroughtIronHot_jpg-surface">
          <surface type="2D">
            <init_from>WroughtIronHot_jpg</init_from>
          </surface>
        </newparam>
        <newparam sid="WroughtIronHot_jpg-sampler">
          <sampler2D>
            <source>WroughtIronHot_jpg-surface</source>
          </sampler2D>
        </newparam>
        <technique sid="common">
          <phong>
            <emission>
              <color sid="emission">0 0 0 1</color>
            </emission>
            <ambient>
              <color sid="ambient">0 0 0 1</color>
            </ambient>
            <diffuse>
              <texture texture="WroughtIronHot_jpg-sampler" texcoord="UVMap"/>
            </diffuse>
            <specular>
              <color sid="specular">0.131579 0.131579 0.131579 1</color>
            </specular>
            <shininess>
              <float sid="shininess">50</float>
            </shininess>
            <index_of_refraction>
              <float sid="index_of_refraction">1</float>
            </index_of_refraction>
          </phong>
        </technique>
      </profile_COMMON>
    </effect>
  </library_effects>
  <library_materials>
    <material id="HotIron-material" name="HotIron">
      <instance_effect url="#HotIron-effect"/>
    </material>
  </library_materials>
  <library_geometries>
    <geometry id="Cube_001-mesh" name="Cube.001">
      <mesh>
        <source id="Cube_001-mesh-positions">
          <float_array id="Cube_001-mesh-positions-array" count="24">-1 -1 -4.44138 -1 1 -4.44138 1 1 -4.44138 1 -1 -4.44138 -1 -1 1 -1 1 1 1 1 1 1 -1 1</float_array>
          <technique_common>
            <accessor source="#Cube_001-mesh-positions-array" count="8" stride="3">
              <param name="X" type="float"/>
              <param name="Y" type="float"/>
              <param name="Z" type="float"/>
            </accessor>
          </technique_common>
        </source>
        <source id="Cube_001-mesh-normals">
          <float_array id="Cube_001-mesh-normals-array" count="36">-1 0 0 0 1 0 1 0 0 0 -1 0 0 0 -1 0 0 1 -1 0 0 0 1 0 1 0 0 0 -1 0 0 0 -1 0 0 1</float_array>
          <technique_common>
            <accessor source="#Cube_001-mesh-normals-array" count="12" stride="3">
              <param name="X" type="float"/>
              <param name="Y" type="float"/>
              <param name="Z" type="float"/>
            </accessor>
          </technique_common>
        </source>
        <vertices id="Cube_001-mesh-vertices">
          <input semantic="POSITION" source="#Cube_001-mesh-positions"/>
        </vertices>
        <polylist count="12">
          <input semantic="VERTEX" source="#Cube_001-mesh-vertices" offset="0"/>
          <input semantic="NORMAL" source="#Cube_001-mesh-normals" offset="1"/>
          <vcount>3 3 3 3 3 3 3 3 3 3 3 3 </vcount>
          <p>4 0 5 0 1 0 5 1 6 1 2 1 6 2 7 2 3 2 7 3 4 3 0 3 0 4 1 4 2 4 7 5 6 5 5 5 0 6 4 6 1 6 1 7 5 7 2 7 2 8 6 8 3 8 3 9 7 9 0 9 3 10 0 10 2 10 4 11 7 11 5 11</p>
        </polylist>
      </mesh>
    </geometry>
    <geometry id="Cylinder-mesh" name="Cylinder">
      <mesh>
        <source id="Cylinder-mesh-positions">
          <float_array id="Cylinder-mesh-positions-array" count="48">0 1 -2.078385 0 1 1 0.7071068 0.7071068 -2.078385 0.7071068 0.7071068 1 1 0 -2.078385 1 0 1 0.7071068 -0.7071068 -2.078385 0.7071068 -0.7071068 1 0 -1 -2.078385 0 -1 1 -0.7071069 -0.7071067 -2.078385 -0.7071069 -0.7071067 1 -1 0 -2.078385 -1 0 1 -0.7071069 0.7071067 -2.078385 -0.7071069 0.7071067 1</float_array>
          <technique_common>
            <accessor source="#Cylinder-mesh-positions-array" count="16" stride="3">
              <param name="X" type="float"/>
              <param name="Y" type="float"/>
              <param name="Z" type="float"/>
            </accessor>
          </technique_common>
        </source>
        <source id="Cylinder-mesh-normals">
          <float_array id="Cylinder-mesh-normals-array" count="84">0.3826835 0.9238795 0 0.9238795 0.3826834 0 0.9238795 -0.3826835 0 0.3826834 -0.9238795 0 -0.3826835 -0.9238795 0 -0.9238796 -0.3826834 0 0 0 1 -0.3826835 0.9238795 0 -0.9238796 0.3826834 0 0 0 -1 0.3826835 0.9238795 0 0.9238795 0.3826834 0 0.9238795 -0.3826835 0 0.3826834 -0.9238795 0 -0.3826835 -0.9238795 0 -0.9238796 -0.3826834 0 0 0 1 0 0 1 0 0 1 0 0 1 0 0 1 -0.3826835 0.9238795 0 -0.9238796 0.3826834 0 0 0 -1 0 0 -1 0 0 -1 0 0 -1 0 0 -1</float_array>
          <technique_common>
            <accessor source="#Cylinder-mesh-normals-array" count="28" stride="3">
              <param name="X" type="float"/>
              <param name="Y" type="float"/>
              <param name="Z" type="float"/>
            </accessor>
          </technique_common>
        </source>
        <vertices id="Cylinder-mesh-vertices">
          <input semantic="POSITION" source="#Cylinder-mesh-positions"/>
        </vertices>
        <polylist count="28">
          <input semantic="VERTEX" source="#Cylinder-mesh-vertices" offset="0"/>
          <input semantic="NORMAL" source="#Cylinder-mesh-normals" offset="1"/>
          <vcount>3 3 3 3 3 3 3 3 3 3 3 3 3 3 3 3 3 3 3 3 3 3 3 3 3 3 3 3 </vcount>
          <p>0 0 1 0 3 0 2 1 3 1 5 1 4 2 5 2 7 2 6 3 7 3 9 3 8 4 9 4 11 4 10 5 11 5 13 5 7 6 5 6 1 6 14 7 15 7 1 7 12 8 13 8 15 8 6 9 10 9 14 9 2 10 0 10 3 10 4 11 2 11 5 11 6 12 4 12 7 12 8 13 6 13 9 13 10 14 8 14 11 14 12 15 10 15 13 15 5 16 3 16 1 16 1 17 15 17 13 17 9 18 7 18 11 18 7 19 13 19 11 19 13 20 7 20 1 20 0 21 14 21 1 21 14 22 12 22 15 22 14 23 0 23 2 23 2 24 4 24 6 24 6 25 8 25 10 25 10 26 12 26 14 26 14 27 2 27 6 27</p>
        </polylist>
      </mesh>
    </geometry>
    <geometry id="Cube_003-mesh" name="Cube.003">
      <mesh>
        <source id="Cube_003-mesh-positions">
          <float_array id="Cube_003-mesh-positions-array" count="705">-0.1589769 0.04864096 0.04245752 -0.1051244 0.04864096 0.09109866 -0.1589769 0.04212427 0.01813703 -0.1051244 0.04212433 0.01813715 -0.1589769 0.02432048 3.3322e-4 -0.1051244 0.02432048 3.33309e-4 -0.1589769 0.02432042 0.08458191 -0.1051244 0.02432042 0.09109866 -0.1589769 0.04212427 0.06677806 -0.1051244 0.04212427 0.09109866 -0.3320742 0.002584934 0.08851337 -0.3320742 0.002238631 0.08722084 -0.3320742 0.001292467 0.08627468 -0.3320742 0.001292467 0.09075212 -0.3320742 0.002238631 0.0898059 -0.2974548 0.01021575 0.08437585 -0.2282158 0.02617001 0.07598918 -0.1935964 0.03414714 0.07138365 -0.1935964 0.03942978 0.0516687 -0.2282158 0.03021854 0.05844843 -0.2628353 0.02100735 0.06354594 -0.2974548 0.01179617 0.07422375 -0.2974548 0.005898058 0.08951807 -0.2628353 0.01050364 0.08828401 -0.2282158 0.01510924 0.08704996 -0.1935964 0.01971483 0.0858159 -0.2974548 0.005898058 0.06231296 -0.2628353 0.01050364 0.04313248 -0.2282158 0.01510924 0.02634263 -0.1935963 0.01971483 0.01074808 -0.2974548 0.01021575 0.06701219 -0.2628353 0.01819288 0.05132079 -0.2282158 0.02617001 0.03842312 -0.1935963 0.03414714 0.02666229 -0.1553599 0.04864096 0.09109854 -0.1553599 0.04864096 0.01813703 -0.1553599 0.02432048 3.33226e-4 -0.15536 0.02432042 0.09109854 -0.1553599 0.04212427 0.09109854 -0.2628353 0.018193 0.08000993 -0.1589769 -0.04864096 0.04245752 -0.1051244 -0.04864096 0.09109866 -0.1589769 -0.04212427 0.01813703 -0.1051244 -0.04212433 0.01813715 -0.1589769 -0.02432048 3.3322e-4 -0.1051244 -0.02432048 3.33309e-4 -0.1589769 -0.02432042 0.08458191 -0.1051244 -0.02432042 0.09109866 -0.1589769 -0.04212427 0.06677806 -0.1051244 -0.04212427 0.09109866 -0.3320742 -0.002584934 0.08851337 -0.3320742 -0.002238631 0.08722084 -0.3320742 -0.001292467 0.08627468 -0.3320742 -0.001292467 0.09075212 -0.3320742 -0.002238631 0.0898059 -0.2974548 -0.01021575 0.08437585 -0.2282158 -0.02617001 0.07598918 -0.1935964 -0.03414714 0.07138365 -0.1935964 -0.03942978 0.0516687 -0.2282158 -0.03021854 0.05844843 -0.2628353 -0.02100735 0.06354594 -0.2974548 -0.01179617 0.07422375 -0.2974548 -0.005898058 0.08951807 -0.2628353 -0.01050364 0.08828401 -0.2282158 -0.01510924 0.08704996 -0.1935964 -0.01971483 0.0858159 -0.2974548 -0.005898058 0.06231296 -0.2628353 -0.01050364 0.04313248 -0.2282158 -0.01510924 0.02634263 -0.1935963 -0.01971483 0.01074808 -0.2974548 -0.01021575 0.06701219 -0.2628353 -0.01819288 0.05132079 -0.2282158 -0.02617001 0.03842312 -0.1935963 -0.03414714 0.02666229 -0.1553599 -0.04864096 0.09109854 -0.1553599 -0.04864096 0.01813703 -0.1553599 -0.02432048 3.33226e-4 -0.15536 -0.02432042 0.09109854 -0.1553599 -0.04212427 0.09109854 -0.1589769 0 -0.006183385 -0.1051243 0 -0.006183326 -0.1589769 0 0.09109854 -0.1051244 0 0.09109866 -0.3320742 0 0.08592832 -0.3320742 0 0.09109842 -0.2974548 0 0.09109848 -0.2628353 0 0.09109848 -0.2282158 0 0.09109848 -0.1935964 0 0.09109854 -0.2628353 -0.018193 0.08000993 -0.2974548 0 0.0607326 -0.2628353 0 0.04031807 -0.2282158 0 0.0222941 -0.1935963 0 0.005465507 -0.1553599 0 -0.006183385 -0.15536 0 0.09109854 -0.09328436 -0.06489098 -0.09328436 0.09328436 -0.06627374 -0.09276485 -0.1153202 -0.06503236 0.09328436 0.2344514 -0.06503236 0.09328436 -0.1153202 -0.06503236 0.08124089 0.2344514 -0.06503236 0.08124089 0.09328436 -0.06092125 -0.04458439 -0.09328436 -0.06092125 -0.04458439 0.137006 -0.06503236 0.0409553 -0.1153202 -0.06195783 -7.60355e-7 0.001370429 -0.06503236 0.09328436 0.001370429 -0.05949628 -0.09328436 0.001370429 -0.06503236 0.08124089 0.001370429 -0.06092125 -0.04458439 0.001370429 -0.06195783 -7.60355e-7 -0.1705564 -0.1288338 -0.1855594 0.1698033 -0.1288338 -0.1855594 0.002123594 -0.07439374 -0.1855594 -0.05543637 -0.09245049 -0.1855594 -0.1129964 -0.1288338 -0.1855594 0.05801683 -0.09251898 -0.1855594 0.1139101 -0.1288338 -0.1855594 0.09977048 -0.08148163 -0.1352328 -0.1705564 -0.1288338 -0.2179245 0.1698033 -0.1288338 -0.2179245 0.002123594 -0.07439374 -0.2179245 -0.05543637 -0.08679622 -0.2179245 -0.1129964 -0.1288338 -0.2179245 0.05801683 -0.08679622 -0.2179245 0.1139101 -0.1288338 -0.2179245 -0.1113438 -0.08612507 -0.1559488 0.1128543 -0.09119105 -0.154742 0.002402067 -0.06436038 -0.1211907 -0.03551316 -0.07398283 -0.1394321 -0.07672482 -0.08706611 -0.1554859 0.03921949 -0.07429462 -0.1394321 0.07933318 -0.09002757 -0.1548375 -0.09529316 -0.06995958 -0.1158221 -0.09972089 -0.07558178 -0.1343634 0.0928843 -0.07558441 -0.1167689 0.09328436 -0.06092125 -0.06893438 -0.09328436 -0.061149 -0.06893438 0.001370429 -0.06092125 -0.06893438 0.1097592 -0.06092125 0.01355999 -0.1053224 -0.06092125 -0.01505273 0.001370429 -0.06092125 -0.02031046 0.09375143 -0.06092125 -0.01810228 -0.09708958 -0.06092125 -0.02608281 0.001370429 -0.06092125 -0.03244745 0.1761653 -0.06503236 0.06607908 -0.1153202 -0.06503236 0.03639256 0.001370429 -0.06503236 0.03639256 -0.09328436 0.06489098 -0.09328436 0.09328436 0.06627374 -0.09276485 -0.1153202 0.06503236 0.09328436 0.2344514 0.06503236 0.09328436 -0.1153202 0 0.09328436 -0.09328436 0 -0.09328436 0.2344514 0 0.09328436 0.09328436 0 -0.09328436 -0.1153202 0.06503236 0.08124089 0.2344514 0.06503236 0.08124089 0.2344514 0 0.08124089 0.09328436 0.06092125 -0.04458439 -0.09328436 0 -0.04458439 0.09328436 0 -0.04458439 -0.09328436 0.06092125 -0.04458439 0.137006 0.06503236 0.0409553 -0.1153202 0 -0.008455693 0.137006 0 0.0409553 -0.1153202 0.06195783 -7.60355e-7 0.001370429 0.06503236 0.09328436 0.001370429 0.05949628 -0.09328436 0.001370429 0 -0.09328436 0.001370429 0 0.09328436 0.001370429 0.06503236 0.08124089 0.001370429 0.06092125 -0.04458439 0.001370429 0.06195783 -7.60355e-7 -0.1705564 0.1288338 -0.1855594 0.1698033 0.1288338 -0.1855594 0.002123594 0.07439374 -0.1855594 -0.05543637 0.09245049 -0.1855594 -0.1129964 0.1288338 -0.1855594 0.05801683 0.09251898 -0.1855594 0.1139101 0.1288338 -0.1855594 0.09977048 0.08148163 -0.1352328 -0.1705564 0.1288338 -0.2179245 0.1698033 0.1288338 -0.2179245 0.002123594 0.07439374 -0.2179245 -0.05543637 0.08679622 -0.2179245 -0.1129964 0.1288338 -0.2179245 0.05801683 0.08679622 -0.2179245 0.1139101 0.1288338 -0.2179245 0.0928843 0 -0.1180747 0.1128543 0 -0.1559488 -0.1113438 0 -0.1559488 0.1139101 0 -0.2179245 -0.1113438 0.08612507 -0.1559488 0.1128543 0.09119105 -0.154742 0.05801683 0 -0.2179245 -0.1129964 0 -0.2179245 0.002402067 0.06436038 -0.1211907 -0.05543637 0 -0.2179245 -0.03551316 0.07398283 -0.1394321 -0.07672482 0.08706611 -0.1554859 0.03921949 0.07429462 -0.1394321 0.07933318 0.09002757 -0.1548375 0.002123594 0 -0.2179245 0.1502196 0 -0.2179245 -0.1600202 0 -0.2179245 0.09977048 0 -0.1366674 -0.09529316 0 -0.1158221 -0.09529316 0.06995958 -0.1158221 -0.09972089 0.07558178 -0.1343634 -0.09972089 0 -0.1343634 0.1502196 0 -0.1855594 -0.1600202 0 -0.1855594 0.0928843 0.07558441 -0.1167689 0.09328436 0.06092125 -0.06893438 -0.09328436 0 -0.06893438 0.09328436 0 -0.06893438 -0.09328436 0.061149 -0.06893438 0.001370429 0.06092125 -0.06893438 0.1097592 0.06092125 0.01355999 -0.1053224 0 -0.01505273 0.1097592 0 0.01355999 -0.1053224 0.06092125 -0.01505273 0.001370429 0.06092125 -0.02031046 0.09375143 0.06092125 -0.01810228 -0.09708958 0 -0.02608281 0.09375143 0 -0.01810228 -0.09708958 0.06092125 -0.02608281 0.001370429 0.06092125 -0.03244745 0.1761653 0.06503236 0.06607908 0.1761653 0 0.06607908 -0.1153202 0.06503236 0.03639256 0.001370429 0.06503236 0.03639256 -0.1153202 0 0.03639256 -0.1153202 0 0.08124089</float_array>
          <technique_common>
            <accessor source="#Cube_003-mesh-positions-array" count="235" stride="3">
              <param name="X" type="float"/>
              <param name="Y" type="float"/>
              <param name="Z" type="float"/>
            </accessor>
          </technique_common>
        </source>
        <source id="Cube_003-mesh-normals">
          <float_array id="Cube_003-mesh-normals-array" count="1344">0.1281424 0.9878234 -0.08822876 9.5287e-7 0.707107 -0.7071065 1.51139e-6 0.2588189 -0.9659259 -1.77975e-6 0 1 -1.33482e-6 0 1 -1.48313e-6 0 1 -0.1955618 0.96902 0.1508499 -0.07538944 0.7636535 0.6412097 -1.01968e-6 0.258821 0.9659253 -0.5751045 0.2117329 -0.7902051 -0.4927437 0.6407645 -0.5887482 -0.3303844 0.9219674 -0.2020452 -0.1848961 0.9492713 0.254357 -0.202062 0.9460014 0.2534807 -0.06870174 0.7054356 0.7054364 -0.0687015 0.7054357 0.7054366 -9.66191e-7 0.2588192 0.9659258 -4.0674e-7 0.2588198 0.9659256 -7.79288e-7 0.2588193 0.9659258 -8.50405e-7 0.2588198 0.9659257 -0.3091036 0.246144 -0.918623 -0.4250193 0.2342785 -0.874341 -0.4492776 0.2312273 -0.8629505 -0.4949344 0.2248967 -0.8393221 -0.2933024 0.6760081 -0.676008 -0.3723124 0.6874989 -0.6234811 -0.3916283 0.6786363 -0.6213534 -0.4299709 0.6581457 -0.6180365 -0.2752484 0.928615 -0.2488219 -0.2835303 0.9382563 -0.1982062 -0.2870667 0.9389146 -0.1898213 -0.3101493 0.9264534 -0.2132872 0 1 0 -0.7287601 0.4044862 -0.5525394 1.59332e-6 0.258819 -0.9659259 -4.1198e-6 6.12701e-7 1 -0.9891212 4.3553e-6 0.1471027 -0.874351 3.25626e-7 0.4852941 -0.2205699 0.9503852 0.2193557 -0.2057938 0.9646035 0.1648911 -0.08054602 0.7048091 0.7048096 -0.08265686 0.7300117 0.678418 0.1281424 -0.9878234 -0.08822876 9.5287e-7 -0.707107 -0.7071065 1.57585e-6 -0.258819 -0.9659259 -1.77975e-6 0 1 -1.33482e-6 0 1 -1.48313e-6 0 1 -0.1790356 -0.950319 0.2546374 -0.06870126 -0.7054332 0.705439 -6.23639e-7 -0.2588309 0.9659227 -0.5751044 -0.2117441 -0.790202 -0.4989265 -0.6128104 -0.6128098 -0.3419073 -0.9077134 -0.2432198 -0.184896 -0.9492713 0.2543569 -0.1910185 -0.9564412 0.2207534 -0.0687018 -0.7054356 0.7054365 -0.06870138 -0.7054358 0.7054364 -6.23641e-7 -0.2588198 0.9659257 -6.23641e-7 -0.2588193 0.9659258 -6.23641e-7 -0.2588198 0.9659257 -6.23641e-7 -0.258821 0.9659253 -0.3091035 -0.246144 -0.9186229 -0.4250196 -0.2342792 -0.8743406 -0.4492778 -0.2312279 -0.8629503 -0.494934 -0.2248944 -0.8393228 -0.3186004 -0.7021522 -0.6367699 -0.3708764 -0.6849489 -0.6271331 -0.3895816 -0.671376 -0.6304605 -0.4300435 -0.6647949 -0.6108277 -0.3007225 -0.9331181 -0.1971207 -0.2869967 -0.9389351 -0.1898255 -0.2805795 -0.9353633 -0.2153384 -0.3098834 -0.9287349 -0.2035283 -0.8670514 -0.4812421 -0.1289495 1.16639e-6 -0.707107 -0.7071066 1.61664e-6 -0.258819 -0.9659258 -0.8670513 -0.1289486 0.4812424 -0.9611182 -0.2667286 0.07146924 -0.9785898 -0.1455371 0.1455365 -0.2032254 -0.9651324 0.1649815 -0.2039088 -0.9673389 0.1505883 -0.07298946 -0.7305644 0.6789317 -0.07871586 -0.7634566 0.6410443 1 0 0 0.05624336 -0.9868325 0.1516517 -1 0 0 0 0 -1 0 0 1 1 0 0 0 -1 0 -1 0 0 0.9998445 0 -0.01763552 0 -1 0 -0.9794977 0 -0.2014552 0.5399955 0 -0.8416679 0 -0.9964506 -0.08418101 -1 0 0 0 -0.9982919 -0.0584222 0 0 -1 0 0 1 0 -1 0 0 -1 0 0.002831816 -0.9964465 -0.08418065 0.02645277 0.5688788 -0.8219957 -0.1743406 0.9730514 -0.1509185 -0.1820324 0.9374606 -0.2967019 0.1865342 0.9706034 -0.1520984 0.2648105 0.9288491 -0.259065 0.9375786 0.006122052 0.3477196 0 0 1 0 0 1 0.9966726 -0.08150899 0 0 0 1 0 0 1 -0.6210532 -0.01037091 -0.7836998 0 0 1 0.5951634 0.7913296 0.1399218 0.2166268 0.9762545 0 -0.5840001 0.7996424 0.1396999 -0.2106362 0.9775645 0 0 1 0 0 1 0 -0.06757551 0.9746747 -0.213173 -0.07253128 0.9364488 -0.343224 -0.0628128 0.846521 -0.5286367 -0.1321561 -0.9233999 0.3603714 0.1313195 0.9575937 -0.2564554 0.1361752 0.8482827 -0.5117351 0.9960514 0 -0.08877855 0.9726502 0 -0.2322744 0.02419805 0.6336895 -0.7732089 0.8804712 0 -0.4740998 0.8321847 0.007337152 0.55445 0.468927 -0.03834933 -0.882404 -0.9886433 -0.1502813 0 0.9998698 -1.26489e-4 -0.01613616 0 0 1 1 0 0 0.002405941 -0.9999533 0.009352564 -1 0 0 0 -1 0 0.7090254 0 -0.7051829 0 -0.9976371 -0.06870347 -0.5507535 0 -0.8346679 0.01592618 -0.9985734 -0.05096542 0.8924281 0 -0.4511897 0 -1 0 -0.8013837 0 -0.5981508 0 -1 0 0.2517493 0 -0.9677925 0 -1 0 -1 0 0 0 -1 0 1 0 0 0.05624336 0.9868325 0.1516517 -1 0 0 0.005073845 0.007838428 -0.9999565 0 0 1 1 0 0 0 1 0 -1 0 0 0.9998446 0 -0.01763552 0 1 0 -0.9794977 0 -0.2014552 0.5399955 0 -0.8416679 0 0.9964506 -0.08418101 -1 0 0 -0.07298815 0.9730897 0.2185615 0 0 -1 0 0 1 0 1 0 0 1 0 0.002831816 0.9964465 -0.08418065 0.02645277 -0.5688788 -0.8219957 -0.1743406 -0.9730514 -0.1509185 -0.1820324 -0.9374606 -0.2967019 0.2992509 -0.9228072 -0.2426431 0.4975718 -0.7658272 -0.4073461 0.9377317 -0.005999922 0.3473085 0 0 1 0 0 1 0.9966726 0.08150899 0 0 0 1 0 0 1 -0.6210532 0.01037091 -0.7836998 0 0 1 0.5951634 -0.7913296 0.1399218 0.2166268 -0.9762545 0 -0.5343039 -0.8452925 0 -0.295247 -0.9411662 0.1644246 0 -1 0 0 -1 0 -0.06757551 -0.9746747 -0.213173 -0.04596954 -0.9589555 -0.2798054 -0.0628128 -0.846521 -0.5286367 -0.1321561 0.9233999 0.3603714 0.131456 -0.9574868 -0.2567847 0.1361752 -0.8482827 -0.5117351 0.9960514 0 -0.08877855 0.9726502 0 -0.2322744 0 -0.6334687 -0.7737684 0.8804712 0 -0.4740998 0.8274355 -0.009885489 0.5614738 0.51971 0 -0.8543429 -0.9886433 0.1502813 0 0.999863 2.85974e-4 -0.01655369 0 0 1 1 0 0 0.002405941 0.9999533 0.009352564 -1 0 0 0 1 0 0.7090254 0 -0.7051829 -0.002511799 0.9986969 -0.05097174 -0.5507535 0 -0.8346679 0.01592618 0.9985734 -0.05096542 0.8924281 0 -0.4511897 0 1 0 -0.8013837 0 -0.5981508 0 1 0 0.2517493 0 -0.9677925 0 1 0 -1 0 0 0 1 0 -2.22469e-7 1 0 0.07640278 0.5889642 -0.8045395 1.57616e-6 0.258819 -0.9659259 -1.48313e-6 6.12701e-7 1 -1.48313e-6 -1.1433e-6 1 -1.77975e-6 -8.36961e-7 1 -0.1790356 0.9503189 0.2546377 -0.06870126 0.705433 0.7054391 -6.23639e-7 0.2588309 0.9659227 -0.5751045 0.2117441 -0.7902021 -0.4989263 0.6128104 -0.6128098 -0.3419075 0.9077132 -0.2432201 -0.184896 0.9492713 0.2543569 -0.1910185 0.9564412 0.2207535 -0.0687018 0.7054356 0.7054365 -0.06870138 0.7054359 0.7054364 -6.23641e-7 0.2588198 0.9659257 -6.23641e-7 0.2588193 0.9659258 -6.23641e-7 0.2588198 0.9659257 -6.23641e-7 0.258821 0.9659253 -0.3091035 0.2461439 -0.918623 -0.4250196 0.2342792 -0.8743407 -0.4492778 0.2312279 -0.8629503 -0.494934 0.2248945 -0.8393228 -0.3186004 0.7021522 -0.6367699 -0.3708764 0.6849489 -0.6271331 -0.3895816 0.671376 -0.6304605 -0.4300434 0.6647948 -0.6108278 -0.3007225 0.9331181 -0.1971208 -0.2869968 0.9389351 -0.1898255 -0.2805795 0.9353632 -0.2153384 -0.3098834 0.9287349 -0.2035283 -0.8670514 0.481242 -0.1289495 1.27831e-6 0.707107 -0.7071066 1.75768e-6 0.258819 -0.9659258 -0.8670513 0.1289486 0.4812424 -0.9611182 0.2667286 0.07146924 -0.9785898 0.1455371 0.1455365 -0.2032254 0.9651324 0.1649815 -0.2039088 0.9673389 0.1505882 -0.07298946 0.7305644 0.6789317 -0.07871586 0.7634566 0.6410443 -2.22469e-7 -1 0 0.07640278 -0.5889642 -0.8045395 1.51139e-6 -0.2588189 -0.9659259 -1.48313e-6 -6.12701e-7 1 -1.48313e-6 1.1433e-6 1 -1.77975e-6 8.36961e-7 1 -0.1955618 -0.96902 0.1508499 -0.07538944 -0.7636535 0.6412097 -1.0186e-6 -0.258821 0.9659253 -0.5751045 -0.2117329 -0.7902051 -0.4927437 -0.6407645 -0.5887482 -0.3303844 -0.9219674 -0.2020452 -0.1848961 -0.9492713 0.2543569 -0.202062 -0.9460014 0.2534807 -0.0687018 -0.7054356 0.7054365 -0.06870144 -0.7054356 0.7054365 -9.68278e-7 -0.2588192 0.9659258 -4.11889e-7 -0.2588198 0.9659256 -7.79288e-7 -0.2588193 0.9659258 -8.50405e-7 -0.2588198 0.9659257 -0.3091036 -0.246144 -0.918623 -0.4250193 -0.2342785 -0.874341 -0.4492776 -0.2312273 -0.8629505 -0.4949344 -0.2248967 -0.8393221 -0.2933024 -0.6760081 -0.676008 -0.3723124 -0.6874989 -0.6234811 -0.3916283 -0.6786363 -0.6213533 -0.4299709 -0.6581457 -0.6180365 -0.2752484 -0.928615 -0.248822 -0.2835303 -0.9382563 -0.1982062 -0.2870666 -0.9389145 -0.1898213 -0.3101493 -0.9264534 -0.2132872 0 -1 0 -0.7287601 -0.4044862 -0.5525394 1.59332e-6 -0.258819 -0.9659259 -4.1198e-6 -6.12701e-7 1 -0.9891212 -4.35925e-6 0.1471027 -0.874351 -3.28995e-7 0.4852941 -0.2205699 -0.9503852 0.2193557 -0.2057938 -0.9646035 0.1648911 -0.08054602 -0.7048091 0.7048096 -0.08265686 -0.7300117 0.678418 1 0 0 0.002401947 -0.9982891 -0.05842202 -1 0 0 0.005073845 -0.007838428 -0.9999565 0 0 1 1 0 0 0 -1 0 -1 0 0 0.9998446 0 -0.01763552 0 -1 0 -0.9794977 0 -0.2014552 0.5399955 0 -0.8416679 0 -0.9964506 -0.08418101 -1 0 0 -0.07298815 -0.9730897 0.2185615 0 0 -1 0 0 1 0 -1 0 0 -1 -1.40345e-7 0 -1 0 0 0.5697698 -0.8218044 -0.2901967 0.9250676 -0.2450219 -0.4721812 0.7470116 -0.4679942 0.2992509 0.9228072 -0.2426431 0.4975718 0.7658272 -0.407346 0.9377317 0.005999922 0.3473085 0 0 1 0 0 1 0.9966726 -0.08150899 0 0 0 1 0 0 1 -0.5139183 -0.07811945 -0.8542748 0 0 1 0.5448222 0.8385516 0 0.3041965 0.9380581 0.1658661 -0.5343039 0.8452925 0 -0.295247 0.9411662 0.1644246 0 1 0 0 1 0 -0.05603897 0.9832465 -0.173453 -0.04596954 0.9589555 -0.2798054 0.03027629 0.8916042 -0.4518024 -0.07343244 -0.982943 0.1686138 0.131456 0.9574868 -0.2567847 0.03257238 0.9033219 -0.4277248 0.9960514 0 -0.08877855 0.9726503 0 -0.2322744 0 0.6334687 -0.7737684 0.8804712 0 -0.4740998 0.8274355 0.009885489 0.5614738 0.51971 0 -0.8543429 -0.9886433 -0.1502813 0 0.999863 -2.85974e-4 -0.01655369 0 0 1 1 0 0 0 -1 0 -1 0 0 0 -1 0 0.7090254 0 -0.7051829 -0.002511799 -0.9986969 -0.05097174 -0.8281835 -0.07577961 -0.5553104 0.03182542 -0.9832955 -0.1792123 0.8924281 0 -0.4511897 0 -1 0 -0.8013837 0 -0.5981508 0 -1 0 0.2517493 0 -0.9677925 0 -1 0 -1 0 0 0 -1 0 1 0 0 0.002401947 0.9982891 -0.05842202 -1 0 0 0 0 -1 0 0 1 1 0 0 0 1 0 -1 0 0 0.9998445 0 -0.01763552 0 1 0 -0.9794977 0 -0.2014552 0.5399955 0 -0.8416679 0 0.9964506 -0.08418101 -1 0 0 0 0.9982919 -0.0584222 0 0 -1 0 0 1 0 1 0 0 1 -1.40345e-7 0 1 0 0 -0.5697697 -0.8218044 -0.2901968 -0.9250676 -0.2450219 -0.4721812 -0.7470116 -0.4679943 0.1865342 -0.9706034 -0.1520984 0.2648105 -0.9288491 -0.2590651 0.9375786 -0.006122052 0.3477195 0 0 1 0 0 1 0.9966726 0.08150899 0 0 0 1 0 0 1 -0.5139183 0.07811951 -0.8542748 0 0 1 0.5448222 -0.8385516 0 0.3041965 -0.9380581 0.1658661 -0.584 -0.7996425 0.1396999 -0.2106362 -0.9775645 0 0 -1 0 0 -1 0 -0.05603897 -0.9832465 -0.173453 -0.07253128 -0.9364488 -0.343224 0.03027629 -0.8916042 -0.4518023 -0.07343244 0.982943 0.1686138 0.1313195 -0.9575938 -0.2564555 0.03257238 -0.9033219 -0.4277248 0.9960514 0 -0.08877855 0.9726504 0 -0.2322744 0.02419811 -0.6336895 -0.7732089 0.8804712 0 -0.4740998 0.8321847 -0.007337152 0.55445 0.468927 0.03834933 -0.882404 -0.9886433 0.1502813 0 0.9998698 1.26489e-4 -0.01613616 0 0 1 1 0 0 0 1 0 -1 0 0 0 1 0 0.7090254 0 -0.7051829 0 0.9976371 -0.06870347 -0.8281834 0.07577961 -0.5553104 0.03182542 0.9832955 -0.1792123 0.8924281 0 -0.4511897 0 1 0 -0.8013837 0 -0.5981508 0 1 0 0.2517493 0 -0.9677925 0 1 0 -1 0 0 0 1 0</float_array>
          <technique_common>
            <accessor source="#Cube_003-mesh-normals-array" count="448" stride="3">
              <param name="X" type="float"/>
              <param name="Y" type="float"/>
              <param name="Z" type="float"/>
            </accessor>
          </technique_common>
        </source>
        <source id="Cube_003-mesh-map-0">
          <float_array id="Cube_003-mesh-map-0-array" count="2688">0.342431 0.6918988 0.3452955 0.7770665 0.2937815 0.7704971 0.3452955 0.7770665 0.3435303 0.8049172 0.2880883 0.8015156 0.2880883 0.8015156 0.3435303 0.8049172 0.3416715 0.8328499 0.6809735 0.5179225 0.6811217 0.5440614 0.6261324 0.5446202 0.6813868 0.5633656 0.6814956 0.5704682 0.6267441 0.5713068 0.6811217 0.5440614 0.6813868 0.5633656 0.6265494 0.564202 0.4218347 0.4543197 0.4206863 0.4653863 0.3841167 0.4447689 0.4220097 0.4470289 0.4218347 0.4543197 0.3842329 0.4433156 0.4220081 0.4403948 0.4220097 0.4470289 0.3842587 0.4418559 0.4162983 0.4795334 0.4119989 0.4846235 0.3822118 0.448611 0.4190832 0.4732056 0.4162983 0.4795334 0.3831861 0.447516 0.4206863 0.4653863 0.4190832 0.4732056 0.3838087 0.4461941 0.5722975 0.4959918 0.5694535 0.5236562 0.532303 0.5072894 0.5344703 0.4850941 0.532303 0.5072894 0.4949287 0.4939267 0.5730563 0.4681987 0.5722975 0.4959918 0.5344703 0.4850941 0.5350201 0.4627542 0.5344703 0.4850941 0.4968823 0.4744485 0.5731424 0.4403961 0.5730563 0.4681987 0.5350201 0.4627542 0.5350596 0.4403955 0.5350201 0.4627542 0.4972414 0.4574311 0.4972537 0.4403949 0.4972414 0.4574311 0.4596045 0.4522065 0.4596065 0.4403947 0.4596045 0.4522065 0.4220097 0.4470289 0.5514543 0.5760759 0.53618 0.5990111 0.50485 0.5741816 0.517383 0.5558616 0.50485 0.5741816 0.4733598 0.5459709 0.4834546 0.5321213 0.4733598 0.5459709 0.4423658 0.5163728 0.4496287 0.5069804 0.4423658 0.5163728 0.4119989 0.4846235 0.5627084 0.5506415 0.5514543 0.5760759 0.517383 0.5558616 0.52625 0.5344037 0.517383 0.5558616 0.4834546 0.5321213 0.4903021 0.5156546 0.4834546 0.5321213 0.4496287 0.5069804 0.4544742 0.4957636 0.4496287 0.5069804 0.4162983 0.4795334 0.5694535 0.5236562 0.5627084 0.5506415 0.52625 0.5344037 0.532303 0.5072894 0.52625 0.5344037 0.4903021 0.5156546 0.4949287 0.4939267 0.4903021 0.5156546 0.4544742 0.4957636 0.4573645 0.4824702 0.4544742 0.4957636 0.4190832 0.4732056 0.2864199 0.7490064 0.2820028 0.6967771 0.2937815 0.7704971 0.2873947 0.7735915 0.2937815 0.7704971 0.2880883 0.8015156 0.2841338 0.8011286 0.2880883 0.8015156 0.2859408 0.8291411 0.6225107 0.5179224 0.6264222 0.5179225 0.6261324 0.5446202 0.5997268 0.5652334 0.6265494 0.564202 0.6267441 0.5713068 0.6179998 0.5449466 0.6261324 0.5446202 0.6265494 0.564202 0.4968823 0.4744485 0.4949287 0.4939267 0.4573645 0.4824702 0.4593383 0.4644626 0.4573645 0.4824702 0.4206863 0.4653863 0.4972414 0.4574311 0.4968823 0.4744485 0.4593383 0.4644626 0.4596045 0.4522065 0.4593383 0.4644626 0.4218347 0.4543197 0.2937824 0.6127378 0.3452962 0.6061677 0.342433 0.6913355 0.2880887 0.5817195 0.3435307 0.5783171 0.3452962 0.6061677 0.2880887 0.5817195 0.2859408 0.554094 0.3416715 0.5503845 0.6261323 0.4912247 0.6811218 0.4917834 0.6809735 0.5179225 0.6267437 0.464538 0.6814957 0.4653765 0.681387 0.4724791 0.6265491 0.4716428 0.681387 0.4724791 0.6811218 0.4917834 0.4218343 0.4264696 0.3842326 0.4374758 0.3841162 0.4360224 0.4220095 0.4337605 0.3842585 0.4389357 0.3842326 0.4374758 0.4220081 0.4403948 0.3842585 0.4403959 0.3842585 0.4389357 0.4162971 0.4012551 0.3831853 0.4332752 0.3822109 0.4321803 0.4190822 0.4075832 0.3838081 0.4345972 0.3831853 0.4332752 0.4206856 0.4154028 0.3841162 0.4360224 0.3838081 0.4345972 0.5722993 0.3848 0.5344716 0.3956965 0.532305 0.3735011 0.5344716 0.3956965 0.4968831 0.4063414 0.4949299 0.3868629 0.5730572 0.4125933 0.5350208 0.4180366 0.5344716 0.3956965 0.5350208 0.4180366 0.4972417 0.4233588 0.4968831 0.4063414 0.5731424 0.4403961 0.5350596 0.4403955 0.5350208 0.4180366 0.5350596 0.4403955 0.4972537 0.4403949 0.4972417 0.4233588 0.4972537 0.4403949 0.4596065 0.4403947 0.4596046 0.4285829 0.4596065 0.4403947 0.4220081 0.4403948 0.4220095 0.4337605 0.5514587 0.3047146 0.5173863 0.324928 0.5048537 0.3066074 0.5173863 0.324928 0.4834568 0.3486675 0.4733624 0.3348174 0.4834568 0.3486675 0.4496298 0.3738077 0.442367 0.3644148 0.4496298 0.3738077 0.4162971 0.4012551 0.4119975 0.3961649 0.562712 0.3301495 0.5262528 0.3463864 0.5173863 0.324928 0.5262528 0.3463864 0.490304 0.3651346 0.4834568 0.3486675 0.490304 0.3651346 0.454475 0.3850249 0.4496298 0.3738077 0.454475 0.3850249 0.4190822 0.4075832 0.4162971 0.4012551 0.5694564 0.3571354 0.532305 0.3735011 0.5262528 0.3463864 0.532305 0.3735011 0.4949299 0.3868629 0.490304 0.3651346 0.4949299 0.3868629 0.4573651 0.3983187 0.454475 0.3850249 0.4573651 0.3983187 0.4206856 0.4154028 0.4190822 0.4075832 0.2864211 0.6342284 0.2873954 0.6096435 0.2937824 0.6127378 0.2873954 0.6096435 0.2841342 0.5821066 0.2880887 0.5817195 0.2841342 0.5821066 0.2820028 0.5543991 0.2859408 0.554094 0.6225107 0.5179224 0.6179996 0.4908984 0.6261323 0.4912247 0.5997263 0.4706117 0.5737057 0.4619943 0.6267437 0.464538 0.6179996 0.4908984 0.5997263 0.4706117 0.6265491 0.4716428 0.4968831 0.4063414 0.4593386 0.4163266 0.4573651 0.3983187 0.4593386 0.4163266 0.4218343 0.4264696 0.4206856 0.4154028 0.4972417 0.4233588 0.4596046 0.4285829 0.4593386 0.4163266 0.4596046 0.4285829 0.4220095 0.4337605 0.4218343 0.4264696 0.8610383 0.3083274 0.8552025 0.2823453 0.9274603 0.2817786 0.02425098 0.02714103 0.02406698 2.81659e-4 0.1274348 4.66994e-4 0.892429 0.02727478 0.8257519 0.02684682 0.8258209 2.81659e-4 0.007673263 0.8336721 0.07254165 0.8336719 0.07254165 0.9338851 0.127537 0.2041425 0.1275415 0.275051 3.29451e-4 0.2750511 0.9274604 0.5740844 0.8565561 0.5740844 0.8565561 0.5609535 0.127537 0.2041425 3.24482e-4 0.2041689 3.21589e-4 0.1910402 0.8927502 0.1093881 0.8964636 0.1493226 0.8254323 0.1497931 0.9274604 0.3637537 0.8610384 0.3637539 0.8610384 0.334876 0.127497 0.06685167 0.02013707 0.07386499 0.02427166 0.05368995 0.8918031 0.07447463 0.8256298 0.07378649 0.825683 0.05333304 0.9274604 0.4952896 0.8565561 0.4952896 0.8565561 0.4445629 0.1275317 0.1421051 3.04257e-4 0.1421562 2.81659e-4 0.1023505 0.8966611 0.1985983 0.8966763 0.211821 0.8252708 0.2118961 0.2276793 0.02694356 0.1274588 0.02706193 0.1274348 4.66994e-4 0.07254159 0.7304704 0.07254165 0.8336719 0.007673263 0.8336721 0.3816461 0.2041602 0.3816431 0.2750504 0.1275415 0.275051 0.3816461 0.2041602 0.127537 0.2041425 0.127536 0.1910121 0.127497 0.06685167 0.1274843 0.05361562 0.2277117 0.05349236 0.1275317 0.1421051 0.127529 0.1022686 0.2754155 0.1471008 0.4491717 0.8244323 0.4874866 0.8299562 0.440617 0.8751101 0.5366172 0.8101298 0.5805466 0.7891801 0.5797793 0.8628883 0.4874866 0.8299562 0.5366172 0.8101298 0.5108678 0.8660234 0.5797793 0.8628883 0.5805466 0.7891801 0.6229439 0.8108165 0.6466728 0.8665888 0.6229439 0.8108165 0.6709728 0.8312466 0.05848467 0.7036872 0.05209839 0.6821728 0.1408633 0.6809197 0.4449684 2.81659e-4 0.4449685 0.1407485 0.3822112 0.1407486 0.5077258 0.04611504 0.5077258 0.1407485 0.4449685 0.1407485 0.5737057 0.3170663 0.5737057 0.2817788 0.7141724 0.2817786 0.6923632 2.81832e-4 0.7533031 2.81832e-4 0.7533032 0.1407485 0.6314231 0.0461151 0.6923632 2.81832e-4 0.6923632 0.1407485 0.04153114 0.6565093 0.1408628 0.6555744 0.1408613 0.5856935 0.5704832 0.05963742 0.5704832 0.1407485 0.5077258 0.1407485 0.7147014 0.9077165 0.6416069 0.9019144 0.6466728 0.8665888 0.6416069 0.9019144 0.5796059 0.8991688 0.5797793 0.8628883 0.5108678 0.8660234 0.5157794 0.9014318 0.4414902 0.9077293 0.5797793 0.8628883 0.5796059 0.8991688 0.5157794 0.9014318 0.440617 0.8751101 0.4414902 0.9077293 0.3822109 0.9051106 0.7721177 0.8705444 0.7740129 0.9057156 0.7147014 0.9077165 0.5805466 0.7891801 0.4708763 0.7796303 0.474259 0.754076 0.4708763 0.7796303 0.5805466 0.7891801 0.5366172 0.8101298 0.464708 0.8006523 0.5366172 0.8101298 0.4874866 0.8299562 0.5805466 0.7891801 0.6827895 0.7844578 0.681999 0.7559178 0.6229439 0.8108165 0.5805466 0.7891801 0.6827895 0.7844578 0.6709728 0.8312466 0.6229439 0.8108165 0.6912968 0.8054211 0.7141724 0.4367607 0.7141724 0.461431 0.6434221 0.461431 0.7141724 0.4159769 0.7141724 0.4367607 0.637896 0.4367607 0.7159184 0.8749805 0.6709728 0.8312466 0.7079863 0.8268836 0.7141724 0.3892476 0.7141724 0.4159769 0.631766 0.4159769 0.05209839 0.6821728 0.04153114 0.6565093 0.1408628 0.6555744 0.6202709 0.3892476 0.5737057 0.3170663 0.7141724 0.3170661 2.81659e-4 0.5505805 3.30861e-4 0.5858962 0.1408613 0.5856935 0.1408637 0.7024983 0.1408643 0.7295088 0.06857228 0.7299071 0.5704832 0.05963742 0.6314231 0.0461151 0.6314232 0.1407485 0.9274604 0.334876 0.8610384 0.334876 0.8610383 0.3083274 0.02427166 0.05368995 0.02425098 0.02714103 0.1274588 0.02706193 0.8920004 0.0538634 0.825683 0.05333304 0.8257519 0.02684682 0.2277117 0.05349236 0.1274843 0.05361562 0.1274588 0.02706193 0.9274604 0.4445629 0.8565561 0.4445629 0.8610385 0.4024362 0.127529 0.1022686 2.81659e-4 0.1023505 0.01116901 0.08589661 0.8255577 0.1015377 0.8255912 0.08864814 0.8916261 0.08947092 0.127529 0.1022686 0.12751 0.08008819 0.2457585 0.1168583 0.9274604 0.4024361 0.8610385 0.4024362 0.8610384 0.3637539 0.12751 0.08008819 0.01116901 0.08589661 0.02013707 0.07386499 0.8916261 0.08947092 0.8255912 0.08864814 0.8256298 0.07378649 0.12751 0.08008819 0.127497 0.06685167 0.2282581 0.08236443 0.9274604 0.5609534 0.8565561 0.5609535 0.8565561 0.4952896 0.127536 0.1910121 3.21589e-4 0.1910402 3.04257e-4 0.1421562 0.8964636 0.1493226 0.8966611 0.1985983 0.8253051 0.1986849 0.127536 0.1910121 0.1275317 0.1421051 0.3181049 0.1744968 0.9274603 0.2817786 0.9997183 0.2823449 0.9938827 0.3083272 0.1274355 0.5496357 0.02406728 0.5498211 0.02425128 0.5229617 0.7590734 0.02692812 0.7549644 3.43248e-4 0.8258209 2.81659e-4 0.1374101 0.8336719 0.1448017 0.9338865 0.07254165 0.9338851 0.1275371 0.3459595 3.24655e-4 0.3459331 3.29451e-4 0.2750511 0.9274604 0.5740844 0.9274604 0.5609534 0.9983648 0.5609534 0.1275371 0.3459595 0.1275362 0.3590898 3.21737e-4 0.359062 0.7583254 0.1090386 0.8255577 0.1015377 0.8254323 0.1497931 0.9274604 0.3637537 0.9274604 0.334876 0.9938827 0.3348759 0.1274976 0.4832507 0.1274848 0.4964868 0.02427184 0.4964126 0.759454 0.07413053 0.7593638 0.05351859 0.825683 0.05333304 0.9274604 0.4952896 0.9274604 0.4445629 0.9983649 0.4445629 0.127532 0.407997 0.1275295 0.4478335 2.81758e-4 0.4477518 0.7539505 0.1982272 0.8253051 0.1986849 0.8252708 0.2118961 0.2276803 0.5231589 0.2279227 0.5497875 0.1274355 0.5496357 0.1374101 0.8336719 0.07254165 0.8336719 0.07254159 0.7304704 0.3816466 0.3459406 0.1275371 0.3459595 0.1275415 0.275051 0.3816466 0.3459406 0.3816476 0.3590703 0.1275362 0.3590898 0.2277127 0.4966099 0.1274848 0.4964868 0.1274976 0.4832507 0.2754164 0.4030009 0.1275295 0.4478335 0.127532 0.407997 0.4403482 0.6321845 0.4868153 0.6777524 0.4484527 0.6829363 0.5793963 0.6456403 0.57951 0.7193523 0.5357681 0.6980139 0.5105153 0.6418941 0.5357681 0.6980139 0.4868153 0.6777524 0.5793963 0.6456403 0.6463199 0.6425329 0.6220974 0.6980926 0.6463199 0.6425329 0.7156371 0.6347552 0.6703057 0.6780891 0.2232428 0.7036837 0.1408637 0.7024983 0.1408633 0.6809197 0.3822112 0.1407486 0.4449685 0.1407485 0.4449686 0.2812153 0.4449685 0.1407485 0.5077258 0.1407485 0.5077258 0.2353819 0.8546391 0.3170661 0.7141724 0.3170661 0.7141724 0.2817786 0.6923633 0.2812151 0.6923632 0.1407485 0.7533032 0.1407485 0.6314232 0.2353818 0.6314232 0.1407485 0.6923632 0.1407485 0.1408613 0.5856935 0.1408628 0.6555744 0.2401944 0.6565051 0.5077258 0.1407485 0.5704832 0.1407485 0.5704832 0.2218595 0.6463199 0.6425329 0.6415672 0.6071637 0.7147104 0.6020097 0.5793963 0.6456403 0.5795445 0.6093596 0.6415672 0.6071637 0.5105153 0.6418941 0.4403482 0.6321845 0.4415109 0.5995745 0.5793963 0.6456403 0.5105153 0.6418941 0.5157409 0.6065308 0.4403482 0.6321845 0.3833873 0.6350101 0.3822109 0.6016665 0.7717952 0.6396893 0.7156371 0.6347552 0.7147104 0.6020097 0.4729152 0.7535125 0.4697592 0.7279292 0.57951 0.7193523 0.4697592 0.7279292 0.4637776 0.7068533 0.5357681 0.6980139 0.4868153 0.6777524 0.5357681 0.6980139 0.4637776 0.7068533 0.6806637 0.7535126 0.681707 0.7249808 0.57951 0.7193523 0.6220974 0.6980926 0.6904 0.7040937 0.681707 0.7249808 0.6904 0.7040937 0.6220974 0.6980926 0.6703057 0.6780891 0.7141724 0.4367607 0.7904489 0.4367608 0.7849227 0.461431 0.7904489 0.4367608 0.7141724 0.4367607 0.7141724 0.4159769 0.7156371 0.6347552 0.7717952 0.6396893 0.7072791 0.68278 0.7965788 0.4159769 0.7141724 0.4159769 0.7141724 0.3892476 0.2296283 0.682169 0.1408633 0.6809197 0.1408628 0.6555744 0.8080741 0.3892476 0.7141724 0.3892476 0.7141724 0.3170661 0.2814395 0.5505745 0.1408605 0.5503845 0.1408613 0.5856935 0.1408637 0.7024983 0.2232428 0.7036837 0.2131563 0.7299041 0.5704832 0.2218595 0.5704832 0.1407485 0.6314232 0.1407485 0.9274604 0.334876 0.9274604 0.3083273 0.9938827 0.3083272 0.1274594 0.5230406 0.02425128 0.5229617 0.02427184 0.4964126 0.7593638 0.05351859 0.7590734 0.02692812 0.8257519 0.02684682 0.2277127 0.4966099 0.2276803 0.5231589 0.1274594 0.5230406 0.9274604 0.4445629 0.9274604 0.4024361 0.9938827 0.4024362 0.1275295 0.4478335 0.1275106 0.4700142 0.01116919 0.4642058 0.759553 0.08912754 0.8255912 0.08864814 0.8255577 0.1015377 0.2457593 0.4332436 0.1275106 0.4700142 0.1275295 0.4478335 0.9274604 0.4024361 0.9274604 0.3637537 0.9938827 0.3637537 0.1275106 0.4700142 0.1274976 0.4832507 0.02013725 0.4762375 0.759553 0.08912754 0.759454 0.07413053 0.8256298 0.07378649 0.2282591 0.4677377 0.1274976 0.4832507 0.1275106 0.4700142 0.9274604 0.5609534 0.9274604 0.4952896 0.9983648 0.4952896 0.1275362 0.3590898 0.127532 0.407997 3.04381e-4 0.4079461 0.7544043 0.1489533 0.8254323 0.1497931 0.8253051 0.1986849 0.3181058 0.3756045 0.127532 0.407997 0.1275362 0.3590898 0.2820028 0.6967771 0.342431 0.6918988 0.2937815 0.7704971 0.2937815 0.7704971 0.3452955 0.7770665 0.2880883 0.8015156 0.2859408 0.8291411 0.2880883 0.8015156 0.3416715 0.8328499 0.6264222 0.5179225 0.6809735 0.5179225 0.6261324 0.5446202 0.6265494 0.564202 0.6813868 0.5633656 0.6267441 0.5713068 0.6261324 0.5446202 0.6811217 0.5440614 0.6265494 0.564202 0.3842329 0.4433156 0.4218347 0.4543197 0.3841167 0.4447689 0.3842587 0.4418559 0.4220097 0.4470289 0.3842329 0.4433156 0.3842585 0.4403959 0.4220081 0.4403948 0.3842587 0.4418559 0.3831861 0.447516 0.4162983 0.4795334 0.3822118 0.448611 0.3838087 0.4461941 0.4190832 0.4732056 0.3831861 0.447516 0.3841167 0.4447689 0.4206863 0.4653863 0.3838087 0.4461941 0.5344703 0.4850941 0.5722975 0.4959918 0.532303 0.5072894 0.4968823 0.4744485 0.5344703 0.4850941 0.4949287 0.4939267 0.5350201 0.4627542 0.5730563 0.4681987 0.5344703 0.4850941 0.4972414 0.4574311 0.5350201 0.4627542 0.4968823 0.4744485 0.5350596 0.4403955 0.5731424 0.4403961 0.5350201 0.4627542 0.4972537 0.4403949 0.5350596 0.4403955 0.4972414 0.4574311 0.4596065 0.4403947 0.4972537 0.4403949 0.4596045 0.4522065 0.4220081 0.4403948 0.4596065 0.4403947 0.4220097 0.4470289 0.517383 0.5558616 0.5514543 0.5760759 0.50485 0.5741816 0.4834546 0.5321213 0.517383 0.5558616 0.4733598 0.5459709 0.4496287 0.5069804 0.4834546 0.5321213 0.4423658 0.5163728 0.4162983 0.4795334 0.4496287 0.5069804 0.4119989 0.4846235 0.52625 0.5344037 0.5627084 0.5506415 0.517383 0.5558616 0.4903021 0.5156546 0.52625 0.5344037 0.4834546 0.5321213 0.4544742 0.4957636 0.4903021 0.5156546 0.4496287 0.5069804 0.4190832 0.4732056 0.4544742 0.4957636 0.4162983 0.4795334 0.532303 0.5072894 0.5694535 0.5236562 0.52625 0.5344037 0.4949287 0.4939267 0.532303 0.5072894 0.4903021 0.5156546 0.4573645 0.4824702 0.4949287 0.4939267 0.4544742 0.4957636 0.4206863 0.4653863 0.4573645 0.4824702 0.4190832 0.4732056 0.2873947 0.7735915 0.2864199 0.7490064 0.2937815 0.7704971 0.2841338 0.8011286 0.2873947 0.7735915 0.2880883 0.8015156 0.2820028 0.8288361 0.2841338 0.8011286 0.2859408 0.8291411 0.6179998 0.5449466 0.6225107 0.5179224 0.6261324 0.5446202 0.5737065 0.5738509 0.5997268 0.5652334 0.6267441 0.5713068 0.5997268 0.5652334 0.6179998 0.5449466 0.6265494 0.564202 0.4593383 0.4644626 0.4968823 0.4744485 0.4573645 0.4824702 0.4218347 0.4543197 0.4593383 0.4644626 0.4206863 0.4653863 0.4596045 0.4522065 0.4972414 0.4574311 0.4593383 0.4644626 0.4220097 0.4470289 0.4596045 0.4522065 0.4218347 0.4543197 0.2820047 0.6864582 0.2937824 0.6127378 0.342433 0.6913355 0.2937824 0.6127378 0.2880887 0.5817195 0.3452962 0.6061677 0.3435307 0.5783171 0.2880887 0.5817195 0.3416715 0.5503845 0.6264222 0.5179225 0.6261323 0.4912247 0.6809735 0.5179225 0.6265491 0.4716428 0.6267437 0.464538 0.681387 0.4724791 0.6261323 0.4912247 0.6265491 0.4716428 0.6811218 0.4917834 0.4206856 0.4154028 0.4218343 0.4264696 0.3841162 0.4360224 0.4218343 0.4264696 0.4220095 0.4337605 0.3842326 0.4374758 0.4220095 0.4337605 0.4220081 0.4403948 0.3842585 0.4389357 0.4119975 0.3961649 0.4162971 0.4012551 0.3822109 0.4321803 0.4162971 0.4012551 0.4190822 0.4075832 0.3831853 0.4332752 0.4190822 0.4075832 0.4206856 0.4154028 0.3838081 0.4345972 0.5694564 0.3571354 0.5722993 0.3848 0.532305 0.3735011 0.532305 0.3735011 0.5344716 0.3956965 0.4949299 0.3868629 0.5722993 0.3848 0.5730572 0.4125933 0.5344716 0.3956965 0.5344716 0.3956965 0.5350208 0.4180366 0.4968831 0.4063414 0.5730572 0.4125933 0.5731424 0.4403961 0.5350208 0.4180366 0.5350208 0.4180366 0.5350596 0.4403955 0.4972417 0.4233588 0.4972417 0.4233588 0.4972537 0.4403949 0.4596046 0.4285829 0.4596046 0.4285829 0.4596065 0.4403947 0.4220095 0.4337605 0.5361849 0.2817786 0.5514587 0.3047146 0.5048537 0.3066074 0.5048537 0.3066074 0.5173863 0.324928 0.4733624 0.3348174 0.4733624 0.3348174 0.4834568 0.3486675 0.442367 0.3644148 0.442367 0.3644148 0.4496298 0.3738077 0.4119975 0.3961649 0.5514587 0.3047146 0.562712 0.3301495 0.5173863 0.324928 0.5173863 0.324928 0.5262528 0.3463864 0.4834568 0.3486675 0.4834568 0.3486675 0.490304 0.3651346 0.4496298 0.3738077 0.4496298 0.3738077 0.454475 0.3850249 0.4162971 0.4012551 0.562712 0.3301495 0.5694564 0.3571354 0.5262528 0.3463864 0.5262528 0.3463864 0.532305 0.3735011 0.490304 0.3651346 0.490304 0.3651346 0.4949299 0.3868629 0.454475 0.3850249 0.454475 0.3850249 0.4573651 0.3983187 0.4190822 0.4075832 0.2820047 0.6864582 0.2864211 0.6342284 0.2937824 0.6127378 0.2937824 0.6127378 0.2873954 0.6096435 0.2880887 0.5817195 0.2880887 0.5817195 0.2841342 0.5821066 0.2859408 0.554094 0.6264222 0.5179225 0.6225107 0.5179224 0.6261323 0.4912247 0.6265491 0.4716428 0.5997263 0.4706117 0.6267437 0.464538 0.6261323 0.4912247 0.6179996 0.4908984 0.6265491 0.4716428 0.4949299 0.3868629 0.4968831 0.4063414 0.4573651 0.3983187 0.4573651 0.3983187 0.4593386 0.4163266 0.4206856 0.4154028 0.4968831 0.4063414 0.4972417 0.4233588 0.4593386 0.4163266 0.4593386 0.4163266 0.4596046 0.4285829 0.4218343 0.4264696 0.9274604 0.3083273 0.8610383 0.3083274 0.9274603 0.2817786 0.1274588 0.02706193 0.02425098 0.02714103 0.1274348 4.66994e-4 0.8966763 7.11533e-4 0.892429 0.02727478 0.8258209 2.81659e-4 2.81659e-4 0.9338865 0.007673263 0.8336721 0.07254165 0.9338851 3.24482e-4 0.2041689 0.127537 0.2041425 3.29451e-4 0.2750511 0.9274604 0.5609534 0.9274604 0.5740844 0.8565561 0.5609535 0.127536 0.1910121 0.127537 0.2041425 3.21589e-4 0.1910402 0.8255577 0.1015377 0.8927502 0.1093881 0.8254323 0.1497931 0.9274604 0.334876 0.9274604 0.3637537 0.8610384 0.334876 0.1274843 0.05361562 0.127497 0.06685167 0.02427166 0.05368995 0.8920004 0.0538634 0.8918031 0.07447463 0.825683 0.05333304 0.9274604 0.4445629 0.9274604 0.4952896 0.8565561 0.4445629 0.127529 0.1022686 0.1275317 0.1421051 2.81659e-4 0.1023505 0.8253051 0.1986849 0.8966611 0.1985983 0.8252708 0.2118961 0.2279217 3.15185e-4 0.2276793 0.02694356 0.1274348 4.66994e-4 0.001791298 0.7304704 0.07254159 0.7304704 0.007673263 0.8336721 0.127537 0.2041425 0.3816461 0.2041602 0.1275415 0.275051 0.3816469 0.1910307 0.3816461 0.2041602 0.127536 0.1910121 0.2282581 0.08236443 0.127497 0.06685167 0.2277117 0.05349236 0.3181049 0.1744968 0.1275317 0.1421051 0.2754155 0.1471008 0.3836835 0.8717789 0.4491717 0.8244323 0.440617 0.8751101 0.5108678 0.8660234 0.5366172 0.8101298 0.5797793 0.8628883 0.440617 0.8751101 0.4874866 0.8299562 0.5108678 0.8660234 0.6466728 0.8665888 0.5797793 0.8628883 0.6229439 0.8108165 0.7159184 0.8749805 0.6466728 0.8665888 0.6709728 0.8312466 0.1408637 0.7024983 0.05848467 0.7036872 0.1408633 0.6809197 0.3822109 2.81708e-4 0.4449684 2.81659e-4 0.3822112 0.1407486 0.4449684 2.81659e-4 0.5077258 0.04611504 0.4449685 0.1407485 0.7141724 0.3170661 0.5737057 0.3170663 0.7141724 0.2817786 0.6923632 0.1407485 0.6923632 2.81832e-4 0.7533032 0.1407485 0.6314232 0.1407485 0.6314231 0.0461151 0.6923632 0.1407485 3.30861e-4 0.5858962 0.04153114 0.6565093 0.1408613 0.5856935 0.5077258 0.04611504 0.5704832 0.05963742 0.5077258 0.1407485 0.7159184 0.8749805 0.7147014 0.9077165 0.6466728 0.8665888 0.6466728 0.8665888 0.6416069 0.9019144 0.5797793 0.8628883 0.440617 0.8751101 0.5108678 0.8660234 0.4414902 0.9077293 0.5108678 0.8660234 0.5797793 0.8628883 0.5157794 0.9014318 0.3836835 0.8717789 0.440617 0.8751101 0.3822109 0.9051106 0.7159184 0.8749805 0.7721177 0.8705444 0.7147014 0.9077165 0.5796974 0.7572677 0.5805466 0.7891801 0.474259 0.754076 0.464708 0.8006523 0.4708763 0.7796303 0.5366172 0.8101298 0.4491717 0.8244323 0.464708 0.8006523 0.4874866 0.8299562 0.5796974 0.7572677 0.5805466 0.7891801 0.681999 0.7559178 0.6912968 0.8054211 0.6229439 0.8108165 0.6827895 0.7844578 0.7079863 0.8268836 0.6709728 0.8312466 0.6912968 0.8054211 0.637896 0.4367607 0.7141724 0.4367607 0.6434221 0.461431 0.631766 0.4159769 0.7141724 0.4159769 0.637896 0.4367607 0.7721177 0.8705444 0.7159184 0.8749805 0.7079863 0.8268836 0.6202709 0.3892476 0.7141724 0.3892476 0.631766 0.4159769 0.1408633 0.6809197 0.05209839 0.6821728 0.1408628 0.6555744 0.7141724 0.3892476 0.6202709 0.3892476 0.7141724 0.3170661 0.1408605 0.5503845 2.81659e-4 0.5505805 0.1408613 0.5856935 0.05848467 0.7036872 0.1408637 0.7024983 0.06857228 0.7299071 0.5704832 0.1407485 0.5704832 0.05963742 0.6314232 0.1407485 0.9274604 0.3083273 0.9274604 0.334876 0.8610383 0.3083274 0.1274843 0.05361562 0.02427166 0.05368995 0.1274588 0.02706193 0.892429 0.02727478 0.8920004 0.0538634 0.8257519 0.02684682 0.2276793 0.02694356 0.2277117 0.05349236 0.1274588 0.02706193 0.9274604 0.4024361 0.9274604 0.4445629 0.8610385 0.4024362 0.12751 0.08008819 0.127529 0.1022686 0.01116901 0.08589661 0.8927502 0.1093881 0.8255577 0.1015377 0.8916261 0.08947092 0.2754155 0.1471008 0.127529 0.1022686 0.2457585 0.1168583 0.9274604 0.3637537 0.9274604 0.4024361 0.8610384 0.3637539 0.127497 0.06685167 0.12751 0.08008819 0.02013707 0.07386499 0.8918031 0.07447463 0.8916261 0.08947092 0.8256298 0.07378649 0.2457585 0.1168583 0.12751 0.08008819 0.2282581 0.08236443 0.9274604 0.4952896 0.9274604 0.5609534 0.8565561 0.4952896 0.1275317 0.1421051 0.127536 0.1910121 3.04257e-4 0.1421562 0.8254323 0.1497931 0.8964636 0.1493226 0.8253051 0.1986849 0.3816469 0.1910307 0.127536 0.1910121 0.3181049 0.1744968 0.9274604 0.3083273 0.9274603 0.2817786 0.9938827 0.3083272 0.1274594 0.5230406 0.1274355 0.5496357 0.02425128 0.5229617 0.8257519 0.02684682 0.7590734 0.02692812 0.8258209 2.81659e-4 0.07254165 0.8336719 0.1374101 0.8336719 0.07254165 0.9338851 0.1275415 0.275051 0.1275371 0.3459595 3.29451e-4 0.2750511 0.9983647 0.5740842 0.9274604 0.5740844 0.9983648 0.5609534 3.24655e-4 0.3459331 0.1275371 0.3459595 3.21737e-4 0.359062 0.7544043 0.1489533 0.7583254 0.1090386 0.8254323 0.1497931 0.9938827 0.3637537 0.9274604 0.3637537 0.9938827 0.3348759 0.02013725 0.4762375 0.1274976 0.4832507 0.02427184 0.4964126 0.8256298 0.07378649 0.759454 0.07413053 0.825683 0.05333304 0.9983648 0.4952896 0.9274604 0.4952896 0.9983649 0.4445629 3.04381e-4 0.4079461 0.127532 0.407997 2.81758e-4 0.4477518 0.7538666 0.2114496 0.7539505 0.1982272 0.8252708 0.2118961 0.1274594 0.5230406 0.2276803 0.5231589 0.1274355 0.5496357 0.1432918 0.7304704 0.1374101 0.8336719 0.07254159 0.7304704 0.3816431 0.2750504 0.3816466 0.3459406 0.1275415 0.275051 0.1275371 0.3459595 0.3816466 0.3459406 0.1275362 0.3590898 0.2282591 0.4677377 0.2277127 0.4966099 0.1274976 0.4832507 0.3181058 0.3756045 0.2754164 0.4030009 0.127532 0.407997 0.3833873 0.6350101 0.4403482 0.6321845 0.4484527 0.6829363 0.5105153 0.6418941 0.5793963 0.6456403 0.5357681 0.6980139 0.4403482 0.6321845 0.5105153 0.6418941 0.4868153 0.6777524 0.57951 0.7193523 0.5793963 0.6456403 0.6220974 0.6980926 0.6220974 0.6980926 0.6463199 0.6425329 0.6703057 0.6780891 0.2296283 0.682169 0.2232428 0.7036837 0.1408633 0.6809197 0.3822112 0.2812153 0.3822112 0.1407486 0.4449686 0.2812153 0.4449686 0.2812153 0.4449685 0.1407485 0.5077258 0.2353819 0.8546392 0.2817786 0.8546391 0.3170661 0.7141724 0.2817786 0.7533032 0.2812151 0.6923633 0.2812151 0.7533032 0.1407485 0.6923633 0.2812151 0.6314232 0.2353818 0.6923632 0.1407485 0.2813917 0.5858901 0.1408613 0.5856935 0.2401944 0.6565051 0.5077258 0.2353819 0.5077258 0.1407485 0.5704832 0.2218595 0.7156371 0.6347552 0.6463199 0.6425329 0.7147104 0.6020097 0.6463199 0.6425329 0.5793963 0.6456403 0.6415672 0.6071637 0.5157409 0.6065308 0.5105153 0.6418941 0.4415109 0.5995745 0.5795445 0.6093596 0.5793963 0.6456403 0.5157409 0.6065308 0.4415109 0.5995745 0.4403482 0.6321845 0.3822109 0.6016665 0.7740021 0.6045362 0.7717952 0.6396893 0.7147104 0.6020097 0.5783779 0.7512559 0.4729152 0.7535125 0.57951 0.7193523 0.57951 0.7193523 0.4697592 0.7279292 0.5357681 0.6980139 0.4484527 0.6829363 0.4868153 0.6777524 0.4637776 0.7068533 0.5783779 0.7512559 0.6806637 0.7535126 0.57951 0.7193523 0.57951 0.7193523 0.6220974 0.6980926 0.681707 0.7249808 0.7072791 0.68278 0.6904 0.7040937 0.6703057 0.6780891 0.7141724 0.461431 0.7141724 0.4367607 0.7849227 0.461431 0.7965788 0.4159769 0.7904489 0.4367608 0.7141724 0.4159769 0.6703057 0.6780891 0.7156371 0.6347552 0.7072791 0.68278 0.8080741 0.3892476 0.7965788 0.4159769 0.7141724 0.3892476 0.2401944 0.6565051 0.2296283 0.682169 0.1408628 0.6555744 0.8546391 0.3170661 0.8080741 0.3892476 0.7141724 0.3170661 0.2813917 0.5858901 0.2814395 0.5505745 0.1408613 0.5856935 0.1408643 0.7295088 0.1408637 0.7024983 0.2131563 0.7299041 0.6314232 0.2353818 0.5704832 0.2218595 0.6314232 0.1407485 0.9938827 0.3348759 0.9274604 0.334876 0.9938827 0.3083272 0.1274848 0.4964868 0.1274594 0.5230406 0.02427184 0.4964126 0.825683 0.05333304 0.7593638 0.05351859 0.8257519 0.02684682 0.1274848 0.4964868 0.2277127 0.4966099 0.1274594 0.5230406 0.9983649 0.4445629 0.9274604 0.4445629 0.9938827 0.4024362 2.81758e-4 0.4477518 0.1275295 0.4478335 0.01116919 0.4642058 0.7583254 0.1090386 0.759553 0.08912754 0.8255577 0.1015377 0.2754164 0.4030009 0.2457593 0.4332436 0.1275295 0.4478335 0.9938827 0.4024362 0.9274604 0.4024361 0.9938827 0.3637537 0.01116919 0.4642058 0.1275106 0.4700142 0.02013725 0.4762375 0.8255912 0.08864814 0.759553 0.08912754 0.8256298 0.07378649 0.2457593 0.4332436 0.2282591 0.4677377 0.1275106 0.4700142 0.9983648 0.5609534 0.9274604 0.5609534 0.9983648 0.4952896 3.21737e-4 0.359062 0.1275362 0.3590898 3.04381e-4 0.4079461 0.7539505 0.1982272 0.7544043 0.1489533 0.8253051 0.1986849 0.3816476 0.3590703 0.3181058 0.3756045 0.1275362 0.3590898</float_array>
          <technique_common>
            <accessor source="#Cube_003-mesh-map-0-array" count="1344" stride="2">
              <param name="S" type="float"/>
              <param name="T" type="float"/>
            </accessor>
          </technique_common>
        </source>
        <vertices id="Cube_003-mesh-vertices">
          <input semantic="POSITION" source="#Cube_003-mesh-positions"/>
        </vertices>
        <polylist count="448">
          <input semantic="VERTEX" source="#Cube_003-mesh-vertices" offset="0"/>
          <input semantic="NORMAL" source="#Cube_003-mesh-normals" offset="1"/>
          <input semantic="TEXCOORD" source="#Cube_003-mesh-map-0" offset="2" set="0"/>
          <vcount>3 3 3 3 3 3 3 3 3 3 3 3 3 3 3 3 3 3 3 3 3 3 3 3 3 3 3 3 3 3 3 3 3 3 3 3 3 3 3 3 3 3 3 3 3 3 3 3 3 3 3 3 3 3 3 3 3 3 3 3 3 3 3 3 3 3 3 3 3 3 3 3 3 3 3 3 3 3 3 3 3 3 3 3 3 3 3 3 3 3 3 3 3 3 3 3 3 3 3 3 3 3 3 3 3 3 3 3 3 3 3 3 3 3 3 3 3 3 3 3 3 3 3 3 3 3 3 3 3 3 3 3 3 3 3 3 3 3 3 3 3 3 3 3 3 3 3 3 3 3 3 3 3 3 3 3 3 3 3 3 3 3 3 3 3 3 3 3 3 3 3 3 3 3 3 3 3 3 3 3 3 3 3 3 3 3 3 3 3 3 3 3 3 3 3 3 3 3 3 3 3 3 3 3 3 3 3 3 3 3 3 3 3 3 3 3 3 3 3 3 3 3 3 3 3 3 3 3 3 3 3 3 3 3 3 3 3 3 3 3 3 3 3 3 3 3 3 3 3 3 3 3 3 3 3 3 3 3 3 3 3 3 3 3 3 3 3 3 3 3 3 3 3 3 3 3 3 3 3 3 3 3 3 3 3 3 3 3 3 3 3 3 3 3 3 3 3 3 3 3 3 3 3 3 3 3 3 3 3 3 3 3 3 3 3 3 3 3 3 3 3 3 3 3 3 3 3 3 3 3 3 3 3 3 3 3 3 3 3 3 3 3 3 3 3 3 3 3 3 3 3 3 3 3 3 3 3 3 3 3 3 3 3 3 3 3 3 3 3 3 3 3 3 3 3 3 3 3 3 3 3 3 3 3 3 3 3 3 3 3 3 3 3 3 3 3 3 3 3 3 3 3 3 3 3 3 3 3 3 3 3 3 3 3 3 3 3 3 3 3 3 3 3 3 3 3 3 3 3 3 3 3 3 3 3 3 3 3 3 3 3 3 3 3 3 3 3 3 </vcount>
          <p>1 0 0 3 0 1 35 0 2 3 1 3 5 1 4 36 1 5 36 2 6 5 2 7 80 2 8 82 3 9 7 3 10 37 3 11 9 4 12 1 4 13 34 4 14 7 5 15 9 5 16 38 5 17 15 6 18 21 6 19 10 6 20 22 7 21 15 7 22 14 7 23 85 8 24 22 8 25 13 8 26 26 9 27 90 9 28 83 9 29 30 10 30 26 10 31 12 10 32 21 11 33 30 11 34 11 11 35 8 12 36 0 12 37 18 12 38 17 13 39 18 13 40 19 13 41 6 14 42 8 14 43 17 14 44 25 15 45 17 15 46 16 15 47 81 16 48 6 16 49 25 16 50 88 17 51 25 17 52 24 17 53 87 18 54 24 18 55 23 18 56 86 19 57 23 19 58 22 19 59 4 20 60 79 20 61 93 20 62 29 21 63 93 21 64 92 21 65 28 22 66 92 22 67 91 22 68 27 23 69 91 23 70 90 23 71 2 24 72 4 24 73 29 24 74 33 25 75 29 25 76 28 25 77 32 26 78 28 26 79 27 26 80 31 27 81 27 27 82 26 27 83 0 28 84 2 28 85 33 28 86 18 29 87 33 29 88 32 29 89 19 30 90 32 30 91 31 30 92 20 31 93 31 31 94 30 31 95 0 32 96 34 32 97 35 32 98 2 33 99 35 33 100 36 33 101 4 34 102 36 34 103 94 34 104 81 35 105 95 35 106 37 35 107 8 36 108 38 36 109 34 36 110 6 37 111 37 37 112 38 37 113 16 38 114 19 38 115 20 38 116 39 39 117 20 39 118 21 39 119 24 40 120 16 40 121 39 40 122 23 41 123 39 41 124 15 41 125 75 42 126 43 42 127 41 42 128 76 43 129 45 43 130 43 43 131 76 44 132 94 44 133 80 44 134 77 45 135 47 45 136 82 45 137 74 46 138 41 46 139 49 46 140 78 47 141 49 47 142 47 47 143 55 48 144 54 48 145 50 48 146 62 49 147 53 49 148 54 49 149 85 50 150 84 50 151 53 50 152 66 51 153 52 51 154 83 51 155 70 52 156 51 52 157 52 52 158 61 53 159 50 53 160 51 53 161 48 54 162 57 54 163 58 54 164 57 55 165 56 55 166 59 55 167 46 56 168 65 56 169 57 56 170 65 57 171 64 57 172 56 57 173 81 58 174 88 58 175 65 58 176 88 59 177 87 59 178 64 59 179 87 60 180 86 60 181 63 60 182 86 61 183 85 61 184 62 61 185 44 62 186 69 62 187 93 62 188 69 63 189 68 63 190 92 63 191 68 64 192 67 64 193 91 64 194 67 65 195 66 65 196 90 65 197 42 66 198 73 66 199 69 66 200 73 67 201 72 67 202 68 67 203 72 68 204 71 68 205 67 68 206 71 69 207 70 69 208 66 69 209 40 70 210 58 70 211 73 70 212 58 71 213 59 71 214 72 71 215 59 72 216 60 72 217 71 72 218 60 73 219 61 73 220 70 73 221 40 74 222 42 74 223 75 74 224 42 75 225 44 75 226 76 75 227 44 76 228 79 76 229 94 76 230 81 77 231 46 77 232 77 77 233 48 78 234 40 78 235 74 78 236 46 79 237 48 79 238 78 79 239 56 80 240 89 80 241 60 80 242 89 81 243 55 81 244 61 81 245 64 82 246 63 82 247 89 82 248 63 83 249 62 83 250 55 83 251 136 84 252 97 84 253 155 84 254 137 85 255 96 85 256 107 85 257 137 86 258 215 86 259 153 86 260 107 87 261 169 87 262 155 87 263 106 88 264 170 88 265 152 88 266 154 89 267 99 89 268 101 89 269 106 90 270 98 90 271 100 90 272 105 91 273 146 91 274 233 91 275 226 92 276 142 92 277 102 92 278 144 93 279 143 93 280 103 93 281 143 94 282 225 94 283 160 94 284 230 95 285 145 95 286 104 95 287 147 96 288 146 96 289 105 96 290 100 97 291 98 97 292 152 97 293 136 98 294 138 98 295 107 98 296 153 99 297 169 99 298 107 99 299 99 100 300 154 100 301 170 100 302 99 101 303 106 101 304 108 101 305 144 102 306 109 102 307 102 102 308 147 103 309 110 103 310 104 103 311 126 104 312 130 104 313 115 104 314 129 105 315 128 105 316 113 105 317 130 106 318 129 106 319 114 106 320 113 107 321 128 107 322 131 107 323 116 108 324 131 108 325 132 108 326 135 109 327 118 109 328 206 109 329 123 110 330 196 110 331 205 110 332 122 111 333 198 111 334 196 111 335 111 112 336 119 112 337 205 112 338 125 113 339 120 113 340 204 113 341 124 114 342 125 114 343 192 114 344 127 115 345 190 115 346 211 115 347 121 116 348 203 116 349 198 116 350 125 117 351 124 117 352 116 117 353 124 118 354 121 118 355 113 118 356 114 119 357 122 119 358 123 119 359 113 120 360 121 120 361 122 120 362 115 121 363 123 121 364 119 121 365 112 122 366 120 122 367 125 122 368 128 123 369 133 123 370 96 123 371 133 124 372 128 124 373 129 124 374 134 125 375 129 125 376 130 125 377 128 126 378 135 126 379 97 126 380 131 127 381 128 127 382 135 127 383 132 128 384 131 128 385 118 128 386 207 129 387 153 129 388 96 129 389 210 130 390 207 130 391 133 130 392 117 131 393 132 131 394 127 131 395 191 132 396 210 132 397 134 132 398 118 133 399 127 133 400 190 133 401 126 134 402 111 134 403 212 134 404 120 135 405 112 135 406 211 135 407 189 136 408 155 136 409 97 136 410 121 137 411 124 137 412 195 137 413 161 138 414 102 138 415 136 138 416 103 139 417 137 139 418 138 139 419 103 140 420 160 140 421 215 140 422 102 141 423 109 141 424 138 141 425 165 142 426 104 142 427 139 142 428 110 143 429 105 143 430 140 143 431 164 144 432 220 144 433 140 144 434 110 145 435 141 145 436 139 145 437 221 146 438 139 146 439 142 146 440 141 147 441 140 147 442 143 147 443 140 148 444 220 148 445 225 148 446 141 149 447 144 149 448 142 149 449 158 150 450 101 150 451 145 150 452 108 151 453 100 151 454 146 151 455 146 152 456 100 152 457 234 152 458 108 153 459 147 153 460 145 153 461 155 154 462 149 154 463 214 154 464 168 155 465 148 155 466 217 155 467 217 156 468 148 156 469 153 156 470 168 157 471 149 157 472 155 157 473 167 158 474 150 158 475 152 158 476 154 159 477 158 159 478 157 159 479 167 160 480 171 160 481 156 160 482 166 161 483 164 161 484 233 161 485 226 162 486 161 162 487 159 162 488 228 163 489 172 163 490 162 163 491 227 164 492 162 164 493 160 164 494 230 165 495 165 165 496 163 165 497 232 166 498 173 166 499 166 166 500 156 167 501 234 167 502 152 167 503 214 168 504 149 168 505 168 168 506 168 169 507 169 169 508 153 169 509 151 170 510 167 170 511 170 170 512 151 171 513 157 171 514 171 171 515 159 172 516 172 172 517 228 172 518 163 173 519 173 173 520 232 173 521 178 174 522 200 174 523 193 174 524 176 175 525 197 175 526 199 175 527 177 176 528 199 176 529 200 176 530 176 177 531 179 177 532 201 177 533 179 178 534 180 178 535 202 178 536 213 179 537 189 179 538 206 179 539 205 180 540 196 180 541 186 180 542 196 181 543 198 181 544 185 181 545 174 182 546 212 182 547 205 182 548 188 183 549 192 183 550 204 183 551 187 184 552 195 184 553 192 184 554 211 185 555 190 185 556 194 185 557 198 186 558 203 186 559 184 186 560 179 187 561 187 187 562 188 187 563 176 188 564 184 188 565 187 188 566 177 189 567 178 189 568 186 189 569 176 190 570 177 190 571 185 190 572 178 191 573 174 191 574 182 191 575 175 192 576 180 192 577 188 192 578 148 193 579 208 193 580 197 193 581 208 194 582 209 194 583 199 194 584 200 195 585 199 195 586 209 195 587 149 196 588 213 196 589 197 196 590 201 197 591 181 197 592 213 197 593 181 198 594 201 198 595 202 198 596 207 199 597 208 199 598 148 199 599 208 200 600 207 200 601 210 200 602 180 201 603 175 201 604 194 201 605 209 202 606 210 202 607 191 202 608 181 203 609 206 203 610 190 203 611 193 204 612 191 204 613 212 204 614 183 205 615 204 205 616 211 205 617 189 206 618 213 206 619 149 206 620 184 207 621 203 207 622 195 207 623 161 208 624 216 208 625 214 208 626 218 209 627 217 209 628 162 209 629 162 210 630 217 210 631 215 210 632 159 211 633 214 211 634 218 211 635 165 212 636 221 212 637 219 212 638 173 213 639 223 213 640 222 213 641 222 214 642 220 214 643 164 214 644 219 215 645 223 215 646 173 215 647 221 216 648 226 216 649 224 216 650 223 217 651 228 217 652 227 217 653 222 218 654 227 218 655 225 218 656 224 219 657 228 219 658 223 219 659 158 220 660 230 220 661 229 220 662 171 221 663 232 221 664 231 221 665 231 222 666 233 222 667 234 222 668 229 223 669 232 223 670 171 223 671 34 224 672 1 224 673 35 224 674 35 225 675 3 225 676 36 225 677 94 226 678 36 226 679 80 226 680 95 227 681 82 227 682 37 227 683 38 228 684 9 228 685 34 228 686 37 229 687 7 229 688 38 229 689 14 230 690 15 230 691 10 230 692 13 231 693 22 231 694 14 231 695 84 232 696 85 232 697 13 232 698 12 233 699 26 233 700 83 233 701 11 234 702 30 234 703 12 234 704 10 235 705 21 235 706 11 235 707 17 236 708 8 236 709 18 236 710 16 237 711 17 237 712 19 237 713 25 238 714 6 238 715 17 238 716 24 239 717 25 239 718 16 239 719 88 240 720 81 240 721 25 240 722 87 241 723 88 241 724 24 241 725 86 242 726 87 242 727 23 242 728 85 243 729 86 243 730 22 243 731 29 244 732 4 244 733 93 244 734 28 245 735 29 245 736 92 245 737 27 246 738 28 246 739 91 246 740 26 247 741 27 247 742 90 247 743 33 248 744 2 248 745 29 248 746 32 249 747 33 249 748 28 249 749 31 250 750 32 250 751 27 250 752 30 251 753 31 251 754 26 251 755 18 252 756 0 252 757 33 252 758 19 253 759 18 253 760 32 253 761 20 254 762 19 254 763 31 254 764 21 255 765 20 255 766 30 255 767 2 256 768 0 256 769 35 256 770 4 257 771 2 257 772 36 257 773 79 258 774 4 258 775 94 258 776 6 259 777 81 259 778 37 259 779 0 260 780 8 260 781 34 260 782 8 261 783 6 261 784 38 261 785 39 262 786 16 262 787 20 262 788 15 263 789 39 263 790 21 263 791 23 264 792 24 264 793 39 264 794 22 265 795 23 265 796 15 265 797 74 266 798 75 266 799 41 266 800 75 267 801 76 267 802 43 267 803 45 268 804 76 268 805 80 268 806 95 269 807 77 269 808 82 269 809 78 270 810 74 270 811 49 270 812 77 271 813 78 271 814 47 271 815 61 272 816 55 272 817 50 272 818 55 273 819 62 273 820 54 273 821 62 274 822 85 274 823 53 274 824 90 275 825 66 275 826 83 275 827 66 276 828 70 276 829 52 276 830 70 277 831 61 277 832 51 277 833 40 278 834 48 278 835 58 278 836 58 279 837 57 279 838 59 279 839 48 280 840 46 280 841 57 280 842 57 281 843 65 281 844 56 281 845 46 282 846 81 282 847 65 282 848 65 283 849 88 283 850 64 283 851 64 284 852 87 284 853 63 284 854 63 285 855 86 285 856 62 285 857 79 286 858 44 286 859 93 286 860 93 287 861 69 287 862 92 287 863 92 288 864 68 288 865 91 288 866 91 289 867 67 289 868 90 289 869 44 290 870 42 290 871 69 290 872 69 291 873 73 291 874 68 291 875 68 292 876 72 292 877 67 292 878 67 293 879 71 293 880 66 293 881 42 294 882 40 294 883 73 294 884 73 295 885 58 295 886 72 295 887 72 296 888 59 296 889 71 296 890 71 297 891 60 297 892 70 297 893 74 298 894 40 298 895 75 298 896 75 299 897 42 299 898 76 299 899 76 300 900 44 300 901 94 300 902 95 301 903 81 301 904 77 301 905 78 302 906 48 302 907 74 302 908 77 303 909 46 303 910 78 303 911 59 304 912 56 304 913 60 304 914 60 305 915 89 305 916 61 305 917 56 306 918 64 306 919 89 306 920 89 307 921 63 307 922 55 307 923 216 308 924 136 308 925 155 308 926 138 309 927 137 309 928 107 309 929 96 310 930 137 310 931 153 310 932 97 311 933 107 311 934 155 311 935 98 312 936 106 312 937 152 312 938 158 313 939 154 313 940 101 313 941 108 314 942 106 314 943 100 314 944 164 315 945 105 315 946 233 315 947 161 316 948 226 316 949 102 316 950 109 317 951 144 317 952 103 317 953 103 318 954 143 318 955 160 318 956 165 319 957 230 319 958 104 319 959 110 320 960 147 320 961 105 320 962 234 321 963 100 321 964 152 321 965 97 322 966 136 322 967 107 322 968 96 323 969 153 323 970 107 323 971 106 324 972 99 324 973 170 324 974 101 325 975 99 325 976 108 325 977 142 326 978 144 326 979 102 326 980 145 327 981 147 327 982 104 327 983 111 328 984 126 328 985 115 328 986 114 329 987 129 329 988 113 329 989 115 330 990 130 330 991 114 330 992 116 331 993 113 331 994 131 331 995 117 332 996 116 332 997 132 332 998 189 333 999 135 333 1000 206 333 1001 119 334 1002 123 334 1003 205 334 1004 123 335 1005 122 335 1006 196 335 1007 212 336 1008 111 336 1009 205 336 1010 192 337 1011 125 337 1012 204 337 1013 195 338 1014 124 338 1015 192 338 1016 112 339 1017 127 339 1018 211 339 1019 122 340 1020 121 340 1021 198 340 1022 117 341 1023 125 341 1024 116 341 1025 116 342 1026 124 342 1027 113 342 1028 115 343 1029 114 343 1030 123 343 1031 114 344 1032 113 344 1033 122 344 1034 111 345 1035 115 345 1036 119 345 1037 117 346 1038 112 346 1039 125 346 1040 107 347 1041 128 347 1042 96 347 1043 134 348 1044 133 348 1045 129 348 1046 126 349 1047 134 349 1048 130 349 1049 107 350 1050 128 350 1051 97 350 1052 118 351 1053 131 351 1054 135 351 1055 127 352 1056 132 352 1057 118 352 1058 133 353 1059 207 353 1060 96 353 1061 134 354 1062 210 354 1063 133 354 1064 112 355 1065 117 355 1066 127 355 1067 126 356 1068 191 356 1069 134 356 1070 206 357 1071 118 357 1072 190 357 1073 191 358 1074 126 358 1075 212 358 1076 204 359 1077 120 359 1078 211 359 1079 135 360 1080 189 360 1081 97 360 1082 203 361 1083 121 361 1084 195 361 1085 216 362 1086 161 362 1087 136 362 1088 109 363 1089 103 363 1090 138 363 1091 137 364 1092 103 364 1093 215 364 1094 136 365 1095 102 365 1096 138 365 1097 221 366 1098 165 366 1099 139 366 1100 141 367 1101 110 367 1102 140 367 1103 105 368 1104 164 368 1105 140 368 1106 104 369 1107 110 369 1108 139 369 1109 226 370 1110 221 370 1111 142 370 1112 144 371 1113 141 371 1114 143 371 1115 143 372 1116 140 372 1117 225 372 1118 139 373 1119 141 373 1120 142 373 1121 230 374 1122 158 374 1123 145 374 1124 147 375 1125 108 375 1126 146 375 1127 233 376 1128 146 376 1129 234 376 1130 101 377 1131 108 377 1132 145 377 1133 216 378 1134 155 378 1135 214 378 1136 218 379 1137 168 379 1138 217 379 1139 215 380 1140 217 380 1141 153 380 1142 169 381 1143 168 381 1144 155 381 1145 170 382 1146 167 382 1147 152 382 1148 151 383 1149 154 383 1150 157 383 1151 150 384 1152 167 384 1153 156 384 1154 231 385 1155 166 385 1156 233 385 1157 224 386 1158 226 386 1159 159 386 1160 227 387 1161 228 387 1162 162 387 1163 225 388 1164 227 388 1165 160 388 1166 229 389 1167 230 389 1168 163 389 1169 231 390 1170 232 390 1171 166 390 1172 150 391 1173 156 391 1174 152 391 1175 218 392 1176 214 392 1177 168 392 1178 148 393 1179 168 393 1180 153 393 1181 154 394 1182 151 394 1183 170 394 1184 167 395 1185 151 395 1186 171 395 1187 224 396 1188 159 396 1189 228 396 1190 229 397 1191 163 397 1192 232 397 1193 174 398 1194 178 398 1195 193 398 1196 177 399 1197 176 399 1198 199 399 1199 178 400 1200 177 400 1201 200 400 1202 197 401 1203 176 401 1204 201 401 1205 201 402 1206 179 402 1207 202 402 1208 181 403 1209 213 403 1210 206 403 1211 182 404 1212 205 404 1213 186 404 1214 186 405 1215 196 405 1216 185 405 1217 182 406 1218 174 406 1219 205 406 1220 183 407 1221 188 407 1222 204 407 1223 188 408 1224 187 408 1225 192 408 1226 175 409 1227 211 409 1228 194 409 1229 185 410 1230 198 410 1231 184 410 1232 180 411 1233 179 411 1234 188 411 1235 179 412 1236 176 412 1237 187 412 1238 185 413 1239 177 413 1240 186 413 1241 184 414 1242 176 414 1243 185 414 1244 186 415 1245 178 415 1246 182 415 1247 183 416 1248 175 416 1249 188 416 1250 168 417 1251 148 417 1252 197 417 1253 197 418 1254 208 418 1255 199 418 1256 193 419 1257 200 419 1258 209 419 1259 168 420 1260 149 420 1261 197 420 1262 197 421 1263 201 421 1264 213 421 1265 194 422 1266 181 422 1267 202 422 1268 153 423 1269 207 423 1270 148 423 1271 209 424 1272 208 424 1273 210 424 1274 202 425 1275 180 425 1276 194 425 1277 193 426 1278 209 426 1279 191 426 1280 194 427 1281 181 427 1282 190 427 1283 174 428 1284 193 428 1285 212 428 1286 175 429 1287 183 429 1288 211 429 1289 155 430 1290 189 430 1291 149 430 1292 187 431 1293 184 431 1294 195 431 1295 159 432 1296 161 432 1297 214 432 1298 172 433 1299 218 433 1300 162 433 1301 160 434 1302 162 434 1303 215 434 1304 172 435 1305 159 435 1306 218 435 1307 163 436 1308 165 436 1309 219 436 1310 166 437 1311 173 437 1312 222 437 1313 166 438 1314 222 438 1315 164 438 1316 163 439 1317 219 439 1318 173 439 1319 219 440 1320 221 440 1321 224 440 1322 222 441 1323 223 441 1324 227 441 1325 220 442 1326 222 442 1327 225 442 1328 219 443 1329 224 443 1330 223 443 1331 157 444 1332 158 444 1333 229 444 1334 156 445 1335 171 445 1336 231 445 1337 156 446 1338 231 446 1339 234 446 1340 157 447 1341 229 447 1342 171 447 1343</p>
        </polylist>
      </mesh>
    </geometry>
    <geometry id="Cube_072-mesh" name="Cube.072">
      <mesh>
        <source id="Cube_072-mesh-positions">
          <float_array id="Cube_072-mesh-positions-array" count="24">-0.2654445 0.02362602 -0.008492946 -0.2654445 -0.02362602 -0.008492946 0.4373211 -0.02362602 -0.008492946 0.4373211 0.02362602 -0.008492946 -0.2654445 0.02362602 0.008492946 -0.2654445 -0.02362602 0.008492946 0.4373211 -0.02362602 0.008492946 0.4373211 0.02362602 0.008492946</float_array>
          <technique_common>
            <accessor source="#Cube_072-mesh-positions-array" count="8" stride="3">
              <param name="X" type="float"/>
              <param name="Y" type="float"/>
              <param name="Z" type="float"/>
            </accessor>
          </technique_common>
        </source>
        <source id="Cube_072-mesh-normals">
          <float_array id="Cube_072-mesh-normals-array" count="36">-1 0 0 0 -1 0 1 0 0 0 1 0 0 0 -1 0 0 1 -1 0 0 0 -1 0 1 0 0 0 1 0 0 0 -1 0 0 1</float_array>
          <technique_common>
            <accessor source="#Cube_072-mesh-normals-array" count="12" stride="3">
              <param name="X" type="float"/>
              <param name="Y" type="float"/>
              <param name="Z" type="float"/>
            </accessor>
          </technique_common>
        </source>
        <source id="Cube_072-mesh-map-0">
          <float_array id="Cube_072-mesh-map-0-array" count="72">0.1624227 1.321352 0.1624227 1.679454 0.1330395 1.679454 0.1035549 0.958424 0.1035549 0.6003085 0.7284759 0.6003622 0.1035549 1.679454 0.1035549 1.321352 0.132938 1.321352 0.7284759 0.9608303 0.7284759 1.318946 0.1035549 1.318918 0.1035549 -0.09876233 0.7284486 -0.09874969 0.7284486 0.5978991 0.7284486 -0.1011697 0.1035549 -0.1011685 0.1035549 -0.7978174 0.1330395 1.321352 0.1624227 1.321352 0.1330395 1.679454 0.7284759 0.958424 0.1035549 0.958424 0.7284759 0.6003622 0.132938 1.679454 0.1035549 1.679454 0.132938 1.321352 0.1035549 0.9608567 0.7284759 0.9608303 0.1035549 1.318918 0.1035549 0.5979023 0.1035549 -0.09876233 0.7284486 0.5978991 0.7284486 -0.7978345 0.7284486 -0.1011697 0.1035549 -0.7978174</float_array>
          <technique_common>
            <accessor source="#Cube_072-mesh-map-0-array" count="36" stride="2">
              <param name="S" type="float"/>
              <param name="T" type="float"/>
            </accessor>
          </technique_common>
        </source>
        <vertices id="Cube_072-mesh-vertices">
          <input semantic="POSITION" source="#Cube_072-mesh-positions"/>
        </vertices>
        <polylist material="HotIron-material" count="12">
          <input semantic="VERTEX" source="#Cube_072-mesh-vertices" offset="0"/>
          <input semantic="NORMAL" source="#Cube_072-mesh-normals" offset="1"/>
          <input semantic="TEXCOORD" source="#Cube_072-mesh-map-0" offset="2" set="0"/>
          <vcount>3 3 3 3 3 3 3 3 3 3 3 3 </vcount>
          <p>4 0 0 0 0 1 1 0 2 5 1 3 1 1 4 2 1 5 6 2 6 2 2 7 3 2 8 7 3 9 3 3 10 0 3 11 0 4 12 3 4 13 2 4 14 7 5 15 4 5 16 5 5 17 5 6 18 4 6 19 1 6 20 6 7 21 5 7 22 2 7 23 7 8 24 6 8 25 3 8 26 4 9 27 7 9 28 0 9 29 1 10 30 0 10 31 2 10 32 6 11 33 7 11 34 5 11 35</p>
        </polylist>
      </mesh>
    </geometry>
    <geometry id="Cube_076-mesh" name="Cube.076">
      <mesh>
        <source id="Cube_076-mesh-positions">
          <float_array id="Cube_076-mesh-positions-array" count="24">-1 -1 -1 -1 1 -1 1 1 -1 1 -1 -1 -1 -1 1 -1 1 1 1 1 1 1 -1 1</float_array>
          <technique_common>
            <accessor source="#Cube_076-mesh-positions-array" count="8" stride="3">
              <param name="X" type="float"/>
              <param name="Y" type="float"/>
              <param name="Z" type="float"/>
            </accessor>
          </technique_common>
        </source>
        <source id="Cube_076-mesh-normals">
          <float_array id="Cube_076-mesh-normals-array" count="36">-1 0 0 0 1 0 1 0 0 0 -1 0 0 0 -1 0 0 1 -1 0 0 0 1 0 1 0 0 0 -1 0 0 0 -1 0 0 1</float_array>
          <technique_common>
            <accessor source="#Cube_076-mesh-normals-array" count="12" stride="3">
              <param name="X" type="float"/>
              <param name="Y" type="float"/>
              <param name="Z" type="float"/>
            </accessor>
          </technique_common>
        </source>
        <vertices id="Cube_076-mesh-vertices">
          <input semantic="POSITION" source="#Cube_076-mesh-positions"/>
        </vertices>
        <polylist count="12">
          <input semantic="VERTEX" source="#Cube_076-mesh-vertices" offset="0"/>
          <input semantic="NORMAL" source="#Cube_076-mesh-normals" offset="1"/>
          <vcount>3 3 3 3 3 3 3 3 3 3 3 3 </vcount>
          <p>4 0 5 0 1 0 5 1 6 1 2 1 6 2 7 2 3 2 7 3 4 3 0 3 0 4 1 4 2 4 7 5 6 5 5 5 0 6 4 6 1 6 1 7 5 7 2 7 2 8 6 8 3 8 3 9 7 9 0 9 3 10 0 10 2 10 4 11 7 11 5 11</p>
        </polylist>
      </mesh>
    </geometry>
  </library_geometries>
  <library_controllers/>
  <library_visual_scenes>
    <visual_scene id="Scene" name="Scene">
      <node id="Camera" name="Camera" type="NODE">
        <matrix sid="transform">0.8976687 -0.1323304 0.4203328 1.771656 0.4368512 0.3925461 -0.8093631 -3.280675 -0.0578967 0.9101627 0.410185 1.799611 0 0 0 1</matrix>
        <instance_camera url="#Camera-camera"/>
      </node>
      <node id="Lamp" name="Lamp" type="NODE">
        <matrix sid="transform">-0.2908646 -0.7711008 0.5663932 4.076245 0.9551712 -0.1998834 0.2183912 1.005454 -0.05518906 0.6045247 0.7946723 5.903862 0 0 0 1</matrix>
        <instance_light url="#Lamp-light"/>
      </node>
      <node id="Lamp_001" name="Lamp_001" type="NODE">
        <matrix sid="transform">-0.1111397 -0.9258153 -0.3612671 -2.235696 0.9551712 -0.1998832 0.2183912 1.005454 -0.2744012 -0.3207999 0.9065271 6.413522 0 0 0 1</matrix>
        <instance_light url="#Lamp_001-light"/>
      </node>
      <node id="Lamp_002" name="Lamp_002" type="NODE">
        <matrix sid="transform">-0.8248591 -0.4060397 -0.3933692 -3.276159 0.4942788 -0.855698 -0.153197 -3.272004 -0.2744012 -0.3208 0.9065271 6.413522 0 0 0 1</matrix>
        <instance_light url="#Lamp_002-light"/>
      </node>
      <node id="Lamp_003" name="Lamp_003" type="NODE">
        <matrix sid="transform">0.7045109 0.4975508 -0.5060708 -2.457644 0.4942788 -0.855698 -0.1531967 -3.272002 -0.509267 -0.1422113 -0.8487774 -3.58098 0 0 0 1</matrix>
        <instance_light url="#Lamp_003-light"/>
      </node>
      <node id="Cube" name="Cube" type="NODE">
        <matrix sid="transform">0.01450214 0 0 0.1592166 0 0.01450214 0 -0.001816865 0 0 0.01450214 0.08052842 0 0 0 1</matrix>
        <instance_geometry url="#Cube_001-mesh"/>
      </node>
      <node id="Cylinder" name="Cylinder" type="NODE">
        <matrix sid="transform">0.01275105 0 0 0.2035089 0 0.01275105 0 0.03390579 0 0 0.01275105 0.0825407 0 0 0 1</matrix>
        <instance_geometry url="#Cylinder-mesh"/>
      </node>
      <node id="Cube_002" name="Cube_002" type="NODE">
        <matrix sid="transform">1 0 0 0 0 1 0 0 0 0 1 0 0 0 0 1</matrix>
        <instance_geometry url="#Cube_003-mesh"/>
      </node>
      <node id="Lamp_004" name="Lamp_004" type="NODE">
        <matrix sid="transform">-0.7509195 0.6603628 0.006388526 0.02072978 -0.007151582 0.001541717 -0.9999732 -5.463349 -0.660355 -0.7509451 0.003564934 2.544119 0 0 0 1</matrix>
        <instance_light url="#Lamp_004-light"/>
      </node>
      <node id="Lamp_005" name="Lamp_005" type="NODE">
        <matrix sid="transform">0.7508972 -0.6603561 -0.009124906 -0.07402281 0.00920643 -0.003348778 0.999952 5.314758 -0.660355 -0.7509452 0.003564934 2.544119 0 0 0 1</matrix>
        <instance_light url="#Lamp_005-light"/>
      </node>
      <node id="Lamp_006" name="Lamp_006" type="NODE">
        <matrix sid="transform">-0.008216074 0.00247784 -0.9999632 -4.977469 0.7509087 -0.66036 -0.007806075 0.4113111 -0.660355 -0.7509452 0.003564934 2.544119 0 0 0 1</matrix>
        <instance_light url="#Lamp_006-light"/>
      </node>
      <node id="Lamp_007" name="Lamp_007" type="NODE">
        <matrix sid="transform">0.01438438 -0.007902499 0.9998653 6.084896 -0.7508158 0.6603173 0.01602034 0.3165585 -0.660355 -0.7509452 0.003564934 2.544119 0 0 0 1</matrix>
        <instance_light url="#Lamp_007-light"/>
      </node>
      <node id="IronHotMiddle" name="IronHotMiddle" type="NODE">
        <matrix sid="transform">1 0 0 1.086415 0 1 0 -0.351502 0 0 1 0.7280002 0 0 0 1</matrix>
        <instance_geometry url="#Cube_072-mesh">
          <bind_material>
            <technique_common>
              <instance_material symbol="HotIron-material" target="#HotIron-material">
                <bind_vertex_input semantic="UVMap" input_semantic="TEXCOORD" input_set="0"/>
              </instance_material>
            </technique_common>
          </bind_material>
        </instance_geometry>
      </node>
      <node id="Cube_004" name="Cube_004" type="NODE">
        <matrix sid="transform">1 0 0 -1.949508 0 1 0 2.879906 0 0 0.9 0.1873633 0 0 0 1</matrix>
        <instance_geometry url="#Cube_076-mesh"/>
      </node>
      <node id="Camera_001" name="Camera_001" type="NODE">
        <matrix sid="transform">-0.9660234 -0.1547438 0.2070102 2.681487 0.2518866 -0.3842631 0.8881976 4.190163 -0.0578967 0.9101627 0.410185 1.354476 0 0 0 1</matrix>
        <instance_camera url="#Camera_001-camera"/>
      </node>
    </visual_scene>
  </library_visual_scenes>
  <scene>
    <instance_visual_scene url="#Scene"/>
  </scene>
</COLLADA>